info face="TimesNewRomanPSMT" size=97 bold=0 italic=0 charset="" unicode=0 stretchH=100 smooth=1 aa=1 padding=1,1,1,1 spacing=-2,-2
common lineHeight=113 base=87 scaleW=512 scaleH=512 pages=2 packed=0
page id=0 file="b_cert_971.png"
page id=1 file="b_cert_972.png"
chars count=96
char id=10      x=0    y=0    width=0    height=0    xoffset=-1   yoffset=0    xadvance=0    page=0    chnl=0 
char id=32      x=0    y=0    width=0    height=0    xoffset=-1   yoffset=0    xadvance=24   page=0    chnl=0 
char id=33      x=497  y=0    width=14   height=70   xoffset=9    yoffset=20   xadvance=32   page=0    chnl=0 
char id=35      x=327  y=163  width=48   height=70   xoffset=0    yoffset=20   xadvance=49   page=0    chnl=0 
char id=36      x=359  y=0    width=41   height=80   xoffset=4    yoffset=16   xadvance=49   page=0    chnl=0 
char id=37      x=60   y=91   width=77   height=71   xoffset=2    yoffset=20   xadvance=81   page=0    chnl=0 
char id=38      x=375  y=163  width=72   height=70   xoffset=2    yoffset=20   xadvance=75   page=0    chnl=0 
char id=39      x=486  y=163  width=13   height=30   xoffset=2    yoffset=20   xadvance=17   page=0    chnl=0 
char id=40      x=36   y=0    width=30   height=91   xoffset=2    yoffset=18   xadvance=32   page=0    chnl=0 
char id=41      x=66   y=0    width=29   height=91   xoffset=1    yoffset=18   xadvance=32   page=0    chnl=0 
char id=43      x=250  y=437  width=54   height=54   xoffset=0    yoffset=28   xadvance=55   page=0    chnl=0 
char id=44      x=491  y=437  width=17   height=29   xoffset=4    yoffset=76   xadvance=24   page=0    chnl=0 
char id=47      x=0    y=91   width=30   height=72   xoffset=-1   yoffset=18   xadvance=27   page=0    chnl=0 
char id=48      x=244  y=163  width=45   height=70   xoffset=2    yoffset=20   xadvance=49   page=0    chnl=0 
char id=49      x=465  y=233  width=28   height=68   xoffset=10   yoffset=20   xadvance=49   page=0    chnl=0 
char id=50      x=144  y=302  width=45   height=68   xoffset=1    yoffset=20   xadvance=49   page=0    chnl=0 
char id=51      x=77   y=163  width=40   height=70   xoffset=2    yoffset=20   xadvance=49   page=0    chnl=0 
char id=52      x=189  y=302  width=47   height=68   xoffset=0    yoffset=20   xadvance=49   page=0    chnl=0 
char id=53      x=309  y=233  width=41   height=69   xoffset=3    yoffset=21   xadvance=49   page=0    chnl=0 
char id=54      x=117  y=163  width=43   height=70   xoffset=3    yoffset=20   xadvance=49   page=0    chnl=0 
char id=55      x=350  y=233  width=44   height=69   xoffset=2    yoffset=21   xadvance=49   page=0    chnl=0 
char id=56      x=160  y=163  width=40   height=70   xoffset=4    yoffset=20   xadvance=49   page=0    chnl=0 
char id=57      x=200  y=163  width=44   height=70   xoffset=2    yoffset=20   xadvance=49   page=0    chnl=0 
char id=58      x=493  y=233  width=13   height=49   xoffset=7    yoffset=41   xadvance=27   page=0    chnl=0 
char id=59      x=463  y=370  width=17   height=64   xoffset=5    yoffset=41   xadvance=27   page=0    chnl=0 
char id=60      x=304  y=437  width=54   height=50   xoffset=0    yoffset=30   xadvance=55   page=0    chnl=0 
char id=62      x=358  y=437  width=54   height=50   xoffset=0    yoffset=30   xadvance=55   page=0    chnl=0 
char id=63      x=289  y=163  width=38   height=70   xoffset=3    yoffset=20   xadvance=43   page=0    chnl=0 
char id=64      x=160  y=0    width=85   height=91   xoffset=3    yoffset=18   xadvance=89   page=0    chnl=0 
char id=65      x=394  y=233  width=71   height=68   xoffset=-1   yoffset=20   xadvance=70   page=0    chnl=0 
char id=66      x=236  y=302  width=61   height=67   xoffset=0    yoffset=21   xadvance=65   page=0    chnl=0 
char id=67      x=137  y=91   width=61   height=70   xoffset=2    yoffset=20   xadvance=65   page=0    chnl=0 
char id=68      x=297  y=302  width=68   height=67   xoffset=0    yoffset=21   xadvance=70   page=0    chnl=0 
char id=69      x=365  y=302  width=59   height=67   xoffset=0    yoffset=21   xadvance=59   page=0    chnl=0 
char id=70      x=424  y=302  width=51   height=67   xoffset=0    yoffset=21   xadvance=54   page=0    chnl=0 
char id=71      x=198  y=91   width=68   height=70   xoffset=2    yoffset=20   xadvance=70   page=0    chnl=0 
char id=72      x=0    y=370  width=70   height=67   xoffset=0    yoffset=21   xadvance=70   page=0    chnl=0 
char id=73      x=475  y=302  width=30   height=67   xoffset=1    yoffset=21   xadvance=32   page=0    chnl=0 
char id=74      x=447  y=163  width=39   height=69   xoffset=0    yoffset=21   xadvance=38   page=0    chnl=0 
char id=75      x=70   y=370  width=72   height=67   xoffset=0    yoffset=21   xadvance=70   page=0    chnl=0 
char id=76      x=142  y=370  width=59   height=67   xoffset=0    yoffset=21   xadvance=59   page=0    chnl=0 
char id=77      x=201  y=370  width=86   height=67   xoffset=0    yoffset=21   xadvance=86   page=0    chnl=0 
char id=78      x=0    y=233  width=74   height=69   xoffset=-3   yoffset=21   xadvance=70   page=0    chnl=0 
char id=79      x=266  y=91   width=66   height=70   xoffset=2    yoffset=20   xadvance=70   page=0    chnl=0 
char id=80      x=287  y=370  width=52   height=67   xoffset=0    yoffset=21   xadvance=54   page=0    chnl=0 
char id=81      x=293  y=0    width=66   height=87   xoffset=2    yoffset=20   xadvance=70   page=0    chnl=0 
char id=82      x=339  y=370  width=67   height=67   xoffset=0    yoffset=21   xadvance=65   page=0    chnl=0 
char id=83      x=332  y=91   width=45   height=70   xoffset=5    yoffset=20   xadvance=54   page=0    chnl=0 
char id=84      x=406  y=370  width=57   height=67   xoffset=1    yoffset=21   xadvance=59   page=0    chnl=0 
char id=85      x=74   y=233  width=72   height=69   xoffset=-1   yoffset=21   xadvance=70   page=0    chnl=0 
char id=86      x=146  y=233  width=71   height=69   xoffset=-1   yoffset=21   xadvance=70   page=0    chnl=0 
char id=87      x=217  y=233  width=92   height=69   xoffset=0    yoffset=21   xadvance=92   page=0    chnl=0 
char id=88      x=0    y=437  width=71   height=67   xoffset=-1   yoffset=21   xadvance=70   page=0    chnl=0 
char id=89      x=71   y=437  width=71   height=67   xoffset=-1   yoffset=21   xadvance=70   page=0    chnl=0 
char id=90      x=142  y=437  width=58   height=67   xoffset=0    yoffset=21   xadvance=59   page=0    chnl=0 
char id=91      x=245  y=0    width=24   height=88   xoffset=6    yoffset=20   xadvance=32   page=0    chnl=0 
char id=92      x=30   y=91   width=30   height=72   xoffset=-1   yoffset=18   xadvance=27   page=0    chnl=0 
char id=93      x=269  y=0    width=24   height=88   xoffset=2    yoffset=20   xadvance=32   page=0    chnl=0 
char id=95      x=0    y=504  width=53   height=7    xoffset=-2   yoffset=102  xadvance=49   page=0    chnl=0 
char id=98      x=400  y=0    width=49   height=72   xoffset=-2   yoffset=18   xadvance=49   page=0    chnl=0 
char id=99      x=412  y=437  width=39   height=49   xoffset=2    yoffset=41   xadvance=43   page=0    chnl=0 
char id=100     x=449  y=0    width=48   height=72   xoffset=2    yoffset=18   xadvance=49   page=0    chnl=0 
char id=101     x=451  y=437  width=40   height=49   xoffset=2    yoffset=41   xadvance=43   page=0    chnl=0 
char id=102     x=377  y=91   width=52   height=70   xoffset=2    yoffset=18   xadvance=32   page=0    chnl=0 
char id=103     x=0    y=302  width=47   height=68   xoffset=1    yoffset=41   xadvance=49   page=0    chnl=0 
char id=104     x=429  y=91   width=50   height=70   xoffset=-1   yoffset=18   xadvance=49   page=0    chnl=0 
char id=105     x=479  y=91   width=25   height=70   xoffset=1    yoffset=18   xadvance=27   page=0    chnl=0 
char id=106     x=0    y=0    width=36   height=91   xoffset=-9   yoffset=18   xadvance=27   page=0    chnl=0 
char id=107     x=0    y=163  width=52   height=70   xoffset=-1   yoffset=18   xadvance=49   page=0    chnl=0 
char id=108     x=52   y=163  width=25   height=70   xoffset=1    yoffset=18   xadvance=27   page=0    chnl=0 
char id=112     x=47   y=302  width=49   height=68   xoffset=-2   yoffset=41   xadvance=49   page=0    chnl=0 
char id=113     x=96   y=302  width=48   height=68   xoffset=2    yoffset=41   xadvance=49   page=0    chnl=0 
char id=116     x=480  y=370  width=30   height=61   xoffset=-1   yoffset=28   xadvance=27   page=0    chnl=0 
char id=121     x=200  y=437  width=50   height=67   xoffset=-1   yoffset=42   xadvance=49   page=0    chnl=0 
char id=123     x=95   y=0    width=29   height=91   xoffset=12   yoffset=18   xadvance=47   page=0    chnl=0 
char id=124     x=153  y=0    width=7    height=91   xoffset=6    yoffset=18   xadvance=19   page=0    chnl=0 
char id=125     x=124  y=0    width=29   height=91   xoffset=7    yoffset=18   xadvance=47   page=0    chnl=0 
char id=34      x=126  y=49   width=30   height=30   xoffset=5    yoffset=20   xadvance=40   page=1    chnl=0 
char id=42      x=43   y=49   width=38   height=42   xoffset=5    yoffset=18   xadvance=49   page=1    chnl=0 
char id=45      x=297  y=49   width=28   height=10   xoffset=2    yoffset=60   xadvance=32   page=1    chnl=0 
char id=46      x=283  y=49   width=14   height=14   xoffset=5    yoffset=76   xadvance=24   page=1    chnl=0 
char id=61      x=156  y=49   width=54   height=22   xoffset=0    yoffset=44   xadvance=55   page=1    chnl=0 
char id=94      x=81   y=49   width=45   height=37   xoffset=0    yoffset=20   xadvance=46   page=1    chnl=0 
char id=96      x=210  y=49   width=19   height=19   xoffset=4    yoffset=20   xadvance=32   page=1    chnl=0 
char id=97      x=78   y=0    width=42   height=48   xoffset=2    yoffset=41   xadvance=43   page=1    chnl=0 
char id=109     x=293  y=0    width=78   height=47   xoffset=-1   yoffset=41   xadvance=75   page=1    chnl=0 
char id=110     x=371  y=0    width=51   height=47   xoffset=-1   yoffset=41   xadvance=49   page=1    chnl=0 
char id=111     x=0    y=0    width=45   height=49   xoffset=2    yoffset=41   xadvance=49   page=1    chnl=0 
char id=114     x=422  y=0    width=35   height=47   xoffset=-1   yoffset=41   xadvance=32   page=1    chnl=0 
char id=115     x=45   y=0    width=33   height=49   xoffset=3    yoffset=41   xadvance=38   page=1    chnl=0 
char id=117     x=120  y=0    width=51   height=48   xoffset=-1   yoffset=42   xadvance=49   page=1    chnl=0 
char id=118     x=171  y=0    width=50   height=48   xoffset=-1   yoffset=42   xadvance=49   page=1    chnl=0 
char id=119     x=221  y=0    width=72   height=48   xoffset=-1   yoffset=42   xadvance=70   page=1    chnl=0 
char id=120     x=457  y=0    width=49   height=46   xoffset=0    yoffset=42   xadvance=49   page=1    chnl=0 
char id=122     x=0    y=49   width=43   height=46   xoffset=0    yoffset=42   xadvance=43   page=1    chnl=0 
char id=126     x=229  y=49   width=54   height=17   xoffset=-1   yoffset=53   xadvance=52   page=1    chnl=0 
