info face="TimesNewRomanPSMT" size=118 bold=0 italic=0 charset="" unicode=0 stretchH=100 smooth=1 aa=1 padding=1,1,1,1 spacing=-2,-2
common lineHeight=137 base=106 scaleW=512 scaleH=512 pages=2 packed=0
page id=0 file="b_cert_1181.png"
page id=1 file="b_cert_1182.png"
chars count=96
char id=10      x=0    y=0    width=0    height=0    xoffset=-1   yoffset=0    xadvance=0    page=0    chnl=0 
char id=32      x=0    y=0    width=0    height=0    xoffset=-1   yoffset=0    xadvance=30   page=0    chnl=0 
char id=33      x=494  y=196  width=16   height=84   xoffset=12   yoffset=25   xadvance=39   page=0    chnl=0 
char id=35      x=98   y=280  width=57   height=84   xoffset=1    yoffset=25   xadvance=59   page=0    chnl=0 
char id=36      x=431  y=0    width=50   height=96   xoffset=5    yoffset=20   xadvance=59   page=0    chnl=0 
char id=37      x=189  y=110  width=93   height=86   xoffset=3    yoffset=25   xadvance=98   page=0    chnl=0 
char id=38      x=155  y=280  width=87   height=84   xoffset=3    yoffset=25   xadvance=92   page=0    chnl=0 
char id=40      x=44   y=0    width=35   height=110  xoffset=3    yoffset=23   xadvance=39   page=0    chnl=0 
char id=41      x=79   y=0    width=35   height=110  xoffset=1    yoffset=23   xadvance=39   page=0    chnl=0 
char id=47      x=117  y=110  width=36   height=86   xoffset=-1   yoffset=23   xadvance=33   page=0    chnl=0 
char id=48      x=0    y=280  width=53   height=84   xoffset=3    yoffset=25   xadvance=59   page=0    chnl=0 
char id=49      x=463  y=280  width=34   height=82   xoffset=12   yoffset=25   xadvance=59   page=0    chnl=0 
char id=51      x=294  y=196  width=48   height=84   xoffset=3    yoffset=25   xadvance=59   page=0    chnl=0 
char id=53      x=369  y=364  width=49   height=83   xoffset=4    yoffset=26   xadvance=59   page=0    chnl=0 
char id=54      x=342  y=196  width=52   height=84   xoffset=4    yoffset=25   xadvance=59   page=0    chnl=0 
char id=55      x=418  y=364  width=52   height=83   xoffset=3    yoffset=26   xadvance=59   page=0    chnl=0 
char id=56      x=394  y=196  width=48   height=84   xoffset=6    yoffset=25   xadvance=59   page=0    chnl=0 
char id=57      x=442  y=196  width=52   height=84   xoffset=3    yoffset=25   xadvance=59   page=0    chnl=0 
char id=58      x=492  y=110  width=16   height=59   xoffset=9    yoffset=50   xadvance=33   page=0    chnl=0 
char id=60      x=0    y=447  width=65   height=60   xoffset=1    yoffset=37   xadvance=67   page=0    chnl=0 
char id=62      x=65   y=447  width=65   height=60   xoffset=1    yoffset=37   xadvance=67   page=0    chnl=0 
char id=63      x=53   y=280  width=45   height=84   xoffset=4    yoffset=25   xadvance=52   page=0    chnl=0 
char id=64      x=192  y=0    width=103  height=110  xoffset=4    yoffset=23   xadvance=109  page=0    chnl=0 
char id=67      x=282  y=110  width=73   height=84   xoffset=3    yoffset=25   xadvance=79   page=0    chnl=0 
char id=71      x=355  y=110  width=82   height=84   xoffset=3    yoffset=25   xadvance=85   page=0    chnl=0 
char id=73      x=470  y=364  width=37   height=81   xoffset=1    yoffset=26   xadvance=39   page=0    chnl=0 
char id=74      x=242  y=280  width=46   height=83   xoffset=1    yoffset=26   xadvance=46   page=0    chnl=0 
char id=78      x=288  y=280  width=89   height=83   xoffset=-3   yoffset=26   xadvance=85   page=0    chnl=0 
char id=79      x=0    y=196  width=79   height=84   xoffset=3    yoffset=25   xadvance=85   page=0    chnl=0 
char id=81      x=295  y=0    width=79   height=106  xoffset=3    yoffset=25   xadvance=85   page=0    chnl=0 
char id=83      x=437  y=110  width=55   height=84   xoffset=6    yoffset=25   xadvance=66   page=0    chnl=0 
char id=85      x=377  y=280  width=86   height=83   xoffset=-1   yoffset=26   xadvance=85   page=0    chnl=0 
char id=86      x=0    y=364  width=85   height=83   xoffset=0    yoffset=26   xadvance=85   page=0    chnl=0 
char id=87      x=85   y=364  width=112  height=83   xoffset=0    yoffset=26   xadvance=111  page=0    chnl=0 
char id=91      x=374  y=0    width=29   height=106  xoffset=8    yoffset=25   xadvance=39   page=0    chnl=0 
char id=92      x=153  y=110  width=36   height=86   xoffset=-1   yoffset=23   xadvance=33   page=0    chnl=0 
char id=93      x=403  y=0    width=28   height=106  xoffset=3    yoffset=25   xadvance=39   page=0    chnl=0 
char id=97      x=130  y=447  width=51   height=59   xoffset=3    yoffset=50   xadvance=52   page=0    chnl=0 
char id=98      x=0    y=110  width=58   height=86   xoffset=-2   yoffset=23   xadvance=59   page=0    chnl=0 
char id=99      x=181  y=447  width=47   height=59   xoffset=3    yoffset=50   xadvance=52   page=0    chnl=0 
char id=100     x=58   y=110  width=59   height=86   xoffset=2    yoffset=23   xadvance=59   page=0    chnl=0 
char id=101     x=228  y=447  width=48   height=59   xoffset=3    yoffset=50   xadvance=52   page=0    chnl=0 
char id=102     x=79   y=196  width=62   height=84   xoffset=3    yoffset=23   xadvance=39   page=0    chnl=0 
char id=103     x=197  y=364  width=56   height=83   xoffset=2    yoffset=50   xadvance=59   page=0    chnl=0 
char id=104     x=141  y=196  width=61   height=84   xoffset=-1   yoffset=23   xadvance=59   page=0    chnl=0 
char id=105     x=481  y=0    width=29   height=84   xoffset=2    yoffset=23   xadvance=33   page=0    chnl=0 
char id=106     x=0    y=0    width=44   height=110  xoffset=-11  yoffset=23   xadvance=33   page=0    chnl=0 
char id=107     x=202  y=196  width=62   height=84   xoffset=-1   yoffset=23   xadvance=59   page=0    chnl=0 
char id=108     x=264  y=196  width=30   height=84   xoffset=2    yoffset=23   xadvance=33   page=0    chnl=0 
char id=109     x=369  y=447  width=94   height=57   xoffset=-1   yoffset=50   xadvance=92   page=0    chnl=0 
char id=111     x=276  y=447  width=54   height=59   xoffset=2    yoffset=50   xadvance=59   page=0    chnl=0 
char id=112     x=253  y=364  width=58   height=83   xoffset=-2   yoffset=50   xadvance=59   page=0    chnl=0 
char id=113     x=311  y=364  width=58   height=83   xoffset=2    yoffset=50   xadvance=59   page=0    chnl=0 
char id=114     x=463  y=447  width=44   height=57   xoffset=-1   yoffset=50   xadvance=39   page=0    chnl=0 
char id=115     x=330  y=447  width=39   height=59   xoffset=4    yoffset=50   xadvance=46   page=0    chnl=0 
char id=123     x=114  y=0    width=35   height=110  xoffset=15   yoffset=23   xadvance=57   page=0    chnl=0 
char id=124     x=184  y=0    width=8    height=110  xoffset=8    yoffset=23   xadvance=24   page=0    chnl=0 
char id=125     x=149  y=0    width=35   height=110  xoffset=9    yoffset=23   xadvance=57   page=0    chnl=0 
char id=34      x=470  y=163  width=36   height=36   xoffset=6    yoffset=25   xadvance=48   page=1    chnl=0 
char id=39      x=484  y=0    width=15   height=36   xoffset=3    yoffset=25   xadvance=21   page=1    chnl=0 
char id=42      x=379  y=244  width=45   height=50   xoffset=7    yoffset=23   xadvance=59   page=1    chnl=0 
char id=43      x=405  y=163  width=65   height=65   xoffset=1    yoffset=34   xadvance=67   page=1    chnl=0 
char id=44      x=478  y=244  width=20   height=34   xoffset=5    yoffset=93   xadvance=30   page=1    chnl=0 
char id=45      x=167  y=301  width=33   height=11   xoffset=3    yoffset=74   xadvance=39   page=1    chnl=0 
char id=46      x=151  y=301  width=16   height=16   xoffset=7    yoffset=93   xadvance=30   page=1    chnl=0 
char id=50      x=86   y=0    width=55   height=82   xoffset=1    yoffset=25   xadvance=59   page=1    chnl=0 
char id=52      x=141  y=0    width=56   height=82   xoffset=0    yoffset=25   xadvance=59   page=1    chnl=0 
char id=59      x=489  y=82   width=20   height=77   xoffset=7    yoffset=50   xadvance=33   page=1    chnl=0 
char id=61      x=0    y=301  width=65   height=26   xoffset=1    yoffset=54   xadvance=67   page=1    chnl=0 
char id=65      x=0    y=0    width=86   height=82   xoffset=-1   yoffset=25   xadvance=85   page=1    chnl=0 
char id=66      x=197  y=0    width=74   height=81   xoffset=0    yoffset=26   xadvance=79   page=1    chnl=0 
char id=68      x=271  y=0    width=81   height=81   xoffset=1    yoffset=26   xadvance=85   page=1    chnl=0 
char id=69      x=352  y=0    width=70   height=81   xoffset=1    yoffset=26   xadvance=72   page=1    chnl=0 
char id=70      x=422  y=0    width=62   height=81   xoffset=0    yoffset=26   xadvance=66   page=1    chnl=0 
char id=72      x=0    y=82   width=83   height=81   xoffset=1    yoffset=26   xadvance=85   page=1    chnl=0 
char id=75      x=83   y=82   width=89   height=81   xoffset=0    yoffset=26   xadvance=85   page=1    chnl=0 
char id=76      x=172  y=82   width=70   height=81   xoffset=1    yoffset=26   xadvance=72   page=1    chnl=0 
char id=77      x=242  y=82   width=104  height=81   xoffset=0    yoffset=26   xadvance=105  page=1    chnl=0 
char id=80      x=346  y=82   width=63   height=81   xoffset=0    yoffset=26   xadvance=66   page=1    chnl=0 
char id=82      x=409  y=82   width=80   height=81   xoffset=1    yoffset=26   xadvance=79   page=1    chnl=0 
char id=84      x=0    y=163  width=69   height=81   xoffset=2    yoffset=26   xadvance=72   page=1    chnl=0 
char id=88      x=69   y=163  width=86   height=81   xoffset=-1   yoffset=26   xadvance=85   page=1    chnl=0 
char id=89      x=155  y=163  width=85   height=81   xoffset=0    yoffset=26   xadvance=85   page=1    chnl=0 
char id=90      x=240  y=163  width=70   height=81   xoffset=0    yoffset=26   xadvance=72   page=1    chnl=0 
char id=94      x=424  y=244  width=54   height=44   xoffset=1    yoffset=25   xadvance=55   page=1    chnl=0 
char id=95      x=200  y=301  width=65   height=8    xoffset=-2   yoffset=125  xadvance=59   page=1    chnl=0 
char id=96      x=65   y=301  width=22   height=23   xoffset=5    yoffset=24   xadvance=39   page=1    chnl=0 
char id=110     x=0    y=244  width=61   height=57   xoffset=-1   yoffset=50   xadvance=59   page=1    chnl=0 
char id=116     x=371  y=163  width=34   height=74   xoffset=0    yoffset=34   xadvance=33   page=1    chnl=0 
char id=117     x=61   y=244  width=61   height=57   xoffset=-1   yoffset=52   xadvance=59   page=1    chnl=0 
char id=118     x=122  y=244  width=60   height=57   xoffset=-1   yoffset=52   xadvance=59   page=1    chnl=0 
char id=119     x=182  y=244  width=87   height=57   xoffset=-1   yoffset=52   xadvance=85   page=1    chnl=0 
char id=120     x=269  y=244  width=59   height=55   xoffset=0    yoffset=52   xadvance=59   page=1    chnl=0 
char id=121     x=310  y=163  width=61   height=81   xoffset=-1   yoffset=52   xadvance=59   page=1    chnl=0 
char id=122     x=328  y=244  width=51   height=55   xoffset=1    yoffset=52   xadvance=52   page=1    chnl=0 
char id=126     x=87   y=301  width=64   height=20   xoffset=0    yoffset=65   xadvance=64   page=1    chnl=0 
