info face="TimesNewRomanPSMT" size=106 bold=0 italic=0 charset="" unicode=0 stretchH=100 smooth=1 aa=1 padding=1,1,1,1 spacing=-2,-2
common lineHeight=123 base=95 scaleW=512 scaleH=512 pages=2 packed=0
page id=0 file="b_cert_1061.png"
page id=1 file="b_cert_1062.png"
chars count=96
char id=10      x=0    y=0    width=0    height=0    xoffset=-1   yoffset=0    xadvance=0    page=0    chnl=0 
char id=32      x=0    y=0    width=0    height=0    xoffset=-1   yoffset=0    xadvance=27   page=0    chnl=0 
char id=33      x=491  y=99   width=15   height=76   xoffset=10   yoffset=22   xadvance=35   page=0    chnl=0 
char id=34      x=0    y=477  width=33   height=33   xoffset=5    yoffset=22   xadvance=43   page=0    chnl=0 
char id=35      x=0    y=253  width=53   height=76   xoffset=0    yoffset=22   xadvance=53   page=0    chnl=0 
char id=36      x=390  y=0    width=45   height=88   xoffset=4    yoffset=17   xadvance=53   page=0    chnl=0 
char id=37      x=117  y=99   width=84   height=77   xoffset=2    yoffset=22   xadvance=88   page=0    chnl=0 
char id=38      x=53   y=253  width=79   height=76   xoffset=2    yoffset=22   xadvance=82   page=0    chnl=0 
char id=39      x=33   y=477  width=13   height=33   xoffset=3    yoffset=22   xadvance=19   page=0    chnl=0 
char id=40      x=40   y=0    width=31   height=99   xoffset=3    yoffset=20   xadvance=35   page=0    chnl=0 
char id=41      x=71   y=0    width=31   height=99   xoffset=1    yoffset=20   xadvance=35   page=0    chnl=0 
char id=44      x=46   y=477  width=19   height=31   xoffset=4    yoffset=83   xadvance=27   page=0    chnl=0 
char id=45      x=216  y=477  width=30   height=11   xoffset=3    yoffset=66   xadvance=35   page=0    chnl=0 
char id=46      x=202  y=477  width=14   height=15   xoffset=6    yoffset=83   xadvance=27   page=0    chnl=0 
char id=47      x=53   y=99   width=32   height=78   xoffset=-1   yoffset=20   xadvance=29   page=0    chnl=0 
char id=48      x=374  y=177  width=49   height=76   xoffset=2    yoffset=22   xadvance=53   page=0    chnl=0 
char id=49      x=470  y=253  width=31   height=74   xoffset=11   yoffset=22   xadvance=53   page=0    chnl=0 
char id=50      x=326  y=329  width=49   height=74   xoffset=1    yoffset=22   xadvance=53   page=0    chnl=0 
char id=51      x=194  y=177  width=43   height=76   xoffset=3    yoffset=22   xadvance=53   page=0    chnl=0 
char id=52      x=375  y=329  width=51   height=74   xoffset=0    yoffset=22   xadvance=53   page=0    chnl=0 
char id=53      x=0    y=329  width=44   height=75   xoffset=4    yoffset=23   xadvance=53   page=0    chnl=0 
char id=54      x=237  y=177  width=47   height=76   xoffset=3    yoffset=22   xadvance=53   page=0    chnl=0 
char id=55      x=44   y=329  width=48   height=75   xoffset=2    yoffset=23   xadvance=53   page=0    chnl=0 
char id=56      x=284  y=177  width=43   height=76   xoffset=5    yoffset=22   xadvance=53   page=0    chnl=0 
char id=57      x=327  y=177  width=47   height=76   xoffset=3    yoffset=22   xadvance=53   page=0    chnl=0 
char id=58      x=488  y=0    width=14   height=53   xoffset=8    yoffset=45   xadvance=29   page=0    chnl=0 
char id=59      x=492  y=329  width=18   height=69   xoffset=6    yoffset=45   xadvance=29   page=0    chnl=0 
char id=61      x=65   y=477  width=59   height=24   xoffset=0    yoffset=48   xadvance=60   page=0    chnl=0 
char id=63      x=423  y=177  width=41   height=76   xoffset=3    yoffset=22   xadvance=47   page=0    chnl=0 
char id=64      x=173  y=0    width=93   height=99   xoffset=4    yoffset=20   xadvance=98   page=0    chnl=0 
char id=65      x=92   y=329  width=78   height=74   xoffset=-1   yoffset=22   xadvance=77   page=0    chnl=0 
char id=66      x=426  y=329  width=66   height=73   xoffset=0    yoffset=23   xadvance=71   page=0    chnl=0 
char id=67      x=201  y=99   width=67   height=76   xoffset=2    yoffset=22   xadvance=71   page=0    chnl=0 
char id=68      x=0    y=404  width=74   height=73   xoffset=0    yoffset=23   xadvance=77   page=0    chnl=0 
char id=69      x=74   y=404  width=63   height=73   xoffset=1    yoffset=23   xadvance=65   page=0    chnl=0 
char id=70      x=137  y=404  width=56   height=73   xoffset=0    yoffset=23   xadvance=59   page=0    chnl=0 
char id=71      x=268  y=99   width=75   height=76   xoffset=2    yoffset=22   xadvance=77   page=0    chnl=0 
char id=72      x=193  y=404  width=76   height=73   xoffset=0    yoffset=23   xadvance=77   page=0    chnl=0 
char id=73      x=269  y=404  width=33   height=73   xoffset=1    yoffset=23   xadvance=35   page=0    chnl=0 
char id=74      x=464  y=177  width=41   height=75   xoffset=1    yoffset=23   xadvance=41   page=0    chnl=0 
char id=75      x=302  y=404  width=79   height=73   xoffset=0    yoffset=23   xadvance=77   page=0    chnl=0 
char id=76      x=381  y=404  width=63   height=73   xoffset=1    yoffset=23   xadvance=65   page=0    chnl=0 
char id=78      x=132  y=253  width=81   height=75   xoffset=-3   yoffset=23   xadvance=77   page=0    chnl=0 
char id=79      x=343  y=99   width=72   height=76   xoffset=2    yoffset=22   xadvance=77   page=0    chnl=0 
char id=80      x=444  y=404  width=57   height=73   xoffset=0    yoffset=23   xadvance=59   page=0    chnl=0 
char id=81      x=318  y=0    width=72   height=95   xoffset=2    yoffset=22   xadvance=77   page=0    chnl=0 
char id=83      x=415  y=99   width=50   height=76   xoffset=5    yoffset=22   xadvance=59   page=0    chnl=0 
char id=85      x=213  y=253  width=78   height=75   xoffset=-1   yoffset=23   xadvance=77   page=0    chnl=0 
char id=86      x=291  y=253  width=78   height=75   xoffset=-1   yoffset=23   xadvance=77   page=0    chnl=0 
char id=87      x=369  y=253  width=101  height=75   xoffset=0    yoffset=23   xadvance=100  page=0    chnl=0 
char id=91      x=266  y=0    width=26   height=96   xoffset=7    yoffset=22   xadvance=35   page=0    chnl=0 
char id=92      x=85   y=99   width=32   height=78   xoffset=-1   yoffset=20   xadvance=29   page=0    chnl=0 
char id=93      x=292  y=0    width=26   height=96   xoffset=2    yoffset=22   xadvance=35   page=0    chnl=0 
char id=95      x=246  y=477  width=57   height=7    xoffset=-2   yoffset=112  xadvance=53   page=0    chnl=0 
char id=96      x=124  y=477  width=20   height=20   xoffset=5    yoffset=22   xadvance=35   page=0    chnl=0 
char id=98      x=435  y=0    width=53   height=78   xoffset=-2   yoffset=20   xadvance=53   page=0    chnl=0 
char id=100     x=0    y=99   width=53   height=78   xoffset=2    yoffset=20   xadvance=53   page=0    chnl=0 
char id=102     x=0    y=177  width=56   height=76   xoffset=3    yoffset=20   xadvance=35   page=0    chnl=0 
char id=103     x=170  y=329  width=51   height=74   xoffset=2    yoffset=45   xadvance=53   page=0    chnl=0 
char id=104     x=56   y=177  width=55   height=76   xoffset=-1   yoffset=20   xadvance=53   page=0    chnl=0 
char id=105     x=465  y=99   width=26   height=76   xoffset=2    yoffset=20   xadvance=29   page=0    chnl=0 
char id=106     x=0    y=0    width=40   height=99   xoffset=-10  yoffset=20   xadvance=29   page=0    chnl=0 
char id=107     x=111  y=177  width=56   height=76   xoffset=-1   yoffset=20   xadvance=53   page=0    chnl=0 
char id=108     x=167  y=177  width=27   height=76   xoffset=2    yoffset=20   xadvance=29   page=0    chnl=0 
char id=112     x=221  y=329  width=53   height=74   xoffset=-2   yoffset=45   xadvance=53   page=0    chnl=0 
char id=113     x=274  y=329  width=52   height=74   xoffset=2    yoffset=45   xadvance=53   page=0    chnl=0 
char id=123     x=102  y=0    width=32   height=99   xoffset=13   yoffset=20   xadvance=51   page=0    chnl=0 
char id=124     x=166  y=0    width=7    height=99   xoffset=7    yoffset=20   xadvance=21   page=0    chnl=0 
char id=125     x=134  y=0    width=32   height=99   xoffset=8    yoffset=20   xadvance=51   page=0    chnl=0 
char id=126     x=144  y=477  width=58   height=18   xoffset=0    yoffset=58   xadvance=57   page=0    chnl=0 
char id=42      x=409  y=139  width=41   height=46   xoffset=6    yoffset=20   xadvance=53   page=1    chnl=0 
char id=43      x=31   y=73   width=59   height=59   xoffset=0    yoffset=30   xadvance=60   page=1    chnl=0 
char id=60      x=90   y=73   width=59   height=54   xoffset=0    yoffset=33   xadvance=60   page=1    chnl=0 
char id=62      x=149  y=73   width=59   height=54   xoffset=0    yoffset=33   xadvance=60   page=1    chnl=0 
char id=77      x=0    y=0    width=94   height=73   xoffset=0    yoffset=23   xadvance=94   page=1    chnl=0 
char id=82      x=94   y=0    width=73   height=73   xoffset=0    yoffset=23   xadvance=71   page=1    chnl=0 
char id=84      x=167  y=0    width=62   height=73   xoffset=2    yoffset=23   xadvance=65   page=1    chnl=0 
char id=88      x=229  y=0    width=78   height=73   xoffset=-1   yoffset=23   xadvance=77   page=1    chnl=0 
char id=89      x=307  y=0    width=77   height=73   xoffset=-1   yoffset=23   xadvance=77   page=1    chnl=0 
char id=90      x=384  y=0    width=63   height=73   xoffset=0    yoffset=23   xadvance=65   page=1    chnl=0 
char id=94      x=450  y=139  width=49   height=40   xoffset=0    yoffset=22   xadvance=50   page=1    chnl=0 
char id=97      x=379  y=73   width=46   height=52   xoffset=2    yoffset=45   xadvance=47   page=1    chnl=0 
char id=99      x=208  y=73   width=43   height=53   xoffset=2    yoffset=45   xadvance=47   page=1    chnl=0 
char id=101     x=251  y=73   width=44   height=53   xoffset=2    yoffset=45   xadvance=47   page=1    chnl=0 
char id=109     x=133  y=139  width=84   height=51   xoffset=-1   yoffset=45   xadvance=82   page=1    chnl=0 
char id=110     x=217  y=139  width=55   height=51   xoffset=-1   yoffset=45   xadvance=53   page=1    chnl=0 
char id=111     x=295  y=73   width=49   height=53   xoffset=2    yoffset=45   xadvance=53   page=1    chnl=0 
char id=114     x=272  y=139  width=38   height=51   xoffset=-1   yoffset=45   xadvance=35   page=1    chnl=0 
char id=115     x=344  y=73   width=35   height=53   xoffset=4    yoffset=45   xadvance=41   page=1    chnl=0 
char id=116     x=0    y=73   width=31   height=66   xoffset=0    yoffset=31   xadvance=29   page=1    chnl=0 
char id=117     x=425  y=73   width=55   height=52   xoffset=-1   yoffset=46   xadvance=53   page=1    chnl=0 
char id=118     x=0    y=139  width=55   height=52   xoffset=-1   yoffset=46   xadvance=53   page=1    chnl=0 
char id=119     x=55   y=139  width=78   height=52   xoffset=-1   yoffset=46   xadvance=77   page=1    chnl=0 
char id=120     x=310  y=139  width=53   height=50   xoffset=0    yoffset=46   xadvance=53   page=1    chnl=0 
char id=121     x=447  y=0    width=55   height=73   xoffset=-1   yoffset=46   xadvance=53   page=1    chnl=0 
char id=122     x=363  y=139  width=46   height=50   xoffset=1    yoffset=46   xadvance=47   page=1    chnl=0 
