info face="TimesNewRomanPSMT" size=138 bold=0 italic=0 charset="" unicode=0 stretchH=100 smooth=1 aa=1 padding=1,1,1,1 spacing=-2,-2
common lineHeight=159 base=123 scaleW=512 scaleH=512 pages=3 packed=0
page id=0 file="b_cert_1381.png"
page id=1 file="b_cert_1382.png"
page id=2 file="b_cert_1383.png"
chars count=96
char id=10      x=0    y=0    width=0    height=0    xoffset=-1   yoffset=0    xadvance=0    page=0    chnl=0 
char id=32      x=0    y=0    width=0    height=0    xoffset=-1   yoffset=0    xadvance=35   page=0    chnl=0 
char id=33      x=401  y=340  width=18   height=98   xoffset=14   yoffset=28   xadvance=46   page=0    chnl=0 
char id=36      x=0    y=128  width=58   height=113  xoffset=6    yoffset=22   xadvance=69   page=0    chnl=0 
char id=37      x=276  y=128  width=109  height=100  xoffset=3    yoffset=28   xadvance=115  page=0    chnl=0 
char id=38      x=253  y=241  width=101  height=99   xoffset=4    yoffset=28   xadvance=107  page=0    chnl=0 
char id=39      x=494  y=438  width=17   height=42   xoffset=4    yoffset=28   xadvance=25   page=0    chnl=0 
char id=40      x=50   y=0    width=40   height=128  xoffset=4    yoffset=26   xadvance=46   page=0    chnl=0 
char id=41      x=90   y=0    width=40   height=128  xoffset=2    yoffset=26   xadvance=46   page=0    chnl=0 
char id=47      x=194  y=128  width=41   height=100  xoffset=-1   yoffset=26   xadvance=38   page=0    chnl=0 
char id=48      x=338  y=340  width=63   height=98   xoffset=3    yoffset=28   xadvance=69   page=0    chnl=0 
char id=49      x=471  y=340  width=39   height=96   xoffset=15   yoffset=28   xadvance=69   page=0    chnl=0 
char id=51      x=105  y=340  width=55   height=98   xoffset=4    yoffset=28   xadvance=69   page=0    chnl=0 
char id=54      x=160  y=340  width=61   height=98   xoffset=4    yoffset=28   xadvance=69   page=0    chnl=0 
char id=56      x=221  y=340  width=56   height=98   xoffset=7    yoffset=28   xadvance=69   page=0    chnl=0 
char id=57      x=277  y=340  width=61   height=98   xoffset=4    yoffset=28   xadvance=69   page=0    chnl=0 
char id=58      x=427  y=438  width=18   height=68   xoffset=10   yoffset=58   xadvance=38   page=0    chnl=0 
char id=60      x=0    y=438  width=75   height=69   xoffset=1    yoffset=43   xadvance=78   page=0    chnl=0 
char id=62      x=75   y=438  width=75   height=69   xoffset=1    yoffset=43   xadvance=78   page=0    chnl=0 
char id=63      x=419  y=340  width=52   height=98   xoffset=5    yoffset=28   xadvance=61   page=0    chnl=0 
char id=64      x=220  y=0    width=120  height=128  xoffset=5    yoffset=26   xadvance=127  page=0    chnl=0 
char id=67      x=385  y=128  width=86   height=99   xoffset=3    yoffset=28   xadvance=92   page=0    chnl=0 
char id=71      x=0    y=241  width=96   height=99   xoffset=3    yoffset=28   xadvance=100  page=0    chnl=0 
char id=79      x=96   y=241  width=93   height=99   xoffset=3    yoffset=28   xadvance=100  page=0    chnl=0 
char id=81      x=340  y=0    width=93   height=124  xoffset=3    yoffset=28   xadvance=100  page=0    chnl=0 
char id=83      x=189  y=241  width=64   height=99   xoffset=7    yoffset=28   xadvance=77   page=0    chnl=0 
char id=91      x=433  y=0    width=32   height=124  xoffset=10   yoffset=28   xadvance=46   page=0    chnl=0 
char id=92      x=235  y=128  width=41   height=100  xoffset=-1   yoffset=26   xadvance=38   page=0    chnl=0 
char id=93      x=465  y=0    width=32   height=124  xoffset=4    yoffset=28   xadvance=46   page=0    chnl=0 
char id=97      x=150  y=438  width=59   height=68   xoffset=3    yoffset=58   xadvance=61   page=0    chnl=0 
char id=98      x=58   y=128  width=68   height=100  xoffset=-2   yoffset=26   xadvance=69   page=0    chnl=0 
char id=99      x=209  y=438  width=55   height=68   xoffset=3    yoffset=58   xadvance=61   page=0    chnl=0 
char id=100     x=126  y=128  width=68   height=100  xoffset=3    yoffset=26   xadvance=69   page=0    chnl=0 
char id=101     x=264  y=438  width=55   height=68   xoffset=4    yoffset=58   xadvance=61   page=0    chnl=0 
char id=102     x=354  y=241  width=70   height=98   xoffset=4    yoffset=26   xadvance=46   page=0    chnl=0 
char id=104     x=424  y=241  width=71   height=98   xoffset=-1   yoffset=26   xadvance=69   page=0    chnl=0 
char id=105     x=471  y=128  width=33   height=98   xoffset=3    yoffset=26   xadvance=38   page=0    chnl=0 
char id=106     x=0    y=0    width=50   height=128  xoffset=-12  yoffset=26   xadvance=38   page=0    chnl=0 
char id=107     x=0    y=340  width=71   height=98   xoffset=0    yoffset=26   xadvance=69   page=0    chnl=0 
char id=108     x=71   y=340  width=34   height=98   xoffset=3    yoffset=26   xadvance=38   page=0    chnl=0 
char id=111     x=319  y=438  width=63   height=68   xoffset=3    yoffset=58   xadvance=69   page=0    chnl=0 
char id=114     x=445  y=438  width=49   height=66   xoffset=-1   yoffset=58   xadvance=46   page=0    chnl=0 
char id=115     x=382  y=438  width=45   height=68   xoffset=5    yoffset=58   xadvance=54   page=0    chnl=0 
char id=123     x=130  y=0    width=40   height=128  xoffset=18   yoffset=26   xadvance=66   page=0    chnl=0 
char id=124     x=211  y=0    width=9    height=128  xoffset=9    yoffset=26   xadvance=28   page=0    chnl=0 
char id=125     x=170  y=0    width=41   height=128  xoffset=10   yoffset=26   xadvance=66   page=0    chnl=0 
char id=35      x=0    y=0    width=67   height=98   xoffset=1    yoffset=28   xadvance=69   page=1    chnl=0 
char id=42      x=455  y=384  width=53   height=59   xoffset=8    yoffset=26   xadvance=69   page=1    chnl=0 
char id=45      x=195  y=478  width=38   height=14   xoffset=4    yoffset=85   xadvance=46   page=1    chnl=0 
char id=46      x=177  y=478  width=18   height=18   xoffset=8    yoffset=108  xadvance=35   page=1    chnl=0 
char id=50      x=403  y=98   width=64   height=96   xoffset=1    yoffset=28   xadvance=69   page=1    chnl=0 
char id=52      x=0    y=194  width=65   height=96   xoffset=1    yoffset=28   xadvance=69   page=1    chnl=0 
char id=53      x=451  y=0    width=56   height=96   xoffset=5    yoffset=30   xadvance=69   page=1    chnl=0 
char id=55      x=65   y=194  width=60   height=96   xoffset=4    yoffset=30   xadvance=69   page=1    chnl=0 
char id=59      x=472  y=290  width=23   height=89   xoffset=8    yoffset=58   xadvance=38   page=1    chnl=0 
char id=61      x=0    y=478  width=76   height=30   xoffset=1    yoffset=62   xadvance=78   page=1    chnl=0 
char id=65      x=0    y=98   width=100  height=96   xoffset=0    yoffset=28   xadvance=100  page=1    chnl=0 
char id=66      x=125  y=194  width=85   height=94   xoffset=1    yoffset=30   xadvance=92   page=1    chnl=0 
char id=68      x=210  y=194  width=95   height=94   xoffset=1    yoffset=30   xadvance=100  page=1    chnl=0 
char id=69      x=305  y=194  width=82   height=94   xoffset=1    yoffset=30   xadvance=84   page=1    chnl=0 
char id=70      x=387  y=194  width=72   height=94   xoffset=1    yoffset=30   xadvance=77   page=1    chnl=0 
char id=72      x=0    y=290  width=97   height=94   xoffset=1    yoffset=30   xadvance=100  page=1    chnl=0 
char id=73      x=467  y=98   width=42   height=94   xoffset=2    yoffset=30   xadvance=46   page=1    chnl=0 
char id=74      x=67   y=0    width=53   height=97   xoffset=1    yoffset=30   xadvance=54   page=1    chnl=0 
char id=75      x=97   y=290  width=101  height=94   xoffset=1    yoffset=30   xadvance=100  page=1    chnl=0 
char id=76      x=198  y=290  width=82   height=94   xoffset=1    yoffset=30   xadvance=84   page=1    chnl=0 
char id=77      x=280  y=290  width=120  height=94   xoffset=1    yoffset=30   xadvance=123  page=1    chnl=0 
char id=78      x=100  y=98   width=103  height=96   xoffset=-3   yoffset=30   xadvance=100  page=1    chnl=0 
char id=80      x=400  y=290  width=72   height=94   xoffset=1    yoffset=30   xadvance=77   page=1    chnl=0 
char id=82      x=0    y=384  width=95   height=94   xoffset=1    yoffset=30   xadvance=92   page=1    chnl=0 
char id=84      x=95   y=384  width=79   height=94   xoffset=3    yoffset=30   xadvance=84   page=1    chnl=0 
char id=85      x=120  y=0    width=101  height=97   xoffset=-1   yoffset=30   xadvance=100  page=1    chnl=0 
char id=86      x=221  y=0    width=99   height=97   xoffset=0    yoffset=30   xadvance=100  page=1    chnl=0 
char id=87      x=320  y=0    width=131  height=97   xoffset=0    yoffset=30   xadvance=130  page=1    chnl=0 
char id=88      x=174  y=384  width=100  height=94   xoffset=0    yoffset=30   xadvance=100  page=1    chnl=0 
char id=89      x=274  y=384  width=99   height=94   xoffset=0    yoffset=30   xadvance=100  page=1    chnl=0 
char id=90      x=373  y=384  width=82   height=94   xoffset=0    yoffset=30   xadvance=84   page=1    chnl=0 
char id=95      x=233  y=478  width=77   height=8    xoffset=-3   yoffset=146  xadvance=69   page=1    chnl=0 
char id=96      x=76   y=478  width=26   height=26   xoffset=6    yoffset=28   xadvance=46   page=1    chnl=0 
char id=103     x=203  y=98   width=65   height=96   xoffset=3    yoffset=58   xadvance=69   page=1    chnl=0 
char id=112     x=268  y=98   width=68   height=96   xoffset=-2   yoffset=58   xadvance=69   page=1    chnl=0 
char id=113     x=336  y=98   width=67   height=96   xoffset=3    yoffset=58   xadvance=69   page=1    chnl=0 
char id=116     x=459  y=194  width=40   height=87   xoffset=0    yoffset=39   xadvance=38   page=1    chnl=0 
char id=126     x=102  y=478  width=75   height=22   xoffset=0    yoffset=76   xadvance=75   page=1    chnl=0 
char id=34      x=466  y=0    width=42   height=42   xoffset=7    yoffset=28   xadvance=56   page=2    chnl=0 
char id=43      x=71   y=0    width=76   height=76   xoffset=1    yoffset=39   xadvance=78   page=2    chnl=0 
char id=44      x=293  y=94   width=23   height=39   xoffset=6    yoffset=108  xadvance=35   page=2    chnl=0 
char id=94      x=230  y=94   width=63   height=52   xoffset=1    yoffset=28   xadvance=65   page=2    chnl=0 
char id=109     x=147  y=0    width=108  height=66   xoffset=0    yoffset=58   xadvance=107  page=2    chnl=0 
char id=110     x=255  y=0    width=71   height=66   xoffset=-1   yoffset=58   xadvance=69   page=2    chnl=0 
char id=117     x=326  y=0    width=71   height=66   xoffset=-1   yoffset=60   xadvance=69   page=2    chnl=0 
char id=118     x=397  y=0    width=69   height=66   xoffset=0    yoffset=60   xadvance=69   page=2    chnl=0 
char id=119     x=0    y=94   width=101  height=66   xoffset=-1   yoffset=60   xadvance=100  page=2    chnl=0 
char id=120     x=101  y=94   width=69   height=64   xoffset=0    yoffset=60   xadvance=69   page=2    chnl=0 
char id=121     x=0    y=0    width=71   height=94   xoffset=-1   yoffset=60   xadvance=69   page=2    chnl=0 
char id=122     x=170  y=94   width=60   height=64   xoffset=1    yoffset=60   xadvance=61   page=2    chnl=0 
