info face="TimesNewRomanPSMT" size=43 bold=0 italic=0 charset="" unicode=0 stretchH=100 smooth=1 aa=1 padding=1,1,1,1 spacing=-2,-2
common lineHeight=51 base=39 scaleW=512 scaleH=512 pages=1 packed=0
page id=0 file="b_cert_43.png"
chars count=96
char id=10      x=0    y=0    width=0    height=0    xoffset=-1   yoffset=0    xadvance=0    page=0    chnl=0 
char id=32      x=0    y=0    width=0    height=0    xoffset=-1   yoffset=0    xadvance=11   page=0    chnl=0 
char id=33      x=496  y=0    width=8    height=33   xoffset=3    yoffset=8    xadvance=14   page=0    chnl=0 
char id=34      x=468  y=107  width=15   height=16   xoffset=1    yoffset=8    xadvance=18   page=0    chnl=0 
char id=35      x=49   y=42   width=23   height=33   xoffset=-1   yoffset=8    xadvance=22   page=0    chnl=0 
char id=36      x=177  y=0    width=20   height=37   xoffset=1    yoffset=7    xadvance=22   page=0    chnl=0 
char id=37      x=197  y=0    width=36   height=34   xoffset=0    yoffset=8    xadvance=36   page=0    chnl=0 
char id=38      x=72   y=42   width=34   height=33   xoffset=0    yoffset=8    xadvance=33   page=0    chnl=0 
char id=39      x=504  y=0    width=7    height=16   xoffset=0    yoffset=8    xadvance=8    page=0    chnl=0 
char id=40      x=18   y=0    width=15   height=42   xoffset=0    yoffset=8    xadvance=14   page=0    chnl=0 
char id=41      x=33   y=0    width=15   height=42   xoffset=-1   yoffset=8    xadvance=14   page=0    chnl=0 
char id=42      x=428  y=107  width=18   height=20   xoffset=2    yoffset=8    xadvance=22   page=0    chnl=0 
char id=43      x=43   y=107  width=26   height=26   xoffset=-1   yoffset=12   xadvance=24   page=0    chnl=0 
char id=44      x=483  y=107  width=9    height=15   xoffset=1    yoffset=33   xadvance=11   page=0    chnl=0 
char id=45      x=51   y=138  width=14   height=6    xoffset=0    yoffset=26   xadvance=14   page=0    chnl=0 
char id=46      x=502  y=107  width=7    height=8    xoffset=2    yoffset=33   xadvance=11   page=0    chnl=0 
char id=47      x=19   y=42   width=15   height=33   xoffset=-1   yoffset=8    xadvance=12   page=0    chnl=0 
char id=48      x=475  y=0    width=21   height=33   xoffset=0    yoffset=8    xadvance=22   page=0    chnl=0 
char id=49      x=491  y=42   width=14   height=32   xoffset=4    yoffset=8    xadvance=22   page=0    chnl=0 
char id=50      x=0    y=75   width=22   height=32   xoffset=-1   yoffset=8    xadvance=22   page=0    chnl=0 
char id=51      x=394  y=0    width=19   height=33   xoffset=0    yoffset=8    xadvance=22   page=0    chnl=0 
char id=52      x=22   y=75   width=23   height=32   xoffset=-1   yoffset=8    xadvance=22   page=0    chnl=0 
char id=53      x=45   y=75   width=19   height=32   xoffset=1    yoffset=9    xadvance=22   page=0    chnl=0 
char id=54      x=413  y=0    width=21   height=33   xoffset=0    yoffset=8    xadvance=22   page=0    chnl=0 
char id=55      x=64   y=75   width=21   height=32   xoffset=0    yoffset=9    xadvance=22   page=0    chnl=0 
char id=56      x=434  y=0    width=20   height=33   xoffset=1    yoffset=8    xadvance=22   page=0    chnl=0 
char id=57      x=454  y=0    width=21   height=33   xoffset=0    yoffset=8    xadvance=22   page=0    chnl=0 
char id=58      x=299  y=107  width=8    height=23   xoffset=2    yoffset=18   xadvance=12   page=0    chnl=0 
char id=59      x=499  y=75   width=10   height=30   xoffset=1    yoffset=18   xadvance=12   page=0    chnl=0 
char id=60      x=69   y=107  width=26   height=24   xoffset=-1   yoffset=13   xadvance=24   page=0    chnl=0 
char id=61      x=0    y=138  width=26   height=12   xoffset=-1   yoffset=19   xadvance=24   page=0    chnl=0 
char id=62      x=95   y=107  width=26   height=24   xoffset=-1   yoffset=13   xadvance=24   page=0    chnl=0 
char id=63      x=0    y=42   width=19   height=33   xoffset=0    yoffset=8    xadvance=19   page=0    chnl=0 
char id=64      x=83   y=0    width=39   height=42   xoffset=1    yoffset=8    xadvance=40   page=0    chnl=0 
char id=65      x=106  y=42   width=33   height=32   xoffset=-1   yoffset=8    xadvance=31   page=0    chnl=0 
char id=66      x=85   y=75   width=29   height=31   xoffset=-1   yoffset=9    xadvance=29   page=0    chnl=0 
char id=67      x=233  y=0    width=29   height=33   xoffset=0    yoffset=8    xadvance=29   page=0    chnl=0 
char id=68      x=114  y=75   width=32   height=31   xoffset=-1   yoffset=9    xadvance=31   page=0    chnl=0 
char id=69      x=146  y=75   width=28   height=31   xoffset=-1   yoffset=9    xadvance=26   page=0    chnl=0 
char id=70      x=174  y=75   width=25   height=31   xoffset=-1   yoffset=9    xadvance=24   page=0    chnl=0 
char id=71      x=262  y=0    width=32   height=33   xoffset=0    yoffset=8    xadvance=31   page=0    chnl=0 
char id=72      x=199  y=75   width=33   height=31   xoffset=-1   yoffset=9    xadvance=31   page=0    chnl=0 
char id=73      x=232  y=75   width=15   height=31   xoffset=0    yoffset=9    xadvance=14   page=0    chnl=0 
char id=74      x=139  y=42   width=19   height=32   xoffset=-1   yoffset=9    xadvance=17   page=0    chnl=0 
char id=75      x=247  y=75   width=34   height=31   xoffset=-1   yoffset=9    xadvance=31   page=0    chnl=0 
char id=76      x=281  y=75   width=28   height=31   xoffset=-1   yoffset=9    xadvance=26   page=0    chnl=0 
char id=77      x=309  y=75   width=40   height=31   xoffset=-1   yoffset=9    xadvance=38   page=0    chnl=0 
char id=78      x=158  y=42   width=34   height=32   xoffset=-2   yoffset=9    xadvance=31   page=0    chnl=0 
char id=79      x=294  y=0    width=31   height=33   xoffset=0    yoffset=8    xadvance=31   page=0    chnl=0 
char id=80      x=349  y=75   width=25   height=31   xoffset=-1   yoffset=9    xadvance=24   page=0    chnl=0 
char id=81      x=122  y=0    width=31   height=41   xoffset=0    yoffset=8    xadvance=31   page=0    chnl=0 
char id=82      x=374  y=75   width=32   height=31   xoffset=-1   yoffset=9    xadvance=29   page=0    chnl=0 
char id=83      x=325  y=0    width=22   height=33   xoffset=1    yoffset=8    xadvance=24   page=0    chnl=0 
char id=84      x=406  y=75   width=27   height=31   xoffset=0    yoffset=9    xadvance=26   page=0    chnl=0 
char id=85      x=192  y=42   width=33   height=32   xoffset=-1   yoffset=9    xadvance=31   page=0    chnl=0 
char id=86      x=225  y=42   width=33   height=32   xoffset=-1   yoffset=9    xadvance=31   page=0    chnl=0 
char id=87      x=258  y=42   width=43   height=32   xoffset=-1   yoffset=9    xadvance=41   page=0    chnl=0 
char id=88      x=433  y=75   width=33   height=31   xoffset=-1   yoffset=9    xadvance=31   page=0    chnl=0 
char id=89      x=466  y=75   width=33   height=31   xoffset=-1   yoffset=9    xadvance=31   page=0    chnl=0 
char id=90      x=0    y=107  width=28   height=31   xoffset=-1   yoffset=9    xadvance=26   page=0    chnl=0 
char id=91      x=153  y=0    width=12   height=41   xoffset=2    yoffset=8    xadvance=14   page=0    chnl=0 
char id=92      x=34   y=42   width=15   height=33   xoffset=-1   yoffset=8    xadvance=12   page=0    chnl=0 
char id=93      x=165  y=0    width=12   height=41   xoffset=0    yoffset=8    xadvance=14   page=0    chnl=0 
char id=94      x=446  y=107  width=22   height=18   xoffset=-1   yoffset=8    xadvance=20   page=0    chnl=0 
char id=95      x=65   y=138  width=25   height=5    xoffset=-2   yoffset=45   xadvance=22   page=0    chnl=0 
char id=96      x=492  y=107  width=10   height=11   xoffset=1    yoffset=8    xadvance=14   page=0    chnl=0 
char id=97      x=121  y=107  width=21   height=23   xoffset=0    yoffset=18   xadvance=19   page=0    chnl=0 
char id=98      x=347  y=0    width=24   height=33   xoffset=-2   yoffset=8    xadvance=22   page=0    chnl=0 
char id=99      x=142  y=107  width=19   height=23   xoffset=0    yoffset=18   xadvance=19   page=0    chnl=0 
char id=100     x=371  y=0    width=23   height=33   xoffset=0    yoffset=8    xadvance=22   page=0    chnl=0 
char id=101     x=161  y=107  width=19   height=23   xoffset=0    yoffset=18   xadvance=19   page=0    chnl=0 
char id=102     x=301  y=42   width=24   height=32   xoffset=0    yoffset=8    xadvance=14   page=0    chnl=0 
char id=103     x=325  y=42   width=22   height=32   xoffset=0    yoffset=18   xadvance=22   page=0    chnl=0 
char id=104     x=347  y=42   width=24   height=32   xoffset=-1   yoffset=8    xadvance=22   page=0    chnl=0 
char id=105     x=371  y=42   width=12   height=32   xoffset=0    yoffset=8    xadvance=12   page=0    chnl=0 
char id=106     x=0    y=0    width=18   height=42   xoffset=-5   yoffset=8    xadvance=12   page=0    chnl=0 
char id=107     x=383  y=42   width=24   height=32   xoffset=-1   yoffset=8    xadvance=22   page=0    chnl=0 
char id=108     x=407  y=42   width=13   height=32   xoffset=0    yoffset=8    xadvance=12   page=0    chnl=0 
char id=109     x=307  y=107  width=36   height=22   xoffset=-1   yoffset=18   xadvance=33   page=0    chnl=0 
char id=110     x=343  y=107  width=24   height=22   xoffset=-1   yoffset=18   xadvance=22   page=0    chnl=0 
char id=111     x=180  y=107  width=22   height=23   xoffset=0    yoffset=18   xadvance=22   page=0    chnl=0 
char id=112     x=420  y=42   width=24   height=32   xoffset=-2   yoffset=18   xadvance=22   page=0    chnl=0 
char id=113     x=444  y=42   width=23   height=32   xoffset=0    yoffset=18   xadvance=22   page=0    chnl=0 
char id=114     x=367  y=107  width=17   height=22   xoffset=-1   yoffset=18   xadvance=14   page=0    chnl=0 
char id=115     x=202  y=107  width=16   height=23   xoffset=1    yoffset=18   xadvance=17   page=0    chnl=0 
char id=116     x=28   y=107  width=15   height=29   xoffset=-1   yoffset=12   xadvance=12   page=0    chnl=0 
char id=117     x=218  y=107  width=24   height=23   xoffset=-1   yoffset=18   xadvance=22   page=0    chnl=0 
char id=118     x=242  y=107  width=24   height=23   xoffset=-1   yoffset=18   xadvance=22   page=0    chnl=0 
char id=119     x=266  y=107  width=33   height=23   xoffset=-1   yoffset=18   xadvance=31   page=0    chnl=0 
char id=120     x=384  y=107  width=23   height=22   xoffset=-1   yoffset=18   xadvance=22   page=0    chnl=0 
char id=121     x=467  y=42   width=24   height=32   xoffset=-1   yoffset=18   xadvance=22   page=0    chnl=0 
char id=122     x=407  y=107  width=21   height=22   xoffset=-1   yoffset=18   xadvance=19   page=0    chnl=0 
char id=123     x=48   y=0    width=15   height=42   xoffset=4    yoffset=8    xadvance=21   page=0    chnl=0 
char id=124     x=78   y=0    width=5    height=42   xoffset=2    yoffset=8    xadvance=9    page=0    chnl=0 
char id=125     x=63   y=0    width=15   height=42   xoffset=2    yoffset=8    xadvance=21   page=0    chnl=0 
char id=126     x=26   y=138  width=25   height=9    xoffset=-1   yoffset=23   xadvance=23   page=0    chnl=0 
