info face="TimesNewRomanPSMT" size=53 bold=0 italic=0 charset="" unicode=0 stretchH=100 smooth=1 aa=1 padding=1,1,1,1 spacing=-2,-2
common lineHeight=62 base=48 scaleW=512 scaleH=512 pages=1 packed=0
page id=0 file="b_cert_53.png"
chars count=96
char id=10      x=0    y=0    width=0    height=0    xoffset=-1   yoffset=0    xadvance=0    page=0    chnl=0 
char id=32      x=0    y=0    width=0    height=0    xoffset=-1   yoffset=0    xadvance=13   page=0    chnl=0 
char id=33      x=494  y=51   width=9    height=39   xoffset=4    yoffset=11   xadvance=18   page=0    chnl=0 
char id=34      x=359  y=167  width=18   height=18   xoffset=2    yoffset=11   xadvance=22   page=0    chnl=0 
char id=35      x=96   y=90   width=28   height=39   xoffset=-1   yoffset=11   xadvance=27   page=0    chnl=0 
char id=36      x=211  y=0    width=24   height=46   xoffset=1    yoffset=8    xadvance=27   page=0    chnl=0 
char id=37      x=325  y=0    width=44   height=40   xoffset=0    yoffset=11   xadvance=44   page=0    chnl=0 
char id=38      x=124  y=90   width=41   height=39   xoffset=0    yoffset=11   xadvance=41   page=0    chnl=0 
char id=39      x=503  y=51   width=8    height=18   xoffset=1    yoffset=11   xadvance=10   page=0    chnl=0 
char id=40      x=22   y=0    width=17   height=51   xoffset=1    yoffset=10   xadvance=18   page=0    chnl=0 
char id=41      x=39   y=0    width=17   height=51   xoffset=0    yoffset=10   xadvance=18   page=0    chnl=0 
char id=42      x=311  y=167  width=22   height=24   xoffset=2    yoffset=10   xadvance=27   page=0    chnl=0 
char id=43      x=360  y=129  width=31   height=31   xoffset=-1   yoffset=15   xadvance=30   page=0    chnl=0 
char id=44      x=377  y=167  width=11   height=17   xoffset=1    yoffset=41   xadvance=13   page=0    chnl=0 
char id=45      x=470  y=167  width=16   height=7    xoffset=1    yoffset=33   xadvance=18   page=0    chnl=0 
char id=46      x=461  y=167  width=9    height=9    xoffset=2    yoffset=41   xadvance=13   page=0    chnl=0 
char id=47      x=291  y=0    width=17   height=40   xoffset=-1   yoffset=10   xadvance=15   page=0    chnl=0 
char id=48      x=48   y=90   width=26   height=39   xoffset=0    yoffset=11   xadvance=27   page=0    chnl=0 
char id=49      x=262  y=129  width=17   height=38   xoffset=5    yoffset=11   xadvance=27   page=0    chnl=0 
char id=50      x=279  y=129  width=26   height=38   xoffset=0    yoffset=11   xadvance=27   page=0    chnl=0 
char id=51      x=396  y=51   width=23   height=39   xoffset=1    yoffset=11   xadvance=27   page=0    chnl=0 
char id=52      x=305  y=129  width=27   height=38   xoffset=-1   yoffset=11   xadvance=27   page=0    chnl=0 
char id=53      x=419  y=51   width=24   height=39   xoffset=1    yoffset=11   xadvance=27   page=0    chnl=0 
char id=54      x=443  y=51   width=25   height=39   xoffset=1    yoffset=11   xadvance=27   page=0    chnl=0 
char id=55      x=468  y=51   width=26   height=39   xoffset=0    yoffset=11   xadvance=27   page=0    chnl=0 
char id=56      x=0    y=90   width=23   height=39   xoffset=2    yoffset=11   xadvance=27   page=0    chnl=0 
char id=57      x=23   y=90   width=25   height=39   xoffset=1    yoffset=11   xadvance=27   page=0    chnl=0 
char id=58      x=501  y=129  width=9    height=28   xoffset=3    yoffset=22   xadvance=15   page=0    chnl=0 
char id=59      x=332  y=129  width=11   height=36   xoffset=2    yoffset=22   xadvance=15   page=0    chnl=0 
char id=60      x=391  y=129  width=31   height=29   xoffset=-1   yoffset=16   xadvance=30   page=0    chnl=0 
char id=61      x=388  y=167  width=31   height=13   xoffset=-1   yoffset=24   xadvance=30   page=0    chnl=0 
char id=62      x=422  y=129  width=31   height=29   xoffset=-1   yoffset=16   xadvance=30   page=0    chnl=0 
char id=63      x=74   y=90   width=22   height=39   xoffset=1    yoffset=11   xadvance=24   page=0    chnl=0 
char id=64      x=96   y=0    width=48   height=51   xoffset=1    yoffset=10   xadvance=49   page=0    chnl=0 
char id=65      x=165  y=90   width=40   height=38   xoffset=-1   yoffset=11   xadvance=38   page=0    chnl=0 
char id=66      x=205  y=90   width=35   height=38   xoffset=-1   yoffset=11   xadvance=35   page=0    chnl=0 
char id=67      x=369  y=0    width=35   height=39   xoffset=0    yoffset=11   xadvance=35   page=0    chnl=0 
char id=68      x=240  y=90   width=39   height=38   xoffset=-1   yoffset=11   xadvance=38   page=0    chnl=0 
char id=69      x=279  y=90   width=33   height=38   xoffset=0    yoffset=11   xadvance=32   page=0    chnl=0 
char id=70      x=312  y=90   width=30   height=38   xoffset=-1   yoffset=11   xadvance=29   page=0    chnl=0 
char id=71      x=404  y=0    width=39   height=39   xoffset=0    yoffset=11   xadvance=38   page=0    chnl=0 
char id=72      x=342  y=90   width=40   height=38   xoffset=-1   yoffset=11   xadvance=38   page=0    chnl=0 
char id=73      x=382  y=90   width=18   height=38   xoffset=0    yoffset=11   xadvance=18   page=0    chnl=0 
char id=74      x=443  y=0    width=22   height=39   xoffset=0    yoffset=11   xadvance=21   page=0    chnl=0 
char id=75      x=400  y=90   width=41   height=38   xoffset=-1   yoffset=11   xadvance=38   page=0    chnl=0 
char id=76      x=441  y=90   width=33   height=38   xoffset=0    yoffset=11   xadvance=32   page=0    chnl=0 
char id=77      x=0    y=129  width=49   height=38   xoffset=-1   yoffset=11   xadvance=47   page=0    chnl=0 
char id=78      x=465  y=0    width=41   height=39   xoffset=-2   yoffset=11   xadvance=38   page=0    chnl=0 
char id=79      x=0    y=51   width=38   height=39   xoffset=0    yoffset=11   xadvance=38   page=0    chnl=0 
char id=80      x=474  y=90   width=30   height=38   xoffset=-1   yoffset=11   xadvance=29   page=0    chnl=0 
char id=81      x=144  y=0    width=38   height=49   xoffset=0    yoffset=11   xadvance=38   page=0    chnl=0 
char id=82      x=49   y=129  width=38   height=38   xoffset=-1   yoffset=11   xadvance=35   page=0    chnl=0 
char id=83      x=38   y=51   width=26   height=39   xoffset=2    yoffset=11   xadvance=29   page=0    chnl=0 
char id=84      x=87   y=129  width=33   height=38   xoffset=0    yoffset=11   xadvance=32   page=0    chnl=0 
char id=85      x=64   y=51   width=40   height=39   xoffset=-1   yoffset=11   xadvance=38   page=0    chnl=0 
char id=86      x=104  y=51   width=40   height=39   xoffset=-1   yoffset=11   xadvance=38   page=0    chnl=0 
char id=87      x=144  y=51   width=52   height=39   xoffset=-1   yoffset=11   xadvance=50   page=0    chnl=0 
char id=88      x=120  y=129  width=40   height=38   xoffset=-1   yoffset=11   xadvance=38   page=0    chnl=0 
char id=89      x=160  y=129  width=40   height=38   xoffset=-1   yoffset=11   xadvance=38   page=0    chnl=0 
char id=90      x=200  y=129  width=33   height=38   xoffset=-1   yoffset=11   xadvance=32   page=0    chnl=0 
char id=91      x=182  y=0    width=14   height=49   xoffset=3    yoffset=11   xadvance=18   page=0    chnl=0 
char id=92      x=308  y=0    width=17   height=40   xoffset=-1   yoffset=10   xadvance=15   page=0    chnl=0 
char id=93      x=196  y=0    width=15   height=49   xoffset=0    yoffset=11   xadvance=18   page=0    chnl=0 
char id=94      x=333  y=167  width=26   height=21   xoffset=-1   yoffset=11   xadvance=25   page=0    chnl=0 
char id=95      x=0    y=195  width=30   height=5    xoffset=-2   yoffset=56   xadvance=27   page=0    chnl=0 
char id=96      x=419  y=167  width=11   height=11   xoffset=2    yoffset=11   xadvance=18   page=0    chnl=0 
char id=97      x=453  y=129  width=25   height=28   xoffset=0    yoffset=22   xadvance=24   page=0    chnl=0 
char id=98      x=235  y=0    width=28   height=40   xoffset=-2   yoffset=10   xadvance=27   page=0    chnl=0 
char id=99      x=478  y=129  width=23   height=28   xoffset=0    yoffset=22   xadvance=24   page=0    chnl=0 
char id=100     x=263  y=0    width=28   height=40   xoffset=0    yoffset=10   xadvance=27   page=0    chnl=0 
char id=101     x=0    y=167  width=24   height=28   xoffset=0    yoffset=22   xadvance=24   page=0    chnl=0 
char id=102     x=196  y=51   width=29   height=39   xoffset=1    yoffset=10   xadvance=18   page=0    chnl=0 
char id=103     x=225  y=51   width=27   height=39   xoffset=0    yoffset=22   xadvance=27   page=0    chnl=0 
char id=104     x=252  y=51   width=29   height=39   xoffset=-1   yoffset=10   xadvance=27   page=0    chnl=0 
char id=105     x=281  y=51   width=15   height=39   xoffset=0    yoffset=10   xadvance=15   page=0    chnl=0 
char id=106     x=0    y=0    width=22   height=51   xoffset=-6   yoffset=10   xadvance=15   page=0    chnl=0 
char id=107     x=296  y=51   width=29   height=39   xoffset=-1   yoffset=10   xadvance=27   page=0    chnl=0 
char id=108     x=325  y=51   width=15   height=39   xoffset=0    yoffset=10   xadvance=15   page=0    chnl=0 
char id=109     x=69   y=167  width=43   height=27   xoffset=-1   yoffset=22   xadvance=41   page=0    chnl=0 
char id=110     x=112  y=167  width=29   height=27   xoffset=-1   yoffset=22   xadvance=27   page=0    chnl=0 
char id=111     x=24   y=167  width=26   height=28   xoffset=0    yoffset=22   xadvance=27   page=0    chnl=0 
char id=112     x=340  y=51   width=28   height=39   xoffset=-2   yoffset=22   xadvance=27   page=0    chnl=0 
char id=113     x=368  y=51   width=28   height=39   xoffset=0    yoffset=22   xadvance=27   page=0    chnl=0 
char id=114     x=141  y=167  width=20   height=27   xoffset=-1   yoffset=22   xadvance=18   page=0    chnl=0 
char id=115     x=50   y=167  width=19   height=28   xoffset=1    yoffset=22   xadvance=21   page=0    chnl=0 
char id=116     x=343  y=129  width=17   height=35   xoffset=-1   yoffset=15   xadvance=15   page=0    chnl=0 
char id=117     x=161  y=167  width=29   height=27   xoffset=-1   yoffset=23   xadvance=27   page=0    chnl=0 
char id=118     x=190  y=167  width=29   height=27   xoffset=-1   yoffset=23   xadvance=27   page=0    chnl=0 
char id=119     x=219  y=167  width=40   height=27   xoffset=-1   yoffset=23   xadvance=38   page=0    chnl=0 
char id=120     x=259  y=167  width=28   height=26   xoffset=-1   yoffset=23   xadvance=27   page=0    chnl=0 
char id=121     x=233  y=129  width=29   height=38   xoffset=-1   yoffset=23   xadvance=27   page=0    chnl=0 
char id=122     x=287  y=167  width=24   height=26   xoffset=0    yoffset=23   xadvance=24   page=0    chnl=0 
char id=123     x=56   y=0    width=17   height=51   xoffset=6    yoffset=10   xadvance=25   page=0    chnl=0 
char id=124     x=91   y=0    width=5    height=51   xoffset=3    yoffset=10   xadvance=11   page=0    chnl=0 
char id=125     x=73   y=0    width=18   height=51   xoffset=3    yoffset=10   xadvance=25   page=0    chnl=0 
char id=126     x=430  y=167  width=31   height=10   xoffset=-1   yoffset=29   xadvance=29   page=0    chnl=0 
