info face="TimesNewRomanPSMT" size=87 bold=0 italic=0 charset="" unicode=0 stretchH=100 smooth=1 aa=1 padding=1,1,1,1 spacing=-2,-2
common lineHeight=101 base=78 scaleW=512 scaleH=512 pages=1 packed=0
page id=0 file="b_cert_87.png"
chars count=96
char id=10      x=0    y=0    width=0    height=0    xoffset=-1   yoffset=0    xadvance=0    page=0    chnl=0 
char id=32      x=0    y=0    width=0    height=0    xoffset=-1   yoffset=0    xadvance=22   page=0    chnl=0 
char id=33      x=155  y=146  width=13   height=63   xoffset=8    yoffset=18   xadvance=29   page=0    chnl=0 
char id=34      x=481  y=391  width=27   height=27   xoffset=4    yoffset=18   xadvance=36   page=0    chnl=0 
char id=35      x=203  y=146  width=43   height=63   xoffset=0    yoffset=18   xadvance=44   page=0    chnl=0 
char id=36      x=323  y=0    width=38   height=72   xoffset=3    yoffset=14   xadvance=44   page=0    chnl=0 
char id=37      x=0    y=82   width=69   height=64   xoffset=2    yoffset=18   xadvance=72   page=0    chnl=0 
char id=38      x=246  y=146  width=65   height=63   xoffset=2    yoffset=18   xadvance=68   page=0    chnl=0 
char id=39      x=500  y=271  width=11   height=27   xoffset=2    yoffset=18   xadvance=16   page=0    chnl=0 
char id=40      x=32   y=0    width=27   height=82   xoffset=2    yoffset=16   xadvance=29   page=0    chnl=0 
char id=41      x=59   y=0    width=27   height=82   xoffset=0    yoffset=16   xadvance=29   page=0    chnl=0 
char id=42      x=148  y=436  width=34   height=38   xoffset=5    yoffset=16   xadvance=44   page=0    chnl=0 
char id=43      x=410  y=331  width=49   height=49   xoffset=0    yoffset=25   xadvance=49   page=0    chnl=0 
char id=44      x=223  y=436  width=16   height=26   xoffset=3    yoffset=68   xadvance=22   page=0    chnl=0 
char id=45      x=365  y=436  width=25   height=9    xoffset=2    yoffset=54   xadvance=29   page=0    chnl=0 
char id=46      x=353  y=436  width=12   height=13   xoffset=5    yoffset=68   xadvance=22   page=0    chnl=0 
char id=47      x=449  y=0    width=27   height=65   xoffset=-1   yoffset=16   xadvance=24   page=0    chnl=0 
char id=48      x=115  y=146  width=40   height=63   xoffset=2    yoffset=18   xadvance=44   page=0    chnl=0 
char id=49      x=383  y=209  width=25   height=61   xoffset=9    yoffset=18   xadvance=44   page=0    chnl=0 
char id=50      x=408  y=209  width=41   height=61   xoffset=0    yoffset=18   xadvance=44   page=0    chnl=0 
char id=51      x=468  y=82   width=36   height=63   xoffset=2    yoffset=18   xadvance=44   page=0    chnl=0 
char id=52      x=449  y=209  width=42   height=61   xoffset=0    yoffset=18   xadvance=44   page=0    chnl=0 
char id=53      x=474  y=146  width=36   height=62   xoffset=3    yoffset=19   xadvance=44   page=0    chnl=0 
char id=54      x=0    y=146  width=40   height=63   xoffset=2    yoffset=18   xadvance=44   page=0    chnl=0 
char id=55      x=213  y=209  width=39   height=62   xoffset=2    yoffset=19   xadvance=44   page=0    chnl=0 
char id=56      x=40   y=146  width=36   height=63   xoffset=4    yoffset=18   xadvance=44   page=0    chnl=0 
char id=57      x=76   y=146  width=39   height=63   xoffset=2    yoffset=18   xadvance=44   page=0    chnl=0 
char id=58      x=495  y=331  width=12   height=45   xoffset=6    yoffset=36   xadvance=24   page=0    chnl=0 
char id=59      x=491  y=209  width=15   height=58   xoffset=5    yoffset=36   xadvance=24   page=0    chnl=0 
char id=60      x=106  y=391  width=49   height=45   xoffset=0    yoffset=27   xadvance=49   page=0    chnl=0 
char id=61      x=239  y=436  width=49   height=20   xoffset=0    yoffset=39   xadvance=49   page=0    chnl=0 
char id=62      x=155  y=391  width=49   height=45   xoffset=0    yoffset=27   xadvance=49   page=0    chnl=0 
char id=63      x=168  y=146  width=35   height=63   xoffset=2    yoffset=18   xadvance=39   page=0    chnl=0 
char id=64      x=146  y=0    width=76   height=82   xoffset=3    yoffset=16   xadvance=80   page=0    chnl=0 
char id=65      x=252  y=209  width=64   height=61   xoffset=-1   yoffset=18   xadvance=63   page=0    chnl=0 
char id=66      x=0    y=271  width=55   height=60   xoffset=0    yoffset=19   xadvance=58   page=0    chnl=0 
char id=67      x=69   y=82   width=55   height=63   xoffset=2    yoffset=18   xadvance=58   page=0    chnl=0 
char id=68      x=55   y=271  width=61   height=60   xoffset=0    yoffset=19   xadvance=63   page=0    chnl=0 
char id=69      x=116  y=271  width=53   height=60   xoffset=0    yoffset=19   xadvance=53   page=0    chnl=0 
char id=70      x=169  y=271  width=46   height=60   xoffset=0    yoffset=19   xadvance=48   page=0    chnl=0 
char id=71      x=124  y=82   width=61   height=63   xoffset=2    yoffset=18   xadvance=63   page=0    chnl=0 
char id=72      x=215  y=271  width=63   height=60   xoffset=0    yoffset=19   xadvance=63   page=0    chnl=0 
char id=73      x=278  y=271  width=27   height=60   xoffset=1    yoffset=19   xadvance=29   page=0    chnl=0 
char id=74      x=311  y=146  width=35   height=62   xoffset=0    yoffset=19   xadvance=34   page=0    chnl=0 
char id=75      x=305  y=271  width=65   height=60   xoffset=0    yoffset=19   xadvance=63   page=0    chnl=0 
char id=76      x=370  y=271  width=53   height=60   xoffset=0    yoffset=19   xadvance=53   page=0    chnl=0 
char id=77      x=423  y=271  width=77   height=60   xoffset=0    yoffset=19   xadvance=77   page=0    chnl=0 
char id=78      x=316  y=209  width=67   height=61   xoffset=-3   yoffset=19   xadvance=63   page=0    chnl=0 
char id=79      x=185  y=82   width=59   height=63   xoffset=2    yoffset=18   xadvance=63   page=0    chnl=0 
char id=80      x=0    y=331  width=47   height=60   xoffset=0    yoffset=19   xadvance=48   page=0    chnl=0 
char id=81      x=222  y=0    width=59   height=79   xoffset=2    yoffset=18   xadvance=63   page=0    chnl=0 
char id=82      x=47   y=331  width=60   height=60   xoffset=0    yoffset=19   xadvance=58   page=0    chnl=0 
char id=83      x=244  y=82   width=41   height=63   xoffset=4    yoffset=18   xadvance=48   page=0    chnl=0 
char id=84      x=107  y=331  width=51   height=60   xoffset=1    yoffset=19   xadvance=53   page=0    chnl=0 
char id=85      x=346  y=146  width=64   height=62   xoffset=-1   yoffset=19   xadvance=63   page=0    chnl=0 
char id=86      x=410  y=146  width=64   height=62   xoffset=-1   yoffset=19   xadvance=63   page=0    chnl=0 
char id=87      x=0    y=209  width=83   height=62   xoffset=0    yoffset=19   xadvance=82   page=0    chnl=0 
char id=88      x=158  y=331  width=64   height=60   xoffset=-1   yoffset=19   xadvance=63   page=0    chnl=0 
char id=89      x=222  y=331  width=64   height=60   xoffset=-1   yoffset=19   xadvance=63   page=0    chnl=0 
char id=90      x=286  y=331  width=52   height=60   xoffset=0    yoffset=19   xadvance=53   page=0    chnl=0 
char id=91      x=281  y=0    width=21   height=79   xoffset=6    yoffset=18   xadvance=29   page=0    chnl=0 
char id=92      x=476  y=0    width=27   height=65   xoffset=-1   yoffset=16   xadvance=24   page=0    chnl=0 
char id=93      x=302  y=0    width=21   height=79   xoffset=2    yoffset=18   xadvance=29   page=0    chnl=0 
char id=94      x=182  y=436  width=41   height=33   xoffset=0    yoffset=18   xadvance=41   page=0    chnl=0 
char id=95      x=390  y=436  width=48   height=6    xoffset=-2   yoffset=92   xadvance=44   page=0    chnl=0 
char id=96      x=288  y=436  width=16   height=18   xoffset=4    yoffset=17   xadvance=29   page=0    chnl=0 
char id=97      x=204  y=391  width=38   height=44   xoffset=2    yoffset=36   xadvance=39   page=0    chnl=0 
char id=98      x=361  y=0    width=44   height=65   xoffset=-2   yoffset=16   xadvance=44   page=0    chnl=0 
char id=99      x=459  y=331  width=36   height=45   xoffset=1    yoffset=36   xadvance=39   page=0    chnl=0 
char id=100     x=405  y=0    width=44   height=65   xoffset=1    yoffset=16   xadvance=44   page=0    chnl=0 
char id=101     x=0    y=391  width=36   height=45   xoffset=2    yoffset=36   xadvance=39   page=0    chnl=0 
char id=102     x=285  y=82   width=45   height=63   xoffset=2    yoffset=16   xadvance=29   page=0    chnl=0 
char id=103     x=83   y=209  width=42   height=62   xoffset=1    yoffset=36   xadvance=44   page=0    chnl=0 
char id=104     x=330  y=82   width=45   height=63   xoffset=-1   yoffset=16   xadvance=44   page=0    chnl=0 
char id=105     x=375  y=82   width=23   height=63   xoffset=1    yoffset=16   xadvance=24   page=0    chnl=0 
char id=106     x=0    y=0    width=32   height=82   xoffset=-8   yoffset=16   xadvance=24   page=0    chnl=0 
char id=107     x=398  y=82   width=47   height=63   xoffset=-1   yoffset=16   xadvance=44   page=0    chnl=0 
char id=108     x=445  y=82   width=23   height=63   xoffset=1    yoffset=16   xadvance=24   page=0    chnl=0 
char id=109     x=242  y=391  width=70   height=43   xoffset=-1   yoffset=36   xadvance=68   page=0    chnl=0 
char id=110     x=312  y=391  width=46   height=43   xoffset=-1   yoffset=36   xadvance=44   page=0    chnl=0 
char id=111     x=36   y=391  width=41   height=45   xoffset=1    yoffset=36   xadvance=44   page=0    chnl=0 
char id=112     x=125  y=209  width=44   height=62   xoffset=-2   yoffset=36   xadvance=44   page=0    chnl=0 
char id=113     x=169  y=209  width=44   height=62   xoffset=1    yoffset=36   xadvance=44   page=0    chnl=0 
char id=114     x=358  y=391  width=32   height=43   xoffset=-1   yoffset=36   xadvance=29   page=0    chnl=0 
char id=115     x=77   y=391  width=29   height=45   xoffset=3    yoffset=36   xadvance=34   page=0    chnl=0 
char id=116     x=383  y=331  width=27   height=55   xoffset=-1   yoffset=25   xadvance=24   page=0    chnl=0 
char id=117     x=390  y=391  width=46   height=43   xoffset=-1   yoffset=38   xadvance=44   page=0    chnl=0 
char id=118     x=436  y=391  width=45   height=43   xoffset=-1   yoffset=38   xadvance=44   page=0    chnl=0 
char id=119     x=0    y=436  width=65   height=43   xoffset=-1   yoffset=38   xadvance=63   page=0    chnl=0 
char id=120     x=65   y=436  width=44   height=41   xoffset=0    yoffset=38   xadvance=44   page=0    chnl=0 
char id=121     x=338  y=331  width=45   height=60   xoffset=-1   yoffset=38   xadvance=44   page=0    chnl=0 
char id=122     x=109  y=436  width=39   height=41   xoffset=0    yoffset=38   xadvance=39   page=0    chnl=0 
char id=123     x=86   y=0    width=26   height=82   xoffset=11   yoffset=16   xadvance=42   page=0    chnl=0 
char id=124     x=139  y=0    width=7    height=82   xoffset=5    yoffset=16   xadvance=17   page=0    chnl=0 
char id=125     x=112  y=0    width=27   height=82   xoffset=6    yoffset=16   xadvance=42   page=0    chnl=0 
char id=126     x=304  y=436  width=49   height=15   xoffset=-1   yoffset=48   xadvance=47   page=0    chnl=0 
