info face="TimesNewRomanPSMT" size=111 bold=0 italic=0 charset="" unicode=0 stretchH=100 smooth=1 aa=1 padding=1,1,1,1 spacing=-2,-2
common lineHeight=128 base=99 scaleW=512 scaleH=512 pages=2 packed=0
page id=0 file="b_cert_1111.png"
page id=1 file="b_cert_1112.png"
chars count=96
char id=10      x=0    y=0    width=0    height=0    xoffset=-1   yoffset=0    xadvance=0    page=0    chnl=0 
char id=32      x=0    y=0    width=0    height=0    xoffset=-1   yoffset=0    xadvance=28   page=0    chnl=0 
char id=33      x=485  y=104  width=15   height=80   xoffset=11   yoffset=22   xadvance=37   page=0    chnl=0 
char id=35      x=455  y=186  width=54   height=80   xoffset=1    yoffset=22   xadvance=56   page=0    chnl=0 
char id=36      x=405  y=0    width=47   height=91   xoffset=4    yoffset=18   xadvance=56   page=0    chnl=0 
char id=37      x=123  y=104  width=88   height=82   xoffset=2    yoffset=22   xadvance=92   page=0    chnl=0 
char id=38      x=0    y=266  width=81   height=80   xoffset=3    yoffset=22   xadvance=86   page=0    chnl=0 
char id=40      x=41   y=0    width=33   height=104  xoffset=3    yoffset=20   xadvance=37   page=0    chnl=0 
char id=41      x=74   y=0    width=33   height=104  xoffset=1    yoffset=20   xadvance=37   page=0    chnl=0 
char id=45      x=0    y=500  width=31   height=11   xoffset=3    yoffset=69   xadvance=37   page=0    chnl=0 
char id=47      x=55   y=104  width=34   height=82   xoffset=-1   yoffset=20   xadvance=31   page=0    chnl=0 
char id=48      x=362  y=186  width=50   height=80   xoffset=3    yoffset=22   xadvance=56   page=0    chnl=0 
char id=49      x=268  y=346  width=31   height=78   xoffset=12   yoffset=22   xadvance=56   page=0    chnl=0 
char id=50      x=299  y=346  width=51   height=78   xoffset=1    yoffset=22   xadvance=56   page=0    chnl=0 
char id=51      x=172  y=186  width=45   height=80   xoffset=3    yoffset=22   xadvance=56   page=0    chnl=0 
char id=52      x=350  y=346  width=53   height=78   xoffset=0    yoffset=22   xadvance=56   page=0    chnl=0 
char id=53      x=403  y=346  width=46   height=78   xoffset=4    yoffset=24   xadvance=56   page=0    chnl=0 
char id=54      x=217  y=186  width=50   height=80   xoffset=3    yoffset=22   xadvance=56   page=0    chnl=0 
char id=55      x=449  y=346  width=49   height=78   xoffset=3    yoffset=24   xadvance=56   page=0    chnl=0 
char id=56      x=267  y=186  width=46   height=80   xoffset=5    yoffset=22   xadvance=56   page=0    chnl=0 
char id=57      x=313  y=186  width=49   height=80   xoffset=3    yoffset=22   xadvance=56   page=0    chnl=0 
char id=58      x=488  y=424  width=15   height=56   xoffset=8    yoffset=46   xadvance=31   page=0    chnl=0 
char id=59      x=469  y=424  width=19   height=73   xoffset=6    yoffset=46   xadvance=31   page=0    chnl=0 
char id=63      x=412  y=186  width=43   height=80   xoffset=3    yoffset=22   xadvance=49   page=0    chnl=0 
char id=64      x=181  y=0    width=97   height=104  xoffset=4    yoffset=20   xadvance=102  page=0    chnl=0 
char id=65      x=139  y=266  width=81   height=78   xoffset=-1   yoffset=22   xadvance=80   page=0    chnl=0 
char id=66      x=0    y=424  width=69   height=76   xoffset=0    yoffset=24   xadvance=74   page=0    chnl=0 
char id=67      x=211  y=104  width=69   height=80   xoffset=3    yoffset=22   xadvance=74   page=0    chnl=0 
char id=68      x=69   y=424  width=77   height=76   xoffset=0    yoffset=24   xadvance=80   page=0    chnl=0 
char id=69      x=146  y=424  width=66   height=76   xoffset=1    yoffset=24   xadvance=68   page=0    chnl=0 
char id=70      x=212  y=424  width=59   height=76   xoffset=0    yoffset=24   xadvance=62   page=0    chnl=0 
char id=71      x=280  y=104  width=78   height=80   xoffset=2    yoffset=22   xadvance=80   page=0    chnl=0 
char id=72      x=271  y=424  width=79   height=76   xoffset=0    yoffset=24   xadvance=80   page=0    chnl=0 
char id=73      x=350  y=424  width=35   height=76   xoffset=1    yoffset=24   xadvance=37   page=0    chnl=0 
char id=74      x=220  y=266  width=43   height=78   xoffset=1    yoffset=24   xadvance=43   page=0    chnl=0 
char id=75      x=385  y=424  width=84   height=76   xoffset=0    yoffset=24   xadvance=80   page=0    chnl=0 
char id=78      x=263  y=266  width=84   height=78   xoffset=-3   yoffset=24   xadvance=80   page=0    chnl=0 
char id=79      x=358  y=104  width=75   height=80   xoffset=2    yoffset=22   xadvance=80   page=0    chnl=0 
char id=81      x=330  y=0    width=75   height=100  xoffset=2    yoffset=22   xadvance=80   page=0    chnl=0 
char id=83      x=433  y=104  width=52   height=80   xoffset=5    yoffset=22   xadvance=62   page=0    chnl=0 
char id=85      x=347  y=266  width=81   height=78   xoffset=-1   yoffset=24   xadvance=80   page=0    chnl=0 
char id=86      x=428  y=266  width=81   height=78   xoffset=-1   yoffset=24   xadvance=80   page=0    chnl=0 
char id=87      x=0    y=346  width=105  height=78   xoffset=0    yoffset=24   xadvance=105  page=0    chnl=0 
char id=91      x=278  y=0    width=26   height=101  xoffset=8    yoffset=22   xadvance=37   page=0    chnl=0 
char id=92      x=89   y=104  width=34   height=82   xoffset=-1   yoffset=20   xadvance=31   page=0    chnl=0 
char id=93      x=304  y=0    width=26   height=101  xoffset=3    yoffset=22   xadvance=37   page=0    chnl=0 
char id=95      x=31   y=500  width=60   height=7    xoffset=-2   yoffset=117  xadvance=56   page=0    chnl=0 
char id=98      x=452  y=0    width=55   height=82   xoffset=-2   yoffset=20   xadvance=56   page=0    chnl=0 
char id=100     x=0    y=104  width=55   height=82   xoffset=2    yoffset=20   xadvance=56   page=0    chnl=0 
char id=102     x=81   y=266  width=58   height=79   xoffset=3    yoffset=21   xadvance=37   page=0    chnl=0 
char id=103     x=105  y=346  width=53   height=78   xoffset=2    yoffset=46   xadvance=56   page=0    chnl=0 
char id=104     x=0    y=186  width=57   height=80   xoffset=-1   yoffset=20   xadvance=56   page=0    chnl=0 
char id=105     x=57   y=186  width=28   height=80   xoffset=2    yoffset=20   xadvance=31   page=0    chnl=0 
char id=106     x=0    y=0    width=41   height=104  xoffset=-10  yoffset=20   xadvance=31   page=0    chnl=0 
char id=107     x=85   y=186  width=59   height=80   xoffset=-1   yoffset=20   xadvance=56   page=0    chnl=0 
char id=108     x=144  y=186  width=28   height=80   xoffset=2    yoffset=20   xadvance=31   page=0    chnl=0 
char id=112     x=158  y=346  width=55   height=78   xoffset=-2   yoffset=46   xadvance=56   page=0    chnl=0 
char id=113     x=213  y=346  width=55   height=78   xoffset=2    yoffset=46   xadvance=56   page=0    chnl=0 
char id=123     x=107  y=0    width=33   height=104  xoffset=14   yoffset=20   xadvance=53   page=0    chnl=0 
char id=124     x=173  y=0    width=8    height=104  xoffset=7    yoffset=20   xadvance=22   page=0    chnl=0 
char id=125     x=140  y=0    width=33   height=104  xoffset=8    yoffset=20   xadvance=53   page=0    chnl=0 
char id=34      x=155  y=208  width=33   height=35   xoffset=6    yoffset=22   xadvance=45   page=1    chnl=0 
char id=39      x=188  y=208  width=14   height=35   xoffset=3    yoffset=22   xadvance=20   page=1    chnl=0 
char id=42      x=465  y=152  width=43   height=48   xoffset=6    yoffset=20   xadvance=56   page=1    chnl=0 
char id=43      x=179  y=76   width=61   height=62   xoffset=1    yoffset=31   xadvance=63   page=1    chnl=0 
char id=44      x=202  y=208  width=20   height=32   xoffset=4    yoffset=87   xadvance=28   page=1    chnl=0 
char id=46      x=364  y=208  width=15   height=15   xoffset=6    yoffset=87   xadvance=28   page=1    chnl=0 
char id=60      x=0    y=152  width=61   height=56   xoffset=1    yoffset=34   xadvance=63   page=1    chnl=0 
char id=61      x=222  y=208  width=61   height=25   xoffset=1    yoffset=50   xadvance=63   page=1    chnl=0 
char id=62      x=61   y=152  width=61   height=56   xoffset=1    yoffset=34   xadvance=63   page=1    chnl=0 
char id=76      x=0    y=0    width=66   height=76   xoffset=1    yoffset=24   xadvance=68   page=1    chnl=0 
char id=77      x=66   y=0    width=98   height=76   xoffset=0    yoffset=24   xadvance=99   page=1    chnl=0 
char id=80      x=164  y=0    width=59   height=76   xoffset=0    yoffset=24   xadvance=62   page=1    chnl=0 
char id=82      x=223  y=0    width=78   height=76   xoffset=0    yoffset=24   xadvance=74   page=1    chnl=0 
char id=84      x=301  y=0    width=65   height=76   xoffset=2    yoffset=24   xadvance=68   page=1    chnl=0 
char id=88      x=366  y=0    width=81   height=76   xoffset=-1   yoffset=24   xadvance=80   page=1    chnl=0 
char id=89      x=0    y=76   width=80   height=76   xoffset=0    yoffset=24   xadvance=80   page=1    chnl=0 
char id=90      x=80   y=76   width=66   height=76   xoffset=0    yoffset=24   xadvance=68   page=1    chnl=0 
char id=94      x=104  y=208  width=51   height=42   xoffset=1    yoffset=22   xadvance=52   page=1    chnl=0 
char id=96      x=283  y=208  width=21   height=22   xoffset=5    yoffset=22   xadvance=37   page=1    chnl=0 
char id=97      x=240  y=76   width=49   height=56   xoffset=2    yoffset=46   xadvance=49   page=1    chnl=0 
char id=99      x=289  y=76   width=45   height=56   xoffset=2    yoffset=46   xadvance=49   page=1    chnl=0 
char id=101     x=334  y=76   width=45   height=56   xoffset=3    yoffset=46   xadvance=49   page=1    chnl=0 
char id=109     x=122  y=152  width=88   height=54   xoffset=-1   yoffset=46   xadvance=86   page=1    chnl=0 
char id=110     x=210  y=152  width=58   height=54   xoffset=-1   yoffset=46   xadvance=56   page=1    chnl=0 
char id=111     x=379  y=76   width=51   height=56   xoffset=2    yoffset=46   xadvance=56   page=1    chnl=0 
char id=114     x=467  y=76   width=40   height=54   xoffset=-1   yoffset=46   xadvance=37   page=1    chnl=0 
char id=115     x=430  y=76   width=37   height=56   xoffset=4    yoffset=46   xadvance=43   page=1    chnl=0 
char id=116     x=146  y=76   width=33   height=69   xoffset=0    yoffset=32   xadvance=31   page=1    chnl=0 
char id=117     x=268  y=152  width=58   height=54   xoffset=-1   yoffset=48   xadvance=56   page=1    chnl=0 
char id=118     x=326  y=152  width=57   height=54   xoffset=-1   yoffset=48   xadvance=56   page=1    chnl=0 
char id=119     x=383  y=152  width=82   height=54   xoffset=-1   yoffset=48   xadvance=80   page=1    chnl=0 
char id=120     x=0    y=208  width=56   height=52   xoffset=0    yoffset=48   xadvance=56   page=1    chnl=0 
char id=121     x=447  y=0    width=57   height=76   xoffset=-1   yoffset=48   xadvance=56   page=1    chnl=0 
char id=122     x=56   y=208  width=48   height=52   xoffset=1    yoffset=48   xadvance=49   page=1    chnl=0 
char id=126     x=304  y=208  width=60   height=18   xoffset=0    yoffset=61   xadvance=60   page=1    chnl=0 
