info face="TimesNewRomanPSMT" size=48 bold=0 italic=0 charset="" unicode=0 stretchH=100 smooth=1 aa=1 padding=1,1,1,1 spacing=-2,-2
common lineHeight=56 base=43 scaleW=512 scaleH=512 pages=1 packed=0
page id=0 file="b_cert_48.png"
chars count=96
char id=10      x=0    y=0    width=0    height=0    xoffset=-1   yoffset=0    xadvance=0    page=0    chnl=0 
char id=32      x=0    y=0    width=0    height=0    xoffset=-1   yoffset=0    xadvance=12   page=0    chnl=0 
char id=33      x=257  y=47   width=8    height=36   xoffset=4    yoffset=9    xadvance=16   page=0    chnl=0 
char id=34      x=156  y=152  width=16   height=17   xoffset=2    yoffset=9    xadvance=20   page=0    chnl=0 
char id=35      x=285  y=47   width=26   height=36   xoffset=-1   yoffset=9    xadvance=24   page=0    chnl=0 
char id=36      x=194  y=0    width=22   height=41   xoffset=1    yoffset=7    xadvance=24   page=0    chnl=0 
char id=37      x=300  y=0    width=40   height=37   xoffset=0    yoffset=9    xadvance=40   page=0    chnl=0 
char id=38      x=311  y=47   width=37   height=36   xoffset=0    yoffset=9    xadvance=37   page=0    chnl=0 
char id=39      x=172  y=152  width=8    height=17   xoffset=0    yoffset=9    xadvance=9    page=0    chnl=0 
char id=40      x=19   y=0    width=16   height=47   xoffset=0    yoffset=8    xadvance=16   page=0    chnl=0 
char id=41      x=35   y=0    width=16   height=47   xoffset=0    yoffset=8    xadvance=16   page=0    chnl=0 
char id=42      x=112  y=152  width=20   height=23   xoffset=2    yoffset=8    xadvance=24   page=0    chnl=0 
char id=43      x=194  y=118  width=29   height=28   xoffset=-1   yoffset=13   xadvance=27   page=0    chnl=0 
char id=44      x=180  y=152  width=10   height=15   xoffset=1    yoffset=37   xadvance=12   page=0    chnl=0 
char id=45      x=266  y=152  width=16   height=6    xoffset=0    yoffset=29   xadvance=16   page=0    chnl=0 
char id=46      x=258  y=152  width=8    height=8    xoffset=2    yoffset=37   xadvance=12   page=0    chnl=0 
char id=47      x=268  y=0    width=16   height=37   xoffset=-1   yoffset=8    xadvance=13   page=0    chnl=0 
char id=48      x=233  y=47   width=24   height=36   xoffset=0    yoffset=9    xadvance=24   page=0    chnl=0 
char id=49      x=84   y=83   width=16   height=35   xoffset=4    yoffset=9    xadvance=24   page=0    chnl=0 
char id=50      x=100  y=83   width=24   height=35   xoffset=0    yoffset=9    xadvance=24   page=0    chnl=0 
char id=51      x=143  y=47   width=22   height=36   xoffset=0    yoffset=9    xadvance=24   page=0    chnl=0 
char id=52      x=124  y=83   width=25   height=35   xoffset=-1   yoffset=9    xadvance=24   page=0    chnl=0 
char id=53      x=149  y=83   width=21   height=35   xoffset=1    yoffset=10   xadvance=24   page=0    chnl=0 
char id=54      x=165  y=47   width=23   height=36   xoffset=1    yoffset=9    xadvance=24   page=0    chnl=0 
char id=55      x=170  y=83   width=23   height=35   xoffset=0    yoffset=10   xadvance=24   page=0    chnl=0 
char id=56      x=188  y=47   width=22   height=36   xoffset=1    yoffset=9    xadvance=24   page=0    chnl=0 
char id=57      x=210  y=47   width=23   height=36   xoffset=0    yoffset=9    xadvance=24   page=0    chnl=0 
char id=58      x=329  y=118  width=8    height=26   xoffset=3    yoffset=19   xadvance=13   page=0    chnl=0 
char id=59      x=168  y=118  width=10   height=33   xoffset=2    yoffset=19   xadvance=13   page=0    chnl=0 
char id=60      x=337  y=118  width=29   height=26   xoffset=-1   yoffset=14   xadvance=27   page=0    chnl=0 
char id=61      x=190  y=152  width=29   height=12   xoffset=-1   yoffset=21   xadvance=27   page=0    chnl=0 
char id=62      x=366  y=118  width=29   height=26   xoffset=-1   yoffset=14   xadvance=27   page=0    chnl=0 
char id=63      x=265  y=47   width=20   height=36   xoffset=1    yoffset=9    xadvance=21   page=0    chnl=0 
char id=64      x=88   y=0    width=44   height=47   xoffset=1    yoffset=8    xadvance=44   page=0    chnl=0 
char id=65      x=348  y=47   width=37   height=35   xoffset=-1   yoffset=9    xadvance=35   page=0    chnl=0 
char id=66      x=193  y=83   width=32   height=34   xoffset=-1   yoffset=10   xadvance=32   page=0    chnl=0 
char id=67      x=340  y=0    width=32   height=36   xoffset=0    yoffset=9    xadvance=32   page=0    chnl=0 
char id=68      x=225  y=83   width=35   height=34   xoffset=-1   yoffset=10   xadvance=35   page=0    chnl=0 
char id=69      x=260  y=83   width=31   height=34   xoffset=-1   yoffset=10   xadvance=29   page=0    chnl=0 
char id=70      x=291  y=83   width=27   height=34   xoffset=-1   yoffset=10   xadvance=27   page=0    chnl=0 
char id=71      x=372  y=0    width=35   height=36   xoffset=0    yoffset=9    xadvance=35   page=0    chnl=0 
char id=72      x=318  y=83   width=36   height=34   xoffset=-1   yoffset=10   xadvance=35   page=0    chnl=0 
char id=73      x=354  y=83   width=16   height=34   xoffset=0    yoffset=10   xadvance=16   page=0    chnl=0 
char id=74      x=385  y=47   width=21   height=35   xoffset=-1   yoffset=10   xadvance=19   page=0    chnl=0 
char id=75      x=370  y=83   width=38   height=34   xoffset=-1   yoffset=10   xadvance=35   page=0    chnl=0 
char id=76      x=408  y=83   width=31   height=34   xoffset=-1   yoffset=10   xadvance=29   page=0    chnl=0 
char id=77      x=439  y=83   width=44   height=34   xoffset=-1   yoffset=10   xadvance=43   page=0    chnl=0 
char id=78      x=406  y=47   width=37   height=35   xoffset=-2   yoffset=10   xadvance=35   page=0    chnl=0 
char id=79      x=407  y=0    width=34   height=36   xoffset=0    yoffset=9    xadvance=35   page=0    chnl=0 
char id=80      x=483  y=83   width=28   height=34   xoffset=-1   yoffset=10   xadvance=27   page=0    chnl=0 
char id=81      x=132  y=0    width=34   height=45   xoffset=0    yoffset=9    xadvance=35   page=0    chnl=0 
char id=82      x=0    y=118  width=35   height=34   xoffset=-1   yoffset=10   xadvance=32   page=0    chnl=0 
char id=83      x=441  y=0    width=24   height=36   xoffset=2    yoffset=9    xadvance=27   page=0    chnl=0 
char id=84      x=35   y=118  width=30   height=34   xoffset=0    yoffset=10   xadvance=29   page=0    chnl=0 
char id=85      x=443  y=47   width=37   height=35   xoffset=-1   yoffset=10   xadvance=35   page=0    chnl=0 
char id=86      x=0    y=83   width=37   height=35   xoffset=-1   yoffset=10   xadvance=35   page=0    chnl=0 
char id=87      x=37   y=83   width=47   height=35   xoffset=-1   yoffset=10   xadvance=45   page=0    chnl=0 
char id=88      x=65   y=118  width=37   height=34   xoffset=-1   yoffset=10   xadvance=35   page=0    chnl=0 
char id=89      x=102  y=118  width=36   height=34   xoffset=-1   yoffset=10   xadvance=35   page=0    chnl=0 
char id=90      x=138  y=118  width=30   height=34   xoffset=-1   yoffset=10   xadvance=29   page=0    chnl=0 
char id=91      x=166  y=0    width=14   height=45   xoffset=2    yoffset=9    xadvance=16   page=0    chnl=0 
char id=92      x=284  y=0    width=16   height=37   xoffset=-1   yoffset=8    xadvance=13   page=0    chnl=0 
char id=93      x=180  y=0    width=14   height=45   xoffset=0    yoffset=9    xadvance=16   page=0    chnl=0 
char id=94      x=132  y=152  width=24   height=20   xoffset=-1   yoffset=9    xadvance=23   page=0    chnl=0 
char id=95      x=282  y=152  width=28   height=5    xoffset=-2   yoffset=50   xadvance=24   page=0    chnl=0 
char id=96      x=219  y=152  width=11   height=11   xoffset=1    yoffset=9    xadvance=16   page=0    chnl=0 
char id=97      x=223  y=118  width=23   height=26   xoffset=0    yoffset=19   xadvance=21   page=0    chnl=0 
char id=98      x=216  y=0    width=26   height=37   xoffset=-2   yoffset=8    xadvance=24   page=0    chnl=0 
char id=99      x=246  y=118  width=21   height=26   xoffset=0    yoffset=19   xadvance=21   page=0    chnl=0 
char id=100     x=242  y=0    width=26   height=37   xoffset=0    yoffset=8    xadvance=24   page=0    chnl=0 
char id=101     x=267  y=118  width=21   height=26   xoffset=0    yoffset=19   xadvance=21   page=0    chnl=0 
char id=102     x=465  y=0    width=26   height=36   xoffset=0    yoffset=8    xadvance=16   page=0    chnl=0 
char id=103     x=0    y=47   width=25   height=36   xoffset=0    yoffset=19   xadvance=24   page=0    chnl=0 
char id=104     x=25   y=47   width=26   height=36   xoffset=-1   yoffset=8    xadvance=24   page=0    chnl=0 
char id=105     x=491  y=0    width=14   height=36   xoffset=0    yoffset=8    xadvance=13   page=0    chnl=0 
char id=106     x=0    y=0    width=19   height=47   xoffset=-5   yoffset=8    xadvance=13   page=0    chnl=0 
char id=107     x=51   y=47   width=27   height=36   xoffset=-1   yoffset=8    xadvance=24   page=0    chnl=0 
char id=108     x=78   y=47   width=14   height=36   xoffset=0    yoffset=8    xadvance=13   page=0    chnl=0 
char id=109     x=395  y=118  width=40   height=25   xoffset=-1   yoffset=19   xadvance=37   page=0    chnl=0 
char id=110     x=435  y=118  width=26   height=25   xoffset=-1   yoffset=19   xadvance=24   page=0    chnl=0 
char id=111     x=288  y=118  width=24   height=26   xoffset=0    yoffset=19   xadvance=24   page=0    chnl=0 
char id=112     x=92   y=47   width=26   height=36   xoffset=-2   yoffset=19   xadvance=24   page=0    chnl=0 
char id=113     x=118  y=47   width=25   height=36   xoffset=0    yoffset=19   xadvance=24   page=0    chnl=0 
char id=114     x=461  y=118  width=19   height=25   xoffset=-1   yoffset=19   xadvance=16   page=0    chnl=0 
char id=115     x=312  y=118  width=17   height=26   xoffset=1    yoffset=19   xadvance=19   page=0    chnl=0 
char id=116     x=178  y=118  width=16   height=32   xoffset=-1   yoffset=13   xadvance=13   page=0    chnl=0 
char id=117     x=480  y=118  width=26   height=25   xoffset=-1   yoffset=20   xadvance=24   page=0    chnl=0 
char id=118     x=0    y=152  width=26   height=25   xoffset=-1   yoffset=20   xadvance=24   page=0    chnl=0 
char id=119     x=26   y=152  width=37   height=25   xoffset=-1   yoffset=20   xadvance=35   page=0    chnl=0 
char id=120     x=63   y=152  width=26   height=24   xoffset=-1   yoffset=20   xadvance=24   page=0    chnl=0 
char id=121     x=480  y=47   width=26   height=35   xoffset=-1   yoffset=20   xadvance=24   page=0    chnl=0 
char id=122     x=89   y=152  width=23   height=24   xoffset=-1   yoffset=20   xadvance=21   page=0    chnl=0 
char id=123     x=51   y=0    width=16   height=47   xoffset=5    yoffset=8    xadvance=23   page=0    chnl=0 
char id=124     x=83   y=0    width=5    height=47   xoffset=2    yoffset=8    xadvance=10   page=0    chnl=0 
char id=125     x=67   y=0    width=16   height=47   xoffset=3    yoffset=8    xadvance=23   page=0    chnl=0 
char id=126     x=230  y=152  width=28   height=9    xoffset=-1   yoffset=26   xadvance=26   page=0    chnl=0 
