info face="TimesNewRomanPSMT" size=133 bold=0 italic=0 charset="" unicode=0 stretchH=100 smooth=1 aa=1 padding=1,1,1,1 spacing=-2,-2
common lineHeight=154 base=119 scaleW=512 scaleH=512 pages=3 packed=0
page id=0 file="b_cert_1331.png"
page id=1 file="b_cert_1332.png"
page id=2 file="b_cert_1333.png"
chars count=96
char id=10      x=0    y=0    width=0    height=0    xoffset=-1   yoffset=0    xadvance=0    page=0    chnl=0 
char id=32      x=0    y=0    width=0    height=0    xoffset=-1   yoffset=0    xadvance=33   page=0    chnl=0 
char id=33      x=486  y=124  width=18   height=95   xoffset=13   yoffset=27   xadvance=44   page=0    chnl=0 
char id=35      x=120  y=329  width=65   height=95   xoffset=1    yoffset=27   xadvance=67   page=0    chnl=0 
char id=36      x=0    y=124  width=55   height=109  xoffset=6    yoffset=22   xadvance=67   page=0    chnl=0 
char id=37      x=265  y=124  width=105  height=97   xoffset=3    yoffset=27   xadvance=111  page=0    chnl=0 
char id=38      x=243  y=233  width=98   height=96   xoffset=3    yoffset=27   xadvance=103  page=0    chnl=0 
char id=39      x=482  y=424  width=16   height=41   xoffset=4    yoffset=27   xadvance=24   page=0    chnl=0 
char id=40      x=49   y=0    width=39   height=124  xoffset=4    yoffset=25   xadvance=44   page=0    chnl=0 
char id=41      x=88   y=0    width=39   height=124  xoffset=1    yoffset=25   xadvance=44   page=0    chnl=0 
char id=43      x=39   y=424  width=73   height=73   xoffset=1    yoffset=38   xadvance=75   page=0    chnl=0 
char id=47      x=185  y=124  width=40   height=97   xoffset=-1   yoffset=25   xadvance=37   page=0    chnl=0 
char id=51      x=429  y=329  width=53   height=94   xoffset=4    yoffset=28   xadvance=67   page=0    chnl=0 
char id=58      x=482  y=329  width=17   height=66   xoffset=10   yoffset=56   xadvance=37   page=0    chnl=0 
char id=59      x=482  y=0    width=22   height=87   xoffset=8    yoffset=56   xadvance=37   page=0    chnl=0 
char id=60      x=112  y=424  width=73   height=67   xoffset=1    yoffset=41   xadvance=75   page=0    chnl=0 
char id=62      x=185  y=424  width=73   height=67   xoffset=1    yoffset=41   xadvance=75   page=0    chnl=0 
char id=63      x=69   y=329  width=51   height=95   xoffset=4    yoffset=27   xadvance=59   page=0    chnl=0 
char id=64      x=213  y=0    width=116  height=124  xoffset=5    yoffset=25   xadvance=122  page=0    chnl=0 
char id=67      x=370  y=124  width=83   height=96   xoffset=3    yoffset=27   xadvance=89   page=0    chnl=0 
char id=71      x=0    y=233  width=93   height=96   xoffset=3    yoffset=27   xadvance=96   page=0    chnl=0 
char id=74      x=185  y=329  width=51   height=94   xoffset=1    yoffset=29   xadvance=52   page=0    chnl=0 
char id=79      x=93   y=233  width=89   height=96   xoffset=3    yoffset=27   xadvance=96   page=0    chnl=0 
char id=81      x=329  y=0    width=89   height=120  xoffset=3    yoffset=27   xadvance=96   page=0    chnl=0 
char id=83      x=182  y=233  width=61   height=96   xoffset=7    yoffset=27   xadvance=74   page=0    chnl=0 
char id=85      x=236  y=329  width=97   height=94   xoffset=-1   yoffset=29   xadvance=96   page=0    chnl=0 
char id=86      x=333  y=329  width=96   height=94   xoffset=0    yoffset=29   xadvance=96   page=0    chnl=0 
char id=91      x=418  y=0    width=32   height=120  xoffset=9    yoffset=27   xadvance=44   page=0    chnl=0 
char id=92      x=225  y=124  width=40   height=97   xoffset=-1   yoffset=25   xadvance=37   page=0    chnl=0 
char id=93      x=450  y=0    width=32   height=120  xoffset=3    yoffset=27   xadvance=44   page=0    chnl=0 
char id=97      x=258  y=424  width=57   height=66   xoffset=3    yoffset=56   xadvance=59   page=0    chnl=0 
char id=98      x=55   y=124  width=65   height=97   xoffset=-2   yoffset=25   xadvance=67   page=0    chnl=0 
char id=99      x=315  y=424  width=53   height=66   xoffset=3    yoffset=56   xadvance=59   page=0    chnl=0 
char id=100     x=120  y=124  width=65   height=97   xoffset=3    yoffset=25   xadvance=67   page=0    chnl=0 
char id=101     x=368  y=424  width=54   height=66   xoffset=3    yoffset=56   xadvance=59   page=0    chnl=0 
char id=102     x=341  y=233  width=68   height=95   xoffset=4    yoffset=25   xadvance=44   page=0    chnl=0 
char id=104     x=409  y=233  width=68   height=95   xoffset=-1   yoffset=25   xadvance=67   page=0    chnl=0 
char id=105     x=453  y=124  width=33   height=95   xoffset=2    yoffset=25   xadvance=37   page=0    chnl=0 
char id=106     x=0    y=0    width=49   height=124  xoffset=-12  yoffset=25   xadvance=37   page=0    chnl=0 
char id=107     x=0    y=329  width=69   height=95   xoffset=0    yoffset=25   xadvance=67   page=0    chnl=0 
char id=108     x=477  y=233  width=34   height=95   xoffset=2    yoffset=25   xadvance=37   page=0    chnl=0 
char id=111     x=422  y=424  width=60   height=66   xoffset=3    yoffset=56   xadvance=67   page=0    chnl=0 
char id=116     x=0    y=424  width=39   height=83   xoffset=0    yoffset=38   xadvance=37   page=0    chnl=0 
char id=123     x=127  y=0    width=39   height=124  xoffset=17   yoffset=25   xadvance=64   page=0    chnl=0 
char id=124     x=205  y=0    width=8    height=124  xoffset=9    yoffset=25   xadvance=27   page=0    chnl=0 
char id=125     x=166  y=0    width=39   height=124  xoffset=10   yoffset=25   xadvance=64   page=0    chnl=0 
char id=34      x=60   y=461  width=40   height=41   xoffset=7    yoffset=27   xadvance=54   page=1    chnl=0 
char id=44      x=484  y=370  width=22   height=38   xoffset=6    yoffset=105  xadvance=33   page=1    chnl=0 
char id=45      x=245  y=461  width=36   height=13   xoffset=4    yoffset=83   xadvance=44   page=1    chnl=0 
char id=46      x=493  y=94   width=17   height=17   xoffset=8    yoffset=105  xadvance=33   page=1    chnl=0 
char id=48      x=296  y=0    width=60   height=94   xoffset=3    yoffset=28   xadvance=67   page=1    chnl=0 
char id=49      x=353  y=94   width=38   height=92   xoffset=14   yoffset=28   xadvance=67   page=1    chnl=0 
char id=50      x=391  y=94   width=61   height=92   xoffset=1    yoffset=28   xadvance=67   page=1    chnl=0 
char id=52      x=0    y=187  width=62   height=92   xoffset=1    yoffset=28   xadvance=67   page=1    chnl=0 
char id=53      x=452  y=0    width=54   height=93   xoffset=5    yoffset=29   xadvance=67   page=1    chnl=0 
char id=54      x=126  y=0    width=59   height=94   xoffset=4    yoffset=28   xadvance=67   page=1    chnl=0 
char id=55      x=294  y=94   width=59   height=93   xoffset=3    yoffset=29   xadvance=67   page=1    chnl=0 
char id=56      x=185  y=0    width=53   height=94   xoffset=7    yoffset=28   xadvance=67   page=1    chnl=0 
char id=57      x=238  y=0    width=58   height=94   xoffset=4    yoffset=28   xadvance=67   page=1    chnl=0 
char id=61      x=100  y=461  width=73   height=30   xoffset=1    yoffset=60   xadvance=75   page=1    chnl=0 
char id=65      x=356  y=0    width=96   height=93   xoffset=0    yoffset=27   xadvance=96   page=1    chnl=0 
char id=66      x=62   y=187  width=82   height=91   xoffset=1    yoffset=29   xadvance=89   page=1    chnl=0 
char id=68      x=144  y=187  width=91   height=91   xoffset=1    yoffset=29   xadvance=96   page=1    chnl=0 
char id=69      x=235  y=187  width=79   height=91   xoffset=1    yoffset=29   xadvance=81   page=1    chnl=0 
char id=70      x=314  y=187  width=69   height=91   xoffset=1    yoffset=29   xadvance=74   page=1    chnl=0 
char id=72      x=383  y=187  width=94   height=91   xoffset=1    yoffset=29   xadvance=96   page=1    chnl=0 
char id=73      x=452  y=94   width=41   height=91   xoffset=2    yoffset=29   xadvance=44   page=1    chnl=0 
char id=75      x=0    y=279  width=99   height=91   xoffset=1    yoffset=29   xadvance=96   page=1    chnl=0 
char id=76      x=99   y=279  width=79   height=91   xoffset=1    yoffset=29   xadvance=81   page=1    chnl=0 
char id=77      x=178  y=279  width=116  height=91   xoffset=1    yoffset=29   xadvance=118  page=1    chnl=0 
char id=78      x=0    y=94   width=100  height=93   xoffset=-3   yoffset=29   xadvance=96   page=1    chnl=0 
char id=80      x=294  y=279  width=70   height=91   xoffset=1    yoffset=29   xadvance=74   page=1    chnl=0 
char id=82      x=364  y=279  width=90   height=91   xoffset=1    yoffset=29   xadvance=89   page=1    chnl=0 
char id=84      x=0    y=370  width=76   height=91   xoffset=3    yoffset=29   xadvance=81   page=1    chnl=0 
char id=87      x=0    y=0    width=126  height=94   xoffset=0    yoffset=29   xadvance=126  page=1    chnl=0 
char id=88      x=76   y=370  width=97   height=91   xoffset=-1   yoffset=29   xadvance=96   page=1    chnl=0 
char id=89      x=173  y=370  width=96   height=91   xoffset=0    yoffset=29   xadvance=96   page=1    chnl=0 
char id=90      x=269  y=370  width=79   height=91   xoffset=0    yoffset=29   xadvance=81   page=1    chnl=0 
char id=94      x=0    y=461  width=60   height=49   xoffset=1    yoffset=28   xadvance=62   page=1    chnl=0 
char id=95      x=281  y=461  width=73   height=8    xoffset=-3   yoffset=141  xadvance=67   page=1    chnl=0 
char id=96      x=477  y=187  width=25   height=26   xoffset=6    yoffset=27   xadvance=44   page=1    chnl=0 
char id=103     x=100  y=94   width=64   height=93   xoffset=2    yoffset=56   xadvance=67   page=1    chnl=0 
char id=110     x=416  y=370  width=68   height=64   xoffset=-1   yoffset=56   xadvance=67   page=1    chnl=0 
char id=112     x=164  y=94   width=65   height=93   xoffset=-2   yoffset=56   xadvance=67   page=1    chnl=0 
char id=113     x=229  y=94   width=65   height=93   xoffset=3    yoffset=56   xadvance=67   page=1    chnl=0 
char id=115     x=454  y=279  width=44   height=66   xoffset=5    yoffset=56   xadvance=52   page=1    chnl=0 
char id=121     x=348  y=370  width=68   height=91   xoffset=-1   yoffset=58   xadvance=67   page=1    chnl=0 
char id=126     x=173  y=461  width=72   height=22   xoffset=0    yoffset=73   xadvance=72   page=1    chnl=0 
char id=42      x=0    y=64   width=51   height=57   xoffset=8    yoffset=25   xadvance=67   page=2    chnl=0 
char id=109     x=0    y=0    width=104  height=64   xoffset=0    yoffset=56   xadvance=103  page=2    chnl=0 
char id=114     x=104  y=0    width=49   height=64   xoffset=-1   yoffset=56   xadvance=44   page=2    chnl=0 
char id=117     x=153  y=0    width=69   height=64   xoffset=-1   yoffset=58   xadvance=67   page=2    chnl=0 
char id=118     x=222  y=0    width=67   height=64   xoffset=0    yoffset=58   xadvance=67   page=2    chnl=0 
char id=119     x=289  y=0    width=97   height=64   xoffset=-1   yoffset=58   xadvance=96   page=2    chnl=0 
char id=120     x=386  y=0    width=66   height=62   xoffset=0    yoffset=58   xadvance=67   page=2    chnl=0 
char id=122     x=452  y=0    width=57   height=62   xoffset=1    yoffset=58   xadvance=59   page=2    chnl=0 
