info face="TimesNewRomanPSMT" size=91 bold=0 italic=0 charset="" unicode=0 stretchH=100 smooth=1 aa=1 padding=1,1,1,1 spacing=-2,-2
common lineHeight=106 base=82 scaleW=512 scaleH=512 pages=2 packed=0
page id=0 file="b_cert_911.png"
page id=1 file="b_cert_912.png"
chars count=96
char id=10      x=0    y=0    width=0    height=0    xoffset=-1   yoffset=0    xadvance=0    page=0    chnl=0 
char id=32      x=0    y=0    width=0    height=0    xoffset=-1   yoffset=0    xadvance=23   page=0    chnl=0 
char id=33      x=494  y=86   width=13   height=66   xoffset=9    yoffset=19   xadvance=30   page=0    chnl=0 
char id=34      x=482  y=412  width=29   height=29   xoffset=4    yoffset=19   xadvance=37   page=0    chnl=0 
char id=35      x=258  y=154  width=45   height=66   xoffset=0    yoffset=19   xadvance=46   page=0    chnl=0 
char id=36      x=337  y=0    width=39   height=75   xoffset=3    yoffset=15   xadvance=46   page=0    chnl=0 
char id=37      x=28   y=86   width=72   height=67   xoffset=2    yoffset=19   xadvance=76   page=0    chnl=0 
char id=38      x=303  y=154  width=68   height=66   xoffset=2    yoffset=19   xadvance=71   page=0    chnl=0 
char id=39      x=43   y=475  width=12   height=29   xoffset=2    yoffset=19   xadvance=16   page=0    chnl=0 
char id=40      x=33   y=0    width=28   height=86   xoffset=2    yoffset=17   xadvance=30   page=0    chnl=0 
char id=41      x=61   y=0    width=27   height=86   xoffset=1    yoffset=17   xadvance=30   page=0    chnl=0 
char id=43      x=47   y=412  width=51   height=51   xoffset=0    yoffset=26   xadvance=51   page=0    chnl=0 
char id=44      x=55   y=475  width=17   height=27   xoffset=3    yoffset=72   xadvance=23   page=0    chnl=0 
char id=45      x=204  y=475  width=26   height=9    xoffset=2    yoffset=57   xadvance=30   page=0    chnl=0 
char id=46      x=191  y=475  width=13   height=13   xoffset=5    yoffset=72   xadvance=23   page=0    chnl=0 
char id=47      x=467  y=0    width=28   height=68   xoffset=-1   yoffset=17   xadvance=25   page=0    chnl=0 
char id=48      x=181  y=154  width=42   height=66   xoffset=2    yoffset=19   xadvance=46   page=0    chnl=0 
char id=49      x=474  y=154  width=27   height=64   xoffset=9    yoffset=19   xadvance=46   page=0    chnl=0 
char id=50      x=0    y=285  width=43   height=64   xoffset=0    yoffset=19   xadvance=46   page=0    chnl=0 
char id=51      x=24   y=154  width=37   height=66   xoffset=2    yoffset=19   xadvance=46   page=0    chnl=0 
char id=52      x=43   y=285  width=44   height=64   xoffset=0    yoffset=19   xadvance=46   page=0    chnl=0 
char id=53      x=154  y=220  width=38   height=65   xoffset=3    yoffset=20   xadvance=46   page=0    chnl=0 
char id=54      x=61   y=154  width=41   height=66   xoffset=2    yoffset=19   xadvance=46   page=0    chnl=0 
char id=55      x=192  y=220  width=41   height=65   xoffset=2    yoffset=20   xadvance=46   page=0    chnl=0 
char id=56      x=102  y=154  width=38   height=66   xoffset=4    yoffset=19   xadvance=46   page=0    chnl=0 
char id=57      x=140  y=154  width=41   height=66   xoffset=2    yoffset=19   xadvance=46   page=0    chnl=0 
char id=58      x=495  y=0    width=13   height=46   xoffset=6    yoffset=39   xadvance=25   page=0    chnl=0 
char id=59      x=491  y=349  width=16   height=60   xoffset=5    yoffset=39   xadvance=25   page=0    chnl=0 
char id=60      x=98   y=412  width=51   height=47   xoffset=0    yoffset=28   xadvance=51   page=0    chnl=0 
char id=61      x=72   y=475  width=51   height=21   xoffset=0    yoffset=41   xadvance=51   page=0    chnl=0 
char id=62      x=149  y=412  width=51   height=47   xoffset=0    yoffset=28   xadvance=51   page=0    chnl=0 
char id=63      x=223  y=154  width=35   height=66   xoffset=3    yoffset=19   xadvance=40   page=0    chnl=0 
char id=64      x=150  y=0    width=80   height=86   xoffset=3    yoffset=17   xadvance=84   page=0    chnl=0 
char id=65      x=233  y=220  width=67   height=64   xoffset=-1   yoffset=19   xadvance=66   page=0    chnl=0 
char id=66      x=87   y=285  width=57   height=63   xoffset=0    yoffset=20   xadvance=61   page=0    chnl=0 
char id=67      x=100  y=86   width=57   height=66   xoffset=2    yoffset=19   xadvance=61   page=0    chnl=0 
char id=68      x=144  y=285  width=64   height=63   xoffset=0    yoffset=20   xadvance=66   page=0    chnl=0 
char id=69      x=208  y=285  width=55   height=63   xoffset=0    yoffset=20   xadvance=56   page=0    chnl=0 
char id=70      x=263  y=285  width=48   height=63   xoffset=0    yoffset=20   xadvance=51   page=0    chnl=0 
char id=71      x=157  y=86   width=64   height=66   xoffset=2    yoffset=19   xadvance=66   page=0    chnl=0 
char id=72      x=311  y=285  width=65   height=63   xoffset=0    yoffset=20   xadvance=66   page=0    chnl=0 
char id=73      x=376  y=285  width=29   height=63   xoffset=1    yoffset=20   xadvance=30   page=0    chnl=0 
char id=74      x=371  y=154  width=36   height=65   xoffset=0    yoffset=20   xadvance=35   page=0    chnl=0 
char id=75      x=405  y=285  width=68   height=63   xoffset=0    yoffset=20   xadvance=66   page=0    chnl=0 
char id=76      x=0    y=349  width=55   height=63   xoffset=0    yoffset=20   xadvance=56   page=0    chnl=0 
char id=77      x=55   y=349  width=81   height=63   xoffset=0    yoffset=20   xadvance=81   page=0    chnl=0 
char id=78      x=300  y=220  width=70   height=64   xoffset=-3   yoffset=20   xadvance=66   page=0    chnl=0 
char id=79      x=221  y=86   width=62   height=66   xoffset=2    yoffset=19   xadvance=66   page=0    chnl=0 
char id=80      x=136  y=349  width=49   height=63   xoffset=0    yoffset=20   xadvance=51   page=0    chnl=0 
char id=81      x=275  y=0    width=62   height=82   xoffset=2    yoffset=19   xadvance=66   page=0    chnl=0 
char id=82      x=185  y=349  width=63   height=63   xoffset=0    yoffset=20   xadvance=61   page=0    chnl=0 
char id=83      x=283  y=86   width=43   height=66   xoffset=4    yoffset=19   xadvance=51   page=0    chnl=0 
char id=84      x=248  y=349  width=54   height=63   xoffset=1    yoffset=20   xadvance=56   page=0    chnl=0 
char id=85      x=407  y=154  width=67   height=65   xoffset=-1   yoffset=20   xadvance=66   page=0    chnl=0 
char id=86      x=0    y=220  width=67   height=65   xoffset=-1   yoffset=20   xadvance=66   page=0    chnl=0 
char id=87      x=67   y=220  width=87   height=65   xoffset=0    yoffset=20   xadvance=86   page=0    chnl=0 
char id=88      x=302  y=349  width=67   height=63   xoffset=-1   yoffset=20   xadvance=66   page=0    chnl=0 
char id=89      x=369  y=349  width=67   height=63   xoffset=-1   yoffset=20   xadvance=66   page=0    chnl=0 
char id=90      x=436  y=349  width=55   height=63   xoffset=0    yoffset=20   xadvance=56   page=0    chnl=0 
char id=91      x=230  y=0    width=23   height=83   xoffset=6    yoffset=19   xadvance=30   page=0    chnl=0 
char id=92      x=0    y=86   width=28   height=68   xoffset=-1   yoffset=17   xadvance=25   page=0    chnl=0 
char id=93      x=253  y=0    width=22   height=83   xoffset=2    yoffset=19   xadvance=30   page=0    chnl=0 
char id=94      x=0    y=475  width=43   height=35   xoffset=0    yoffset=19   xadvance=43   page=0    chnl=0 
char id=95      x=230  y=475  width=50   height=7    xoffset=-2   yoffset=96   xadvance=46   page=0    chnl=0 
char id=96      x=123  y=475  width=17   height=18   xoffset=4    yoffset=19   xadvance=30   page=0    chnl=0 
char id=97      x=347  y=412  width=40   height=45   xoffset=2    yoffset=39   xadvance=40   page=0    chnl=0 
char id=98      x=376  y=0    width=46   height=68   xoffset=-2   yoffset=17   xadvance=46   page=0    chnl=0 
char id=99      x=200  y=412  width=37   height=46   xoffset=2    yoffset=39   xadvance=40   page=0    chnl=0 
char id=100     x=422  y=0    width=45   height=68   xoffset=2    yoffset=17   xadvance=46   page=0    chnl=0 
char id=101     x=237  y=412  width=37   height=46   xoffset=2    yoffset=39   xadvance=40   page=0    chnl=0 
char id=102     x=326  y=86   width=48   height=66   xoffset=2    yoffset=17   xadvance=30   page=0    chnl=0 
char id=103     x=370  y=220  width=44   height=64   xoffset=1    yoffset=39   xadvance=46   page=0    chnl=0 
char id=104     x=374  y=86   width=47   height=66   xoffset=-1   yoffset=17   xadvance=46   page=0    chnl=0 
char id=105     x=421  y=86   width=24   height=66   xoffset=1    yoffset=17   xadvance=25   page=0    chnl=0 
char id=106     x=0    y=0    width=33   height=86   xoffset=-8   yoffset=17   xadvance=25   page=0    chnl=0 
char id=107     x=445  y=86   width=49   height=66   xoffset=-1   yoffset=17   xadvance=46   page=0    chnl=0 
char id=108     x=0    y=154  width=24   height=66   xoffset=1    yoffset=17   xadvance=25   page=0    chnl=0 
char id=111     x=274  y=412  width=42   height=46   xoffset=2    yoffset=39   xadvance=46   page=0    chnl=0 
char id=112     x=414  y=220  width=46   height=64   xoffset=-2   yoffset=39   xadvance=46   page=0    chnl=0 
char id=113     x=460  y=220  width=45   height=64   xoffset=2    yoffset=39   xadvance=46   page=0    chnl=0 
char id=115     x=316  y=412  width=31   height=46   xoffset=3    yoffset=39   xadvance=35   page=0    chnl=0 
char id=116     x=473  y=285  width=28   height=58   xoffset=-1   yoffset=26   xadvance=25   page=0    chnl=0 
char id=117     x=387  y=412  width=48   height=45   xoffset=-1   yoffset=40   xadvance=46   page=0    chnl=0 
char id=118     x=435  y=412  width=47   height=45   xoffset=-1   yoffset=40   xadvance=46   page=0    chnl=0 
char id=121     x=0    y=412  width=47   height=63   xoffset=-1   yoffset=40   xadvance=46   page=0    chnl=0 
char id=123     x=88   y=0    width=28   height=86   xoffset=11   yoffset=17   xadvance=44   page=0    chnl=0 
char id=124     x=144  y=0    width=6    height=86   xoffset=6    yoffset=17   xadvance=18   page=0    chnl=0 
char id=125     x=116  y=0    width=28   height=86   xoffset=6    yoffset=17   xadvance=44   page=0    chnl=0 
char id=126     x=140  y=475  width=51   height=16   xoffset=-1   yoffset=50   xadvance=49   page=0    chnl=0 
char id=42      x=307  y=0    width=36   height=40   xoffset=5    yoffset=17   xadvance=46   page=1    chnl=0 
char id=109     x=67   y=0    width=73   height=44   xoffset=-1   yoffset=39   xadvance=71   page=1    chnl=0 
char id=110     x=140  y=0    width=48   height=44   xoffset=-1   yoffset=39   xadvance=46   page=1    chnl=0 
char id=114     x=188  y=0    width=33   height=44   xoffset=-1   yoffset=39   xadvance=30   page=1    chnl=0 
char id=119     x=0    y=0    width=67   height=45   xoffset=-1   yoffset=40   xadvance=66   page=1    chnl=0 
char id=120     x=221  y=0    width=46   height=43   xoffset=0    yoffset=40   xadvance=46   page=1    chnl=0 
char id=122     x=267  y=0    width=40   height=43   xoffset=0    yoffset=40   xadvance=40   page=1    chnl=0 
