info face="TimesNewRomanPSMT" size=90 bold=0 italic=0 charset="" unicode=0 stretchH=100 smooth=1 aa=1 padding=1,1,1,1 spacing=-2,-2
common lineHeight=105 base=81 scaleW=512 scaleH=512 pages=2 packed=0
page id=0 file="b_cert_901.png"
page id=1 file="b_cert_902.png"
chars count=96
char id=10      x=0    y=0    width=0    height=0    xoffset=-1   yoffset=0    xadvance=0    page=0    chnl=0 
char id=32      x=0    y=0    width=0    height=0    xoffset=-1   yoffset=0    xadvance=23   page=0    chnl=0 
char id=33      x=488  y=85   width=12   height=65   xoffset=9    yoffset=19   xadvance=30   page=0    chnl=0 
char id=34      x=334  y=463  width=28   height=28   xoffset=4    yoffset=19   xadvance=37   page=0    chnl=0 
char id=35      x=256  y=152  width=45   height=65   xoffset=0    yoffset=19   xadvance=45   page=0    chnl=0 
char id=36      x=332  y=0    width=39   height=74   xoffset=3    yoffset=15   xadvance=45   page=0    chnl=0 
char id=37      x=28   y=85   width=71   height=66   xoffset=2    yoffset=19   xadvance=75   page=0    chnl=0 
char id=38      x=301  y=152  width=67   height=65   xoffset=2    yoffset=19   xadvance=70   page=0    chnl=0 
char id=39      x=497  y=344  width=12   height=28   xoffset=2    yoffset=19   xadvance=16   page=0    chnl=0 
char id=40      x=33   y=0    width=27   height=85   xoffset=2    yoffset=17   xadvance=30   page=0    chnl=0 
char id=41      x=60   y=0    width=27   height=85   xoffset=1    yoffset=17   xadvance=30   page=0    chnl=0 
char id=42      x=257  y=463  width=35   height=39   xoffset=5    yoffset=17   xadvance=45   page=0    chnl=0 
char id=43      x=28   y=406  width=50   height=50   xoffset=0    yoffset=26   xadvance=51   page=0    chnl=0 
char id=44      x=490  y=0    width=16   height=26   xoffset=3    yoffset=71   xadvance=23   page=0    chnl=0 
char id=46      x=480  y=463  width=13   height=13   xoffset=5    yoffset=71   xadvance=23   page=0    chnl=0 
char id=47      x=462  y=0    width=28   height=67   xoffset=-1   yoffset=17   xadvance=25   page=0    chnl=0 
char id=48      x=180  y=152  width=41   height=65   xoffset=2    yoffset=19   xadvance=45   page=0    chnl=0 
char id=49      x=0    y=281  width=27   height=63   xoffset=9    yoffset=19   xadvance=45   page=0    chnl=0 
char id=50      x=27   y=281  width=43   height=63   xoffset=0    yoffset=19   xadvance=45   page=0    chnl=0 
char id=51      x=24   y=152  width=37   height=65   xoffset=2    yoffset=19   xadvance=45   page=0    chnl=0 
char id=52      x=70   y=281  width=43   height=63   xoffset=0    yoffset=19   xadvance=45   page=0    chnl=0 
char id=53      x=471  y=152  width=38   height=64   xoffset=3    yoffset=20   xadvance=45   page=0    chnl=0 
char id=54      x=61   y=152  width=41   height=65   xoffset=2    yoffset=19   xadvance=45   page=0    chnl=0 
char id=55      x=286  y=217  width=41   height=64   xoffset=2    yoffset=20   xadvance=45   page=0    chnl=0 
char id=56      x=102  y=152  width=37   height=65   xoffset=4    yoffset=19   xadvance=45   page=0    chnl=0 
char id=57      x=139  y=152  width=41   height=65   xoffset=2    yoffset=19   xadvance=45   page=0    chnl=0 
char id=58      x=484  y=344  width=13   height=46   xoffset=6    yoffset=38   xadvance=25   page=0    chnl=0 
char id=59      x=495  y=281  width=16   height=59   xoffset=5    yoffset=38   xadvance=25   page=0    chnl=0 
char id=60      x=223  y=406  width=50   height=46   xoffset=0    yoffset=28   xadvance=51   page=0    chnl=0 
char id=61      x=362  y=463  width=51   height=21   xoffset=0    yoffset=41   xadvance=51   page=0    chnl=0 
char id=62      x=273  y=406  width=50   height=46   xoffset=0    yoffset=28   xadvance=51   page=0    chnl=0 
char id=63      x=221  y=152  width=35   height=65   xoffset=3    yoffset=19   xadvance=40   page=0    chnl=0 
char id=64      x=148  y=0    width=79   height=85   xoffset=3    yoffset=17   xadvance=83   page=0    chnl=0 
char id=65      x=327  y=217  width=66   height=63   xoffset=-1   yoffset=19   xadvance=65   page=0    chnl=0 
char id=66      x=113  y=281  width=57   height=62   xoffset=0    yoffset=20   xadvance=60   page=0    chnl=0 
char id=67      x=99   y=85   width=56   height=65   xoffset=2    yoffset=19   xadvance=60   page=0    chnl=0 
char id=68      x=170  y=281  width=63   height=62   xoffset=0    yoffset=20   xadvance=65   page=0    chnl=0 
char id=69      x=233  y=281  width=54   height=62   xoffset=0    yoffset=20   xadvance=55   page=0    chnl=0 
char id=70      x=287  y=281  width=48   height=62   xoffset=0    yoffset=20   xadvance=50   page=0    chnl=0 
char id=71      x=155  y=85   width=63   height=65   xoffset=2    yoffset=19   xadvance=65   page=0    chnl=0 
char id=72      x=335  y=281  width=65   height=62   xoffset=0    yoffset=20   xadvance=65   page=0    chnl=0 
char id=73      x=400  y=281  width=28   height=62   xoffset=1    yoffset=20   xadvance=30   page=0    chnl=0 
char id=74      x=368  y=152  width=36   height=64   xoffset=0    yoffset=20   xadvance=35   page=0    chnl=0 
char id=75      x=428  y=281  width=67   height=62   xoffset=0    yoffset=20   xadvance=65   page=0    chnl=0 
char id=76      x=0    y=344  width=55   height=62   xoffset=0    yoffset=20   xadvance=55   page=0    chnl=0 
char id=77      x=55   y=344  width=80   height=62   xoffset=0    yoffset=20   xadvance=80   page=0    chnl=0 
char id=78      x=393  y=217  width=69   height=63   xoffset=-3   yoffset=20   xadvance=65   page=0    chnl=0 
char id=79      x=218  y=85   width=61   height=65   xoffset=2    yoffset=19   xadvance=65   page=0    chnl=0 
char id=80      x=135  y=344  width=48   height=62   xoffset=0    yoffset=20   xadvance=50   page=0    chnl=0 
char id=81      x=227  y=0    width=61   height=81   xoffset=2    yoffset=19   xadvance=65   page=0    chnl=0 
char id=82      x=183  y=344  width=62   height=62   xoffset=0    yoffset=20   xadvance=60   page=0    chnl=0 
char id=83      x=279  y=85   width=43   height=65   xoffset=4    yoffset=19   xadvance=50   page=0    chnl=0 
char id=84      x=245  y=344  width=53   height=62   xoffset=1    yoffset=20   xadvance=55   page=0    chnl=0 
char id=85      x=404  y=152  width=67   height=64   xoffset=-1   yoffset=20   xadvance=65   page=0    chnl=0 
char id=86      x=0    y=217  width=66   height=64   xoffset=-1   yoffset=20   xadvance=65   page=0    chnl=0 
char id=87      x=66   y=217  width=86   height=64   xoffset=0    yoffset=20   xadvance=85   page=0    chnl=0 
char id=88      x=298  y=344  width=66   height=62   xoffset=-1   yoffset=20   xadvance=65   page=0    chnl=0 
char id=89      x=364  y=344  width=66   height=62   xoffset=-1   yoffset=20   xadvance=65   page=0    chnl=0 
char id=90      x=430  y=344  width=54   height=62   xoffset=0    yoffset=20   xadvance=55   page=0    chnl=0 
char id=91      x=288  y=0    width=22   height=81   xoffset=6    yoffset=19   xadvance=30   page=0    chnl=0 
char id=92      x=0    y=85   width=28   height=67   xoffset=-1   yoffset=17   xadvance=25   page=0    chnl=0 
char id=93      x=310  y=0    width=22   height=81   xoffset=2    yoffset=19   xadvance=30   page=0    chnl=0 
char id=94      x=292  y=463  width=42   height=34   xoffset=0    yoffset=19   xadvance=42   page=0    chnl=0 
char id=96      x=413  y=463  width=17   height=19   xoffset=4    yoffset=18   xadvance=30   page=0    chnl=0 
char id=97      x=323  y=406  width=39   height=45   xoffset=2    yoffset=38   xadvance=40   page=0    chnl=0 
char id=98      x=371  y=0    width=45   height=67   xoffset=-2   yoffset=17   xadvance=45   page=0    chnl=0 
char id=99      x=78   y=406  width=37   height=46   xoffset=2    yoffset=38   xadvance=40   page=0    chnl=0 
char id=100     x=416  y=0    width=46   height=67   xoffset=1    yoffset=17   xadvance=45   page=0    chnl=0 
char id=101     x=115  y=406  width=37   height=46   xoffset=2    yoffset=38   xadvance=40   page=0    chnl=0 
char id=102     x=322  y=85   width=48   height=65   xoffset=2    yoffset=17   xadvance=30   page=0    chnl=0 
char id=103     x=152  y=217  width=44   height=64   xoffset=1    yoffset=38   xadvance=45   page=0    chnl=0 
char id=104     x=370  y=85   width=47   height=65   xoffset=-1   yoffset=17   xadvance=45   page=0    chnl=0 
char id=105     x=417  y=85   width=23   height=65   xoffset=1    yoffset=17   xadvance=25   page=0    chnl=0 
char id=106     x=0    y=0    width=33   height=85   xoffset=-8   yoffset=17   xadvance=25   page=0    chnl=0 
char id=107     x=440  y=85   width=48   height=65   xoffset=-1   yoffset=17   xadvance=45   page=0    chnl=0 
char id=108     x=0    y=152  width=24   height=65   xoffset=1    yoffset=17   xadvance=25   page=0    chnl=0 
char id=109     x=67   y=463  width=72   height=44   xoffset=-1   yoffset=38   xadvance=70   page=0    chnl=0 
char id=110     x=456  y=406  width=47   height=44   xoffset=-1   yoffset=38   xadvance=45   page=0    chnl=0 
char id=111     x=152  y=406  width=41   height=46   xoffset=2    yoffset=38   xadvance=45   page=0    chnl=0 
char id=112     x=196  y=217  width=45   height=64   xoffset=-2   yoffset=38   xadvance=45   page=0    chnl=0 
char id=113     x=241  y=217  width=45   height=64   xoffset=1    yoffset=38   xadvance=45   page=0    chnl=0 
char id=114     x=139  y=463  width=33   height=44   xoffset=-1   yoffset=38   xadvance=30   page=0    chnl=0 
char id=115     x=193  y=406  width=30   height=46   xoffset=3    yoffset=38   xadvance=35   page=0    chnl=0 
char id=116     x=0    y=406  width=28   height=57   xoffset=-1   yoffset=26   xadvance=25   page=0    chnl=0 
char id=117     x=362  y=406  width=47   height=45   xoffset=-1   yoffset=39   xadvance=45   page=0    chnl=0 
char id=118     x=409  y=406  width=47   height=45   xoffset=-1   yoffset=39   xadvance=45   page=0    chnl=0 
char id=119     x=0    y=463  width=67   height=45   xoffset=-1   yoffset=39   xadvance=65   page=0    chnl=0 
char id=120     x=172  y=463  width=45   height=43   xoffset=0    yoffset=39   xadvance=45   page=0    chnl=0 
char id=121     x=462  y=217  width=47   height=63   xoffset=-1   yoffset=39   xadvance=45   page=0    chnl=0 
char id=122     x=217  y=463  width=40   height=43   xoffset=0    yoffset=39   xadvance=40   page=0    chnl=0 
char id=123     x=87   y=0    width=27   height=85   xoffset=11   yoffset=17   xadvance=43   page=0    chnl=0 
char id=124     x=142  y=0    width=6    height=85   xoffset=6    yoffset=17   xadvance=18   page=0    chnl=0 
char id=125     x=114  y=0    width=28   height=85   xoffset=6    yoffset=17   xadvance=43   page=0    chnl=0 
char id=126     x=430  y=463  width=50   height=15   xoffset=-1   yoffset=50   xadvance=49   page=0    chnl=0 
char id=45      x=0    y=0    width=26   height=10   xoffset=2    yoffset=56   xadvance=30   page=1    chnl=0 
char id=95      x=26   y=0    width=49   height=7    xoffset=-2   yoffset=95   xadvance=45   page=1    chnl=0 
