info face="TimesNewRomanPSMT" size=114 bold=0 italic=0 charset="" unicode=0 stretchH=100 smooth=1 aa=1 padding=1,1,1,1 spacing=-2,-2
common lineHeight=132 base=102 scaleW=512 scaleH=512 pages=2 packed=0
page id=0 file="b_cert_1141.png"
page id=1 file="b_cert_1142.png"
chars count=96
char id=10      x=0    y=0    width=0    height=0    xoffset=-1   yoffset=0    xadvance=0    page=0    chnl=0 
char id=32      x=0    y=0    width=0    height=0    xoffset=-1   yoffset=0    xadvance=29   page=0    chnl=0 
char id=33      x=492  y=107  width=16   height=82   xoffset=11   yoffset=23   xadvance=38   page=0    chnl=0 
char id=35      x=44   y=273  width=55   height=82   xoffset=1    yoffset=23   xadvance=57   page=0    chnl=0 
char id=36      x=416  y=0    width=48   height=93   xoffset=5    yoffset=19   xadvance=57   page=0    chnl=0 
char id=37      x=148  y=107  width=90   height=84   xoffset=3    yoffset=23   xadvance=95   page=0    chnl=0 
char id=38      x=99   y=273  width=84   height=82   xoffset=3    yoffset=23   xadvance=89   page=0    chnl=0 
char id=40      x=42   y=0    width=34   height=107  xoffset=3    yoffset=21   xadvance=38   page=0    chnl=0 
char id=41      x=76   y=0    width=34   height=107  xoffset=1    yoffset=21   xadvance=38   page=0    chnl=0 
char id=43      x=33   y=435  width=63   height=63   xoffset=1    yoffset=33   xadvance=64   page=0    chnl=0 
char id=47      x=464  y=0    width=34   height=84   xoffset=-1   yoffset=21   xadvance=32   page=0    chnl=0 
char id=48      x=455  y=191  width=51   height=82   xoffset=3    yoffset=23   xadvance=57   page=0    chnl=0 
char id=49      x=357  y=355  width=33   height=80   xoffset=12   yoffset=23   xadvance=57   page=0    chnl=0 
char id=50      x=390  y=355  width=53   height=80   xoffset=1    yoffset=23   xadvance=57   page=0    chnl=0 
char id=51      x=260  y=191  width=46   height=82   xoffset=3    yoffset=23   xadvance=57   page=0    chnl=0 
char id=52      x=443  y=355  width=55   height=80   xoffset=0    yoffset=23   xadvance=57   page=0    chnl=0 
char id=54      x=306  y=191  width=51   height=82   xoffset=3    yoffset=23   xadvance=57   page=0    chnl=0 
char id=56      x=357  y=191  width=47   height=82   xoffset=5    yoffset=23   xadvance=57   page=0    chnl=0 
char id=57      x=404  y=191  width=51   height=82   xoffset=3    yoffset=23   xadvance=57   page=0    chnl=0 
char id=58      x=452  y=435  width=16   height=57   xoffset=8    yoffset=48   xadvance=32   page=0    chnl=0 
char id=59      x=481  y=273  width=20   height=74   xoffset=6    yoffset=48   xadvance=32   page=0    chnl=0 
char id=60      x=96   y=435  width=62   height=58   xoffset=1    yoffset=35   xadvance=64   page=0    chnl=0 
char id=62      x=158  y=435  width=62   height=58   xoffset=1    yoffset=35   xadvance=64   page=0    chnl=0 
char id=63      x=0    y=273  width=44   height=82   xoffset=4    yoffset=23   xadvance=51   page=0    chnl=0 
char id=64      x=186  y=0    width=100  height=107  xoffset=4    yoffset=21   xadvance=105  page=0    chnl=0 
char id=65      x=183  y=273  width=84   height=80   xoffset=-1   yoffset=23   xadvance=82   page=0    chnl=0 
char id=67      x=238  y=107  width=71   height=82   xoffset=3    yoffset=23   xadvance=76   page=0    chnl=0 
char id=71      x=309  y=107  width=79   height=82   xoffset=3    yoffset=23   xadvance=82   page=0    chnl=0 
char id=74      x=267  y=273  width=44   height=80   xoffset=1    yoffset=25   xadvance=44   page=0    chnl=0 
char id=78      x=311  y=273  width=86   height=80   xoffset=-3   yoffset=25   xadvance=82   page=0    chnl=0 
char id=79      x=388  y=107  width=76   height=82   xoffset=3    yoffset=23   xadvance=82   page=0    chnl=0 
char id=81      x=286  y=0    width=76   height=103  xoffset=3    yoffset=23   xadvance=82   page=0    chnl=0 
char id=83      x=0    y=191  width=53   height=82   xoffset=6    yoffset=23   xadvance=63   page=0    chnl=0 
char id=85      x=397  y=273  width=84   height=80   xoffset=-1   yoffset=25   xadvance=82   page=0    chnl=0 
char id=86      x=0    y=355  width=82   height=80   xoffset=0    yoffset=25   xadvance=82   page=0    chnl=0 
char id=87      x=82   y=355  width=108  height=80   xoffset=0    yoffset=25   xadvance=108  page=0    chnl=0 
char id=91      x=362  y=0    width=27   height=103  xoffset=8    yoffset=23   xadvance=38   page=0    chnl=0 
char id=92      x=114  y=107  width=34   height=84   xoffset=-1   yoffset=21   xadvance=32   page=0    chnl=0 
char id=93      x=389  y=0    width=27   height=103  xoffset=3    yoffset=23   xadvance=38   page=0    chnl=0 
char id=97      x=220  y=435  width=49   height=57   xoffset=3    yoffset=48   xadvance=51   page=0    chnl=0 
char id=98      x=0    y=107  width=57   height=84   xoffset=-2   yoffset=21   xadvance=57   page=0    chnl=0 
char id=99      x=269  y=435  width=46   height=57   xoffset=2    yoffset=48   xadvance=51   page=0    chnl=0 
char id=100     x=57   y=107  width=57   height=84   xoffset=2    yoffset=21   xadvance=57   page=0    chnl=0 
char id=101     x=315  y=435  width=46   height=57   xoffset=3    yoffset=48   xadvance=51   page=0    chnl=0 
char id=102     x=53   y=191  width=59   height=82   xoffset=3    yoffset=21   xadvance=38   page=0    chnl=0 
char id=103     x=190  y=355  width=54   height=80   xoffset=2    yoffset=48   xadvance=57   page=0    chnl=0 
char id=104     x=112  y=191  width=59   height=82   xoffset=-1   yoffset=21   xadvance=57   page=0    chnl=0 
char id=105     x=464  y=107  width=28   height=82   xoffset=2    yoffset=21   xadvance=32   page=0    chnl=0 
char id=106     x=0    y=0    width=42   height=107  xoffset=-10  yoffset=21   xadvance=32   page=0    chnl=0 
char id=107     x=171  y=191  width=60   height=82   xoffset=-1   yoffset=21   xadvance=57   page=0    chnl=0 
char id=108     x=231  y=191  width=29   height=82   xoffset=2    yoffset=21   xadvance=32   page=0    chnl=0 
char id=111     x=361  y=435  width=53   height=57   xoffset=2    yoffset=48   xadvance=57   page=0    chnl=0 
char id=112     x=244  y=355  width=57   height=80   xoffset=-2   yoffset=48   xadvance=57   page=0    chnl=0 
char id=113     x=301  y=355  width=56   height=80   xoffset=2    yoffset=48   xadvance=57   page=0    chnl=0 
char id=114     x=468  y=435  width=41   height=55   xoffset=-1   yoffset=48   xadvance=38   page=0    chnl=0 
char id=115     x=414  y=435  width=38   height=57   xoffset=4    yoffset=48   xadvance=44   page=0    chnl=0 
char id=116     x=0    y=435  width=33   height=71   xoffset=0    yoffset=33   xadvance=32   page=0    chnl=0 
char id=123     x=110  y=0    width=34   height=107  xoffset=14   yoffset=21   xadvance=55   page=0    chnl=0 
char id=124     x=178  y=0    width=8    height=107  xoffset=7    yoffset=21   xadvance=23   page=0    chnl=0 
char id=125     x=144  y=0    width=34   height=107  xoffset=8    yoffset=21   xadvance=55   page=0    chnl=0 
char id=34      x=294  y=236  width=34   height=36   xoffset=6    yoffset=23   xadvance=47   page=1    chnl=0 
char id=39      x=492  y=0    width=14   height=36   xoffset=3    yoffset=23   xadvance=21   page=1    chnl=0 
char id=42      x=199  y=236  width=43   height=50   xoffset=7    yoffset=21   xadvance=57   page=1    chnl=0 
char id=44      x=328  y=236  width=19   height=33   xoffset=5    yoffset=89   xadvance=29   page=1    chnl=0 
char id=45      x=0    y=291  width=32   height=11   xoffset=3    yoffset=71   xadvance=38   page=1    chnl=0 
char id=46      x=493  y=236  width=15   height=15   xoffset=7    yoffset=90   xadvance=29   page=1    chnl=0 
char id=53      x=0    y=0    width=47   height=80   xoffset=4    yoffset=25   xadvance=57   page=1    chnl=0 
char id=55      x=47   y=0    width=50   height=80   xoffset=3    yoffset=25   xadvance=57   page=1    chnl=0 
char id=61      x=347  y=236  width=63   height=26   xoffset=1    yoffset=51   xadvance=64   page=1    chnl=0 
char id=66      x=97   y=0    width=71   height=78   xoffset=0    yoffset=25   xadvance=76   page=1    chnl=0 
char id=68      x=168  y=0    width=79   height=78   xoffset=0    yoffset=25   xadvance=82   page=1    chnl=0 
char id=69      x=247  y=0    width=68   height=78   xoffset=1    yoffset=25   xadvance=70   page=1    chnl=0 
char id=70      x=315  y=0    width=60   height=78   xoffset=0    yoffset=25   xadvance=63   page=1    chnl=0 
char id=72      x=375  y=0    width=81   height=78   xoffset=0    yoffset=25   xadvance=82   page=1    chnl=0 
char id=73      x=456  y=0    width=36   height=78   xoffset=1    yoffset=25   xadvance=38   page=1    chnl=0 
char id=75      x=0    y=80   width=86   height=78   xoffset=0    yoffset=25   xadvance=82   page=1    chnl=0 
char id=76      x=86   y=80   width=68   height=78   xoffset=1    yoffset=25   xadvance=70   page=1    chnl=0 
char id=77      x=154  y=80   width=100  height=78   xoffset=0    yoffset=25   xadvance=101  page=1    chnl=0 
char id=80      x=254  y=80   width=61   height=78   xoffset=0    yoffset=25   xadvance=63   page=1    chnl=0 
char id=82      x=315  y=80   width=80   height=78   xoffset=0    yoffset=25   xadvance=76   page=1    chnl=0 
char id=84      x=395  y=80   width=66   height=78   xoffset=2    yoffset=25   xadvance=70   page=1    chnl=0 
char id=88      x=0    y=158  width=83   height=78   xoffset=-1   yoffset=25   xadvance=82   page=1    chnl=0 
char id=89      x=83   y=158  width=82   height=78   xoffset=0    yoffset=25   xadvance=82   page=1    chnl=0 
char id=90      x=165  y=158  width=68   height=78   xoffset=0    yoffset=25   xadvance=70   page=1    chnl=0 
char id=94      x=242  y=236  width=52   height=43   xoffset=1    yoffset=23   xadvance=53   page=1    chnl=0 
char id=95      x=32   y=291  width=63   height=8    xoffset=-2   yoffset=120  xadvance=57   page=1    chnl=0 
char id=96      x=410  y=236  width=21   height=22   xoffset=5    yoffset=23   xadvance=38   page=1    chnl=0 
char id=109     x=292  y=158  width=91   height=55   xoffset=-1   yoffset=48   xadvance=89   page=1    chnl=0 
char id=110     x=383  y=158  width=59   height=55   xoffset=-1   yoffset=48   xadvance=57   page=1    chnl=0 
char id=117     x=442  y=158  width=59   height=55   xoffset=-1   yoffset=50   xadvance=57   page=1    chnl=0 
char id=118     x=0    y=236  width=58   height=55   xoffset=-1   yoffset=50   xadvance=57   page=1    chnl=0 
char id=119     x=58   y=236  width=84   height=55   xoffset=-1   yoffset=50   xadvance=82   page=1    chnl=0 
char id=120     x=142  y=236  width=57   height=53   xoffset=0    yoffset=50   xadvance=57   page=1    chnl=0 
char id=121     x=233  y=158  width=59   height=78   xoffset=-1   yoffset=50   xadvance=57   page=1    chnl=0 
char id=122     x=461  y=80   width=49   height=53   xoffset=1    yoffset=50   xadvance=51   page=1    chnl=0 
char id=126     x=431  y=236  width=62   height=18   xoffset=0    yoffset=63   xadvance=62   page=1    chnl=0 
