info face="TimesNewRomanPSMT" size=116 bold=0 italic=0 charset="" unicode=0 stretchH=100 smooth=1 aa=1 padding=1,1,1,1 spacing=-2,-2
common lineHeight=134 base=104 scaleW=512 scaleH=512 pages=2 packed=0
page id=0 file="b_cert_1161.png"
page id=1 file="b_cert_1162.png"
chars count=96
char id=10      x=0    y=0    width=0    height=0    xoffset=-1   yoffset=0    xadvance=0    page=0    chnl=0 
char id=32      x=0    y=0    width=0    height=0    xoffset=-1   yoffset=0    xadvance=29   page=0    chnl=0 
char id=33      x=462  y=194  width=16   height=83   xoffset=11   yoffset=24   xadvance=39   page=0    chnl=0 
char id=35      x=96   y=277  width=56   height=83   xoffset=1    yoffset=24   xadvance=58   page=0    chnl=0 
char id=36      x=421  y=0    width=49   height=95   xoffset=5    yoffset=19   xadvance=58   page=0    chnl=0 
char id=37      x=150  y=109  width=91   height=85   xoffset=3    yoffset=24   xadvance=97   page=0    chnl=0 
char id=38      x=152  y=277  width=85   height=83   xoffset=3    yoffset=24   xadvance=90   page=0    chnl=0 
char id=40      x=218  y=0    width=35   height=108  xoffset=3    yoffset=22   xadvance=39   page=0    chnl=0 
char id=41      x=253  y=0    width=34   height=108  xoffset=1    yoffset=22   xadvance=39   page=0    chnl=0 
char id=43      x=0    y=441  width=64   height=65   xoffset=1    yoffset=33   xadvance=65   page=0    chnl=0 
char id=47      x=470  y=0    width=35   height=85   xoffset=-1   yoffset=22   xadvance=32   page=0    chnl=0 
char id=48      x=0    y=277  width=52   height=83   xoffset=3    yoffset=24   xadvance=58   page=0    chnl=0 
char id=49      x=478  y=194  width=33   height=81   xoffset=12   yoffset=24   xadvance=58   page=0    chnl=0 
char id=50      x=394  y=360  width=54   height=81   xoffset=1    yoffset=24   xadvance=58   page=0    chnl=0 
char id=51      x=264  y=194  width=47   height=83   xoffset=3    yoffset=24   xadvance=58   page=0    chnl=0 
char id=52      x=448  y=360  width=55   height=81   xoffset=0    yoffset=24   xadvance=58   page=0    chnl=0 
char id=54      x=311  y=194  width=52   height=83   xoffset=3    yoffset=24   xadvance=58   page=0    chnl=0 
char id=56      x=363  y=194  width=47   height=83   xoffset=6    yoffset=24   xadvance=58   page=0    chnl=0 
char id=57      x=410  y=194  width=52   height=83   xoffset=3    yoffset=24   xadvance=58   page=0    chnl=0 
char id=58      x=428  y=441  width=16   height=58   xoffset=8    yoffset=49   xadvance=32   page=0    chnl=0 
char id=60      x=64   y=441  width=64   height=59   xoffset=1    yoffset=36   xadvance=65   page=0    chnl=0 
char id=62      x=128  y=441  width=64   height=59   xoffset=1    yoffset=36   xadvance=65   page=0    chnl=0 
char id=63      x=52   y=277  width=44   height=83   xoffset=4    yoffset=24   xadvance=51   page=0    chnl=0 
char id=64      x=117  y=0    width=101  height=109  xoffset=4    yoffset=22   xadvance=107  page=0    chnl=0 
char id=65      x=292  y=277  width=85   height=81   xoffset=-1   yoffset=24   xadvance=84   page=0    chnl=0 
char id=67      x=241  y=109  width=72   height=83   xoffset=3    yoffset=24   xadvance=77   page=0    chnl=0 
char id=71      x=313  y=109  width=81   height=83   xoffset=3    yoffset=24   xadvance=84   page=0    chnl=0 
char id=74      x=377  y=277  width=45   height=81   xoffset=1    yoffset=26   xadvance=45   page=0    chnl=0 
char id=78      x=422  y=277  width=88   height=81   xoffset=-3   yoffset=26   xadvance=84   page=0    chnl=0 
char id=79      x=394  y=109  width=78   height=83   xoffset=3    yoffset=24   xadvance=84   page=0    chnl=0 
char id=81      x=315  y=0    width=78   height=104  xoffset=3    yoffset=24   xadvance=84   page=0    chnl=0 
char id=83      x=0    y=194  width=54   height=83   xoffset=6    yoffset=24   xadvance=65   page=0    chnl=0 
char id=85      x=0    y=360  width=85   height=81   xoffset=-1   yoffset=26   xadvance=84   page=0    chnl=0 
char id=86      x=85   y=360  width=84   height=81   xoffset=0    yoffset=26   xadvance=84   page=0    chnl=0 
char id=87      x=169  y=360  width=110  height=81   xoffset=0    yoffset=26   xadvance=109  page=0    chnl=0 
char id=91      x=393  y=0    width=28   height=104  xoffset=8    yoffset=24   xadvance=39   page=0    chnl=0 
char id=92      x=115  y=109  width=35   height=85   xoffset=-1   yoffset=22   xadvance=32   page=0    chnl=0 
char id=93      x=287  y=0    width=28   height=105  xoffset=3    yoffset=24   xadvance=39   page=0    chnl=0 
char id=97      x=192  y=441  width=50   height=58   xoffset=3    yoffset=49   xadvance=51   page=0    chnl=0 
char id=98      x=0    y=109  width=57   height=85   xoffset=-2   yoffset=22   xadvance=58   page=0    chnl=0 
char id=99      x=242  y=441  width=47   height=58   xoffset=2    yoffset=49   xadvance=51   page=0    chnl=0 
char id=100     x=57   y=109  width=58   height=85   xoffset=2    yoffset=22   xadvance=58   page=0    chnl=0 
char id=101     x=289  y=441  width=47   height=58   xoffset=3    yoffset=49   xadvance=51   page=0    chnl=0 
char id=102     x=54   y=194  width=60   height=83   xoffset=3    yoffset=22   xadvance=39   page=0    chnl=0 
char id=103     x=237  y=277  width=55   height=82   xoffset=2    yoffset=49   xadvance=58   page=0    chnl=0 
char id=104     x=114  y=194  width=60   height=83   xoffset=-1   yoffset=22   xadvance=58   page=0    chnl=0 
char id=105     x=472  y=109  width=29   height=83   xoffset=2    yoffset=22   xadvance=32   page=0    chnl=0 
char id=106     x=0    y=0    width=42   height=109  xoffset=-10  yoffset=22   xadvance=32   page=0    chnl=0 
char id=107     x=174  y=194  width=61   height=83   xoffset=-1   yoffset=22   xadvance=58   page=0    chnl=0 
char id=108     x=235  y=194  width=29   height=83   xoffset=2    yoffset=22   xadvance=32   page=0    chnl=0 
char id=110     x=444  y=441  width=60   height=56   xoffset=-1   yoffset=49   xadvance=58   page=0    chnl=0 
char id=111     x=336  y=441  width=53   height=58   xoffset=2    yoffset=49   xadvance=58   page=0    chnl=0 
char id=112     x=279  y=360  width=58   height=81   xoffset=-2   yoffset=49   xadvance=58   page=0    chnl=0 
char id=113     x=337  y=360  width=57   height=81   xoffset=2    yoffset=49   xadvance=58   page=0    chnl=0 
char id=115     x=389  y=441  width=39   height=58   xoffset=4    yoffset=49   xadvance=45   page=0    chnl=0 
char id=123     x=42   y=0    width=34   height=109  xoffset=15   yoffset=22   xadvance=56   page=0    chnl=0 
char id=124     x=110  y=0    width=7    height=109  xoffset=8    yoffset=22   xadvance=23   page=0    chnl=0 
char id=125     x=76   y=0    width=34   height=109  xoffset=9    yoffset=22   xadvance=56   page=0    chnl=0 
char id=34      x=473  y=160  width=35   height=36   xoffset=6    yoffset=24   xadvance=47   page=1    chnl=0 
char id=39      x=479  y=0    width=14   height=36   xoffset=3    yoffset=24   xadvance=21   page=1    chnl=0 
char id=42      x=312  y=239  width=44   height=50   xoffset=7    yoffset=22   xadvance=58   page=1    chnl=0 
char id=44      x=409  y=239  width=20   height=34   xoffset=5    yoffset=91   xadvance=29   page=1    chnl=0 
char id=45      x=85   y=295  width=32   height=12   xoffset=3    yoffset=72   xadvance=39   page=1    chnl=0 
char id=46      x=493  y=239  width=15   height=15   xoffset=7    yoffset=92   xadvance=29   page=1    chnl=0 
char id=53      x=0    y=0    width=48   height=81   xoffset=4    yoffset=26   xadvance=58   page=1    chnl=0 
char id=55      x=48   y=0    width=51   height=81   xoffset=3    yoffset=26   xadvance=58   page=1    chnl=0 
char id=59      x=483  y=81   width=19   height=76   xoffset=7    yoffset=49   xadvance=32   page=1    chnl=0 
char id=61      x=429  y=239  width=64   height=27   xoffset=1    yoffset=52   xadvance=65   page=1    chnl=0 
char id=66      x=159  y=0    width=73   height=79   xoffset=0    yoffset=26   xadvance=77   page=1    chnl=0 
char id=68      x=232  y=0    width=81   height=79   xoffset=0    yoffset=26   xadvance=84   page=1    chnl=0 
char id=69      x=313  y=0    width=69   height=79   xoffset=1    yoffset=26   xadvance=71   page=1    chnl=0 
char id=70      x=382  y=0    width=61   height=79   xoffset=0    yoffset=26   xadvance=65   page=1    chnl=0 
char id=72      x=0    y=81   width=83   height=79   xoffset=0    yoffset=26   xadvance=84   page=1    chnl=0 
char id=73      x=443  y=0    width=36   height=79   xoffset=1    yoffset=26   xadvance=39   page=1    chnl=0 
char id=75      x=83   y=81   width=86   height=79   xoffset=0    yoffset=26   xadvance=84   page=1    chnl=0 
char id=76      x=169  y=81   width=69   height=79   xoffset=1    yoffset=26   xadvance=71   page=1    chnl=0 
char id=77      x=238  y=81   width=102  height=79   xoffset=0    yoffset=26   xadvance=103  page=1    chnl=0 
char id=80      x=340  y=81   width=62   height=79   xoffset=0    yoffset=26   xadvance=65   page=1    chnl=0 
char id=82      x=402  y=81   width=81   height=79   xoffset=0    yoffset=26   xadvance=77   page=1    chnl=0 
char id=84      x=0    y=160  width=67   height=79   xoffset=2    yoffset=26   xadvance=71   page=1    chnl=0 
char id=88      x=67   y=160  width=85   height=79   xoffset=-1   yoffset=26   xadvance=84   page=1    chnl=0 
char id=89      x=152  y=160  width=84   height=79   xoffset=0    yoffset=26   xadvance=84   page=1    chnl=0 
char id=90      x=236  y=160  width=69   height=79   xoffset=0    yoffset=26   xadvance=71   page=1    chnl=0 
char id=94      x=356  y=239  width=53   height=44   xoffset=1    yoffset=24   xadvance=54   page=1    chnl=0 
char id=95      x=117  y=295  width=64   height=8    xoffset=-2   yoffset=123  xadvance=58   page=1    chnl=0 
char id=96      x=0    y=295  width=22   height=22   xoffset=5    yoffset=24   xadvance=39   page=1    chnl=0 
char id=109     x=339  y=160  width=92   height=56   xoffset=-1   yoffset=49   xadvance=90   page=1    chnl=0 
char id=114     x=431  y=160  width=42   height=56   xoffset=-1   yoffset=49   xadvance=39   page=1    chnl=0 
char id=116     x=305  y=160  width=34   height=72   xoffset=0    yoffset=34   xadvance=32   page=1    chnl=0 
char id=117     x=0    y=239  width=60   height=56   xoffset=-1   yoffset=51   xadvance=58   page=1    chnl=0 
char id=118     x=60   y=239  width=59   height=56   xoffset=-1   yoffset=51   xadvance=58   page=1    chnl=0 
char id=119     x=119  y=239  width=85   height=56   xoffset=-1   yoffset=51   xadvance=84   page=1    chnl=0 
char id=120     x=204  y=239  width=58   height=54   xoffset=0    yoffset=51   xadvance=58   page=1    chnl=0 
char id=121     x=99   y=0    width=60   height=80   xoffset=-1   yoffset=51   xadvance=58   page=1    chnl=0 
char id=122     x=262  y=239  width=50   height=54   xoffset=1    yoffset=51   xadvance=51   page=1    chnl=0 
char id=126     x=22   y=295  width=63   height=19   xoffset=0    yoffset=64   xadvance=63   page=1    chnl=0 
