info face="TimesNewRomanPSMT" size=94 bold=0 italic=0 charset="" unicode=0 stretchH=100 smooth=1 aa=1 padding=1,1,1,1 spacing=-2,-2
common lineHeight=109 base=84 scaleW=512 scaleH=512 pages=2 packed=0
page id=0 file="b_cert_941.png"
page id=1 file="b_cert_942.png"
chars count=96
char id=10      x=0    y=0    width=0    height=0    xoffset=-1   yoffset=0    xadvance=0    page=0    chnl=0 
char id=32      x=0    y=0    width=0    height=0    xoffset=-1   yoffset=0    xadvance=24   page=0    chnl=0 
char id=33      x=490  y=89   width=13   height=68   xoffset=9    yoffset=19   xadvance=31   page=0    chnl=0 
char id=35      x=291  y=159  width=47   height=68   xoffset=0    yoffset=19   xadvance=47   page=0    chnl=0 
char id=36      x=350  y=0    width=41   height=78   xoffset=3    yoffset=15   xadvance=47   page=0    chnl=0 
char id=37      x=58   y=89   width=75   height=69   xoffset=2    yoffset=19   xadvance=78   page=0    chnl=0 
char id=38      x=338  y=159  width=70   height=68   xoffset=2    yoffset=19   xadvance=73   page=0    chnl=0 
char id=39      x=492  y=159  width=12   height=30   xoffset=2    yoffset=19   xadvance=17   page=0    chnl=0 
char id=40      x=36   y=0    width=29   height=89   xoffset=2    yoffset=17   xadvance=31   page=0    chnl=0 
char id=41      x=65   y=0    width=28   height=89   xoffset=1    yoffset=17   xadvance=31   page=0    chnl=0 
char id=43      x=154  y=425  width=53   height=52   xoffset=0    yoffset=27   xadvance=53   page=0    chnl=0 
char id=45      x=83   y=490  width=27   height=10   xoffset=2    yoffset=58   xadvance=31   page=0    chnl=0 
char id=46      x=70   y=490  width=13   height=13   xoffset=5    yoffset=74   xadvance=24   page=0    chnl=0 
char id=47      x=0    y=89   width=29   height=70   xoffset=-1   yoffset=17   xadvance=26   page=0    chnl=0 
char id=48      x=212  y=159  width=43   height=68   xoffset=2    yoffset=19   xadvance=47   page=0    chnl=0 
char id=49      x=473  y=227  width=27   height=66   xoffset=10   yoffset=19   xadvance=47   page=0    chnl=0 
char id=50      x=118  y=294  width=44   height=66   xoffset=1    yoffset=19   xadvance=47   page=0    chnl=0 
char id=51      x=50   y=159  width=39   height=68   xoffset=2    yoffset=19   xadvance=47   page=0    chnl=0 
char id=52      x=162  y=294  width=45   height=66   xoffset=0    yoffset=19   xadvance=47   page=0    chnl=0 
char id=53      x=392  y=227  width=39   height=67   xoffset=3    yoffset=20   xadvance=47   page=0    chnl=0 
char id=54      x=89   y=159  width=42   height=68   xoffset=3    yoffset=19   xadvance=47   page=0    chnl=0 
char id=55      x=431  y=227  width=42   height=67   xoffset=2    yoffset=20   xadvance=47   page=0    chnl=0 
char id=56      x=131  y=159  width=39   height=68   xoffset=4    yoffset=19   xadvance=47   page=0    chnl=0 
char id=57      x=170  y=159  width=42   height=68   xoffset=2    yoffset=19   xadvance=47   page=0    chnl=0 
char id=58      x=497  y=360  width=13   height=48   xoffset=7    yoffset=39   xadvance=26   page=0    chnl=0 
char id=59      x=480  y=360  width=17   height=62   xoffset=5    yoffset=39   xadvance=26   page=0    chnl=0 
char id=60      x=359  y=425  width=53   height=48   xoffset=0    yoffset=29   xadvance=53   page=0    chnl=0 
char id=62      x=412  y=425  width=53   height=48   xoffset=0    yoffset=29   xadvance=53   page=0    chnl=0 
char id=63      x=255  y=159  width=36   height=68   xoffset=3    yoffset=19   xadvance=42   page=0    chnl=0 
char id=64      x=157  y=0    width=83   height=89   xoffset=3    yoffset=17   xadvance=87   page=0    chnl=0 
char id=65      x=0    y=294  width=69   height=66   xoffset=-1   yoffset=19   xadvance=68   page=0    chnl=0 
char id=66      x=207  y=294  width=59   height=65   xoffset=0    yoffset=20   xadvance=63   page=0    chnl=0 
char id=67      x=133  y=89   width=59   height=68   xoffset=2    yoffset=19   xadvance=63   page=0    chnl=0 
char id=68      x=266  y=294  width=66   height=65   xoffset=0    yoffset=20   xadvance=68   page=0    chnl=0 
char id=69      x=332  y=294  width=57   height=65   xoffset=0    yoffset=20   xadvance=57   page=0    chnl=0 
char id=70      x=389  y=294  width=50   height=65   xoffset=0    yoffset=20   xadvance=52   page=0    chnl=0 
char id=71      x=192  y=89   width=66   height=68   xoffset=2    yoffset=19   xadvance=68   page=0    chnl=0 
char id=72      x=439  y=294  width=67   height=65   xoffset=0    yoffset=20   xadvance=68   page=0    chnl=0 
char id=73      x=0    y=360  width=30   height=65   xoffset=1    yoffset=20   xadvance=31   page=0    chnl=0 
char id=74      x=408  y=159  width=38   height=67   xoffset=0    yoffset=20   xadvance=37   page=0    chnl=0 
char id=75      x=30   y=360  width=70   height=65   xoffset=0    yoffset=20   xadvance=68   page=0    chnl=0 
char id=76      x=100  y=360  width=57   height=65   xoffset=0    yoffset=20   xadvance=57   page=0    chnl=0 
char id=77      x=157  y=360  width=83   height=65   xoffset=0    yoffset=20   xadvance=84   page=0    chnl=0 
char id=78      x=0    y=227  width=72   height=67   xoffset=-3   yoffset=20   xadvance=68   page=0    chnl=0 
char id=79      x=258  y=89   width=64   height=68   xoffset=2    yoffset=19   xadvance=68   page=0    chnl=0 
char id=80      x=240  y=360  width=50   height=65   xoffset=0    yoffset=20   xadvance=52   page=0    chnl=0 
char id=81      x=240  y=0    width=64   height=85   xoffset=2    yoffset=19   xadvance=68   page=0    chnl=0 
char id=82      x=290  y=360  width=65   height=65   xoffset=0    yoffset=20   xadvance=63   page=0    chnl=0 
char id=83      x=322  y=89   width=45   height=68   xoffset=4    yoffset=19   xadvance=52   page=0    chnl=0 
char id=84      x=355  y=360  width=56   height=65   xoffset=1    yoffset=20   xadvance=57   page=0    chnl=0 
char id=85      x=72   y=227  width=69   height=67   xoffset=-1   yoffset=20   xadvance=68   page=0    chnl=0 
char id=86      x=141  y=227  width=69   height=67   xoffset=-1   yoffset=20   xadvance=68   page=0    chnl=0 
char id=87      x=210  y=227  width=89   height=67   xoffset=0    yoffset=20   xadvance=89   page=0    chnl=0 
char id=88      x=411  y=360  width=69   height=65   xoffset=-1   yoffset=20   xadvance=68   page=0    chnl=0 
char id=89      x=0    y=425  width=69   height=65   xoffset=-1   yoffset=20   xadvance=68   page=0    chnl=0 
char id=90      x=69   y=425  width=56   height=65   xoffset=0    yoffset=20   xadvance=57   page=0    chnl=0 
char id=91      x=304  y=0    width=23   height=85   xoffset=6    yoffset=19   xadvance=31   page=0    chnl=0 
char id=92      x=29   y=89   width=29   height=70   xoffset=-1   yoffset=17   xadvance=26   page=0    chnl=0 
char id=93      x=327  y=0    width=23   height=85   xoffset=2    yoffset=19   xadvance=31   page=0    chnl=0 
char id=95      x=110  y=490  width=51   height=7    xoffset=-2   yoffset=99   xadvance=47   page=0    chnl=0 
char id=96      x=0    y=490  width=18   height=19   xoffset=4    yoffset=19   xadvance=31   page=0    chnl=0 
char id=97      x=465  y=425  width=41   height=47   xoffset=2    yoffset=39   xadvance=42   page=0    chnl=0 
char id=98      x=391  y=0    width=47   height=70   xoffset=-2   yoffset=17   xadvance=47   page=0    chnl=0 
char id=99      x=207  y=425  width=38   height=48   xoffset=2    yoffset=39   xadvance=42   page=0    chnl=0 
char id=100     x=438  y=0    width=47   height=70   xoffset=2    yoffset=17   xadvance=47   page=0    chnl=0 
char id=101     x=245  y=425  width=39   height=48   xoffset=2    yoffset=39   xadvance=42   page=0    chnl=0 
char id=102     x=367  y=89   width=49   height=68   xoffset=2    yoffset=17   xadvance=31   page=0    chnl=0 
char id=103     x=446  y=159  width=46   height=67   xoffset=1    yoffset=39   xadvance=47   page=0    chnl=0 
char id=104     x=416  y=89   width=49   height=68   xoffset=-1   yoffset=17   xadvance=47   page=0    chnl=0 
char id=105     x=485  y=0    width=24   height=68   xoffset=1    yoffset=17   xadvance=26   page=0    chnl=0 
char id=106     x=0    y=0    width=36   height=89   xoffset=-9   yoffset=17   xadvance=26   page=0    chnl=0 
char id=107     x=0    y=159  width=50   height=68   xoffset=-1   yoffset=17   xadvance=47   page=0    chnl=0 
char id=108     x=465  y=89   width=25   height=68   xoffset=1    yoffset=17   xadvance=26   page=0    chnl=0 
char id=111     x=284  y=425  width=43   height=48   xoffset=2    yoffset=39   xadvance=47   page=0    chnl=0 
char id=112     x=299  y=227  width=47   height=67   xoffset=-2   yoffset=39   xadvance=47   page=0    chnl=0 
char id=113     x=346  y=227  width=46   height=67   xoffset=2    yoffset=39   xadvance=47   page=0    chnl=0 
char id=115     x=327  y=425  width=32   height=48   xoffset=3    yoffset=39   xadvance=37   page=0    chnl=0 
char id=116     x=125  y=425  width=29   height=59   xoffset=-1   yoffset=27   xadvance=26   page=0    chnl=0 
char id=121     x=69   y=294  width=49   height=66   xoffset=-1   yoffset=40   xadvance=47   page=0    chnl=0 
char id=123     x=93   y=0    width=29   height=89   xoffset=11   yoffset=17   xadvance=45   page=0    chnl=0 
char id=124     x=150  y=0    width=7    height=89   xoffset=6    yoffset=17   xadvance=19   page=0    chnl=0 
char id=125     x=122  y=0    width=28   height=89   xoffset=7    yoffset=17   xadvance=45   page=0    chnl=0 
char id=126     x=18   y=490  width=52   height=16   xoffset=-1   yoffset=51   xadvance=51   page=0    chnl=0 
char id=34      x=0    y=47   width=29   height=30   xoffset=5    yoffset=19   xadvance=38   page=1    chnl=0 
char id=42      x=415  y=0    width=37   height=41   xoffset=5    yoffset=17   xadvance=47   page=1    chnl=0 
char id=44      x=29   y=47   width=16   height=28   xoffset=4    yoffset=73   xadvance=24   page=1    chnl=0 
char id=61      x=45   y=47   width=53   height=22   xoffset=0    yoffset=42   xadvance=53   page=1    chnl=0 
char id=94      x=452  y=0    width=44   height=36   xoffset=0    yoffset=19   xadvance=44   page=1    chnl=0 
char id=109     x=168  y=0    width=75   height=46   xoffset=-1   yoffset=39   xadvance=73   page=1    chnl=0 
char id=110     x=243  y=0    width=49   height=46   xoffset=-1   yoffset=39   xadvance=47   page=1    chnl=0 
char id=114     x=292  y=0    width=34   height=46   xoffset=-1   yoffset=39   xadvance=31   page=1    chnl=0 
char id=117     x=0    y=0    width=49   height=47   xoffset=-1   yoffset=40   xadvance=47   page=1    chnl=0 
char id=118     x=49   y=0    width=49   height=47   xoffset=-1   yoffset=40   xadvance=47   page=1    chnl=0 
char id=119     x=98   y=0    width=70   height=47   xoffset=-1   yoffset=40   xadvance=68   page=1    chnl=0 
char id=120     x=326  y=0    width=47   height=45   xoffset=0    yoffset=40   xadvance=47   page=1    chnl=0 
char id=122     x=373  y=0    width=42   height=45   xoffset=0    yoffset=40   xadvance=42   page=1    chnl=0 
