info face="TimesNewRomanPSMT" size=110 bold=0 italic=0 charset="" unicode=0 stretchH=100 smooth=1 aa=1 padding=1,1,1,1 spacing=-2,-2
common lineHeight=127 base=98 scaleW=512 scaleH=512 pages=2 packed=0
page id=0 file="b_cert_1101.png"
page id=1 file="b_cert_1102.png"
chars count=96
char id=10      x=0    y=0    width=0    height=0    xoffset=-1   yoffset=0    xadvance=0    page=0    chnl=0 
char id=32      x=0    y=0    width=0    height=0    xoffset=-1   yoffset=0    xadvance=28   page=0    chnl=0 
char id=33      x=437  y=184  width=15   height=79   xoffset=11   yoffset=22   xadvance=37   page=0    chnl=0 
char id=35      x=0    y=263  width=55   height=79   xoffset=0    yoffset=22   xadvance=55   page=0    chnl=0 
char id=36      x=404  y=0    width=47   height=90   xoffset=4    yoffset=18   xadvance=55   page=0    chnl=0 
char id=37      x=121  y=103  width=87   height=81   xoffset=2    yoffset=22   xadvance=92   page=0    chnl=0 
char id=38      x=55   y=263  width=81   height=79   xoffset=3    yoffset=22   xadvance=86   page=0    chnl=0 
char id=39      x=495  y=184  width=14   height=34   xoffset=3    yoffset=22   xadvance=20   page=0    chnl=0 
char id=40      x=41   y=0    width=33   height=103  xoffset=3    yoffset=20   xadvance=37   page=0    chnl=0 
char id=41      x=74   y=0    width=33   height=103  xoffset=1    yoffset=20   xadvance=37   page=0    chnl=0 
char id=45      x=15   y=495  width=31   height=11   xoffset=3    yoffset=68   xadvance=37   page=0    chnl=0 
char id=46      x=0    y=495  width=15   height=15   xoffset=6    yoffset=86   xadvance=28   page=0    chnl=0 
char id=47      x=55   y=103  width=33   height=81   xoffset=-1   yoffset=20   xadvance=31   page=0    chnl=0 
char id=48      x=386  y=184  width=51   height=79   xoffset=2    yoffset=22   xadvance=55   page=0    chnl=0 
char id=49      x=266  y=342  width=32   height=77   xoffset=11   yoffset=22   xadvance=55   page=0    chnl=0 
char id=50      x=298  y=342  width=51   height=77   xoffset=1    yoffset=22   xadvance=55   page=0    chnl=0 
char id=51      x=199  y=184  width=44   height=79   xoffset=3    yoffset=22   xadvance=55   page=0    chnl=0 
char id=52      x=349  y=342  width=53   height=77   xoffset=0    yoffset=22   xadvance=55   page=0    chnl=0 
char id=53      x=402  y=342  width=45   height=77   xoffset=4    yoffset=24   xadvance=55   page=0    chnl=0 
char id=54      x=243  y=184  width=49   height=79   xoffset=3    yoffset=22   xadvance=55   page=0    chnl=0 
char id=55      x=447  y=342  width=49   height=77   xoffset=3    yoffset=24   xadvance=55   page=0    chnl=0 
char id=56      x=292  y=184  width=45   height=79   xoffset=5    yoffset=22   xadvance=55   page=0    chnl=0 
char id=57      x=337  y=184  width=49   height=79   xoffset=3    yoffset=22   xadvance=55   page=0    chnl=0 
char id=58      x=496  y=342  width=15   height=55   xoffset=8    yoffset=46   xadvance=31   page=0    chnl=0 
char id=63      x=452  y=184  width=43   height=79   xoffset=3    yoffset=22   xadvance=49   page=0    chnl=0 
char id=64      x=181  y=0    width=96   height=103  xoffset=4    yoffset=20   xadvance=101  page=0    chnl=0 
char id=65      x=136  y=263  width=81   height=77   xoffset=-1   yoffset=22   xadvance=79   page=0    chnl=0 
char id=66      x=57   y=419  width=69   height=75   xoffset=0    yoffset=24   xadvance=73   page=0    chnl=0 
char id=67      x=208  y=103  width=69   height=79   xoffset=2    yoffset=22   xadvance=73   page=0    chnl=0 
char id=68      x=126  y=419  width=77   height=75   xoffset=0    yoffset=24   xadvance=79   page=0    chnl=0 
char id=69      x=203  y=419  width=65   height=75   xoffset=1    yoffset=24   xadvance=67   page=0    chnl=0 
char id=70      x=268  y=419  width=58   height=75   xoffset=0    yoffset=24   xadvance=61   page=0    chnl=0 
char id=71      x=277  y=103  width=77   height=79   xoffset=2    yoffset=22   xadvance=79   page=0    chnl=0 
char id=72      x=326  y=419  width=79   height=75   xoffset=0    yoffset=24   xadvance=79   page=0    chnl=0 
char id=73      x=405  y=419  width=34   height=75   xoffset=1    yoffset=24   xadvance=37   page=0    chnl=0 
char id=74      x=217  y=263  width=43   height=77   xoffset=1    yoffset=24   xadvance=43   page=0    chnl=0 
char id=76      x=439  y=419  width=65   height=75   xoffset=1    yoffset=24   xadvance=67   page=0    chnl=0 
char id=78      x=260  y=263  width=83   height=77   xoffset=-3   yoffset=24   xadvance=79   page=0    chnl=0 
char id=79      x=354  y=103  width=75   height=79   xoffset=2    yoffset=22   xadvance=79   page=0    chnl=0 
char id=81      x=277  y=0    width=75   height=99   xoffset=2    yoffset=22   xadvance=79   page=0    chnl=0 
char id=83      x=429  y=103  width=52   height=79   xoffset=5    yoffset=22   xadvance=61   page=0    chnl=0 
char id=85      x=343  y=263  width=81   height=77   xoffset=-1   yoffset=24   xadvance=79   page=0    chnl=0 
char id=86      x=424  y=263  width=81   height=77   xoffset=-1   yoffset=24   xadvance=79   page=0    chnl=0 
char id=87      x=0    y=342  width=104  height=77   xoffset=0    yoffset=24   xadvance=104  page=0    chnl=0 
char id=91      x=352  y=0    width=26   height=99   xoffset=8    yoffset=22   xadvance=37   page=0    chnl=0 
char id=92      x=88   y=103  width=33   height=81   xoffset=-1   yoffset=20   xadvance=31   page=0    chnl=0 
char id=93      x=378  y=0    width=26   height=99   xoffset=3    yoffset=22   xadvance=37   page=0    chnl=0 
char id=95      x=46   y=495  width=59   height=7    xoffset=-2   yoffset=116  xadvance=55   page=0    chnl=0 
char id=98      x=451  y=0    width=55   height=81   xoffset=-2   yoffset=20   xadvance=55   page=0    chnl=0 
char id=100     x=0    y=103  width=55   height=81   xoffset=2    yoffset=20   xadvance=55   page=0    chnl=0 
char id=102     x=0    y=184  width=56   height=79   xoffset=3    yoffset=20   xadvance=37   page=0    chnl=0 
char id=103     x=104  y=342  width=53   height=77   xoffset=2    yoffset=46   xadvance=55   page=0    chnl=0 
char id=104     x=56   y=184  width=57   height=79   xoffset=-1   yoffset=20   xadvance=55   page=0    chnl=0 
char id=105     x=481  y=103  width=27   height=79   xoffset=2    yoffset=20   xadvance=31   page=0    chnl=0 
char id=106     x=0    y=0    width=41   height=103  xoffset=-10  yoffset=20   xadvance=31   page=0    chnl=0 
char id=107     x=113  y=184  width=58   height=79   xoffset=-1   yoffset=20   xadvance=55   page=0    chnl=0 
char id=108     x=171  y=184  width=28   height=79   xoffset=2    yoffset=20   xadvance=31   page=0    chnl=0 
char id=112     x=157  y=342  width=55   height=77   xoffset=-2   yoffset=46   xadvance=55   page=0    chnl=0 
char id=113     x=212  y=342  width=54   height=77   xoffset=2    yoffset=46   xadvance=55   page=0    chnl=0 
char id=121     x=0    y=419  width=57   height=76   xoffset=-1   yoffset=47   xadvance=55   page=0    chnl=0 
char id=123     x=107  y=0    width=33   height=103  xoffset=14   yoffset=20   xadvance=53   page=0    chnl=0 
char id=124     x=173  y=0    width=8    height=103  xoffset=7    yoffset=20   xadvance=22   page=0    chnl=0 
char id=125     x=140  y=0    width=33   height=103  xoffset=8    yoffset=20   xadvance=53   page=0    chnl=0 
char id=34      x=149  y=205  width=33   height=34   xoffset=6    yoffset=22   xadvance=45   page=1    chnl=0 
char id=42      x=55   y=205  width=43   height=48   xoffset=6    yoffset=20   xadvance=55   page=1    chnl=0 
char id=43      x=177  y=75   width=61   height=61   xoffset=0    yoffset=31   xadvance=62   page=1    chnl=0 
char id=44      x=480  y=0    width=19   height=32   xoffset=4    yoffset=86   xadvance=28   page=1    chnl=0 
char id=59      x=461  y=0    width=19   height=72   xoffset=6    yoffset=46   xadvance=31   page=1    chnl=0 
char id=60      x=0    y=150  width=61   height=55   xoffset=0    yoffset=34   xadvance=62   page=1    chnl=0 
char id=61      x=182  y=205  width=61   height=25   xoffset=0    yoffset=49   xadvance=62   page=1    chnl=0 
char id=62      x=61   y=150  width=61   height=55   xoffset=0    yoffset=34   xadvance=62   page=1    chnl=0 
char id=75      x=0    y=0    width=83   height=75   xoffset=0    yoffset=24   xadvance=79   page=1    chnl=0 
char id=77      x=83   y=0    width=97   height=75   xoffset=0    yoffset=24   xadvance=98   page=1    chnl=0 
char id=80      x=180  y=0    width=59   height=75   xoffset=0    yoffset=24   xadvance=61   page=1    chnl=0 
char id=82      x=239  y=0    width=77   height=75   xoffset=0    yoffset=24   xadvance=73   page=1    chnl=0 
char id=84      x=316  y=0    width=64   height=75   xoffset=2    yoffset=24   xadvance=67   page=1    chnl=0 
char id=88      x=380  y=0    width=81   height=75   xoffset=-1   yoffset=24   xadvance=79   page=1    chnl=0 
char id=89      x=0    y=75   width=79   height=75   xoffset=0    yoffset=24   xadvance=79   page=1    chnl=0 
char id=90      x=79   y=75   width=66   height=75   xoffset=0    yoffset=24   xadvance=67   page=1    chnl=0 
char id=94      x=98   y=205  width=51   height=42   xoffset=0    yoffset=22   xadvance=52   page=1    chnl=0 
char id=96      x=243  y=205  width=21   height=21   xoffset=5    yoffset=22   xadvance=37   page=1    chnl=0 
char id=97      x=238  y=75   width=48   height=55   xoffset=2    yoffset=46   xadvance=49   page=1    chnl=0 
char id=99      x=286  y=75   width=45   height=55   xoffset=2    yoffset=46   xadvance=49   page=1    chnl=0 
char id=101     x=331  y=75   width=44   height=55   xoffset=3    yoffset=46   xadvance=49   page=1    chnl=0 
char id=109     x=316  y=150  width=88   height=53   xoffset=-1   yoffset=46   xadvance=86   page=1    chnl=0 
char id=110     x=404  y=150  width=57   height=53   xoffset=-1   yoffset=46   xadvance=55   page=1    chnl=0 
char id=111     x=375  y=75   width=51   height=55   xoffset=2    yoffset=46   xadvance=55   page=1    chnl=0 
char id=114     x=462  y=75   width=40   height=53   xoffset=-1   yoffset=46   xadvance=37   page=1    chnl=0 
char id=115     x=426  y=75   width=36   height=55   xoffset=4    yoffset=46   xadvance=43   page=1    chnl=0 
char id=116     x=145  y=75   width=32   height=69   xoffset=0    yoffset=31   xadvance=31   page=1    chnl=0 
char id=117     x=122  y=150  width=57   height=54   xoffset=-1   yoffset=47   xadvance=55   page=1    chnl=0 
char id=118     x=179  y=150  width=56   height=54   xoffset=-1   yoffset=47   xadvance=55   page=1    chnl=0 
char id=119     x=235  y=150  width=81   height=54   xoffset=-1   yoffset=47   xadvance=79   page=1    chnl=0 
char id=120     x=0    y=205  width=55   height=52   xoffset=0    yoffset=47   xadvance=55   page=1    chnl=0 
char id=122     x=461  y=150  width=48   height=52   xoffset=1    yoffset=47   xadvance=49   page=1    chnl=0 
char id=126     x=264  y=205  width=60   height=18   xoffset=0    yoffset=60   xadvance=60   page=1    chnl=0 
