info face="TimesNewRomanPSMT" size=76 bold=0 italic=0 charset="" unicode=0 stretchH=100 smooth=1 aa=1 padding=1,1,1,1 spacing=-2,-2
common lineHeight=88 base=68 scaleW=512 scaleH=512 pages=1 packed=0
page id=0 file="b_cert_76.png"
chars count=96
char id=10      x=0    y=0    width=0    height=0    xoffset=-1   yoffset=0    xadvance=0    page=0    chnl=0 
char id=32      x=0    y=0    width=0    height=0    xoffset=-1   yoffset=0    xadvance=19   page=0    chnl=0 
char id=33      x=226  y=72   width=11   height=56   xoffset=7    yoffset=15   xadvance=25   page=0    chnl=0 
char id=34      x=268  y=343  width=24   height=25   xoffset=3    yoffset=15   xadvance=31   page=0    chnl=0 
char id=35      x=267  y=72   width=38   height=56   xoffset=0    yoffset=15   xadvance=38   page=0    chnl=0 
char id=36      x=289  y=0    width=33   height=63   xoffset=3    yoffset=12   xadvance=38   page=0    chnl=0 
char id=37      x=448  y=0    width=61   height=57   xoffset=1    yoffset=15   xadvance=63   page=0    chnl=0 
char id=38      x=305  y=72   width=57   height=56   xoffset=1    yoffset=15   xadvance=59   page=0    chnl=0 
char id=39      x=490  y=290  width=10   height=25   xoffset=2    yoffset=15   xadvance=14   page=0    chnl=0 
char id=40      x=28   y=0    width=23   height=72   xoffset=2    yoffset=14   xadvance=25   page=0    chnl=0 
char id=41      x=51   y=0    width=24   height=72   xoffset=0    yoffset=14   xadvance=25   page=0    chnl=0 
char id=42      x=202  y=343  width=30   height=34   xoffset=4    yoffset=14   xadvance=38   page=0    chnl=0 
char id=43      x=64   y=290  width=43   height=43   xoffset=0    yoffset=21   xadvance=43   page=0    chnl=0 
char id=44      x=292  y=343  width=14   height=23   xoffset=3    yoffset=59   xadvance=19   page=0    chnl=0 
char id=45      x=407  y=343  width=22   height=8    xoffset=2    yoffset=47   xadvance=25   page=0    chnl=0 
char id=46      x=500  y=290  width=11   height=12   xoffset=4    yoffset=59   xadvance=19   page=0    chnl=0 
char id=47      x=400  y=0    width=24   height=57   xoffset=-1   yoffset=14   xadvance=21   page=0    chnl=0 
char id=48      x=369  y=128  width=36   height=55   xoffset=1    yoffset=15   xadvance=38   page=0    chnl=0 
char id=49      x=136  y=183  width=23   height=54   xoffset=7    yoffset=15   xadvance=38   page=0    chnl=0 
char id=50      x=159  y=183  width=36   height=54   xoffset=0    yoffset=15   xadvance=38   page=0    chnl=0 
char id=51      x=236  y=128  width=31   height=55   xoffset=2    yoffset=15   xadvance=38   page=0    chnl=0 
char id=52      x=195  y=183  width=37   height=54   xoffset=0    yoffset=15   xadvance=38   page=0    chnl=0 
char id=53      x=232  y=183  width=32   height=54   xoffset=2    yoffset=16   xadvance=38   page=0    chnl=0 
char id=54      x=267  y=128  width=35   height=55   xoffset=2    yoffset=15   xadvance=38   page=0    chnl=0 
char id=55      x=302  y=128  width=35   height=55   xoffset=1    yoffset=16   xadvance=38   page=0    chnl=0 
char id=56      x=337  y=128  width=32   height=55   xoffset=3    yoffset=15   xadvance=38   page=0    chnl=0 
char id=57      x=192  y=72   width=34   height=56   xoffset=2    yoffset=15   xadvance=38   page=0    chnl=0 
char id=58      x=499  y=128  width=11   height=40   xoffset=5    yoffset=31   xadvance=21   page=0    chnl=0 
char id=59      x=493  y=237  width=14   height=51   xoffset=4    yoffset=31   xadvance=21   page=0    chnl=0 
char id=60      x=139  y=290  width=43   height=40   xoffset=0    yoffset=23   xadvance=43   page=0    chnl=0 
char id=61      x=306  y=343  width=43   height=18   xoffset=0    yoffset=34   xadvance=43   page=0    chnl=0 
char id=62      x=182  y=290  width=43   height=40   xoffset=0    yoffset=23   xadvance=43   page=0    chnl=0 
char id=63      x=237  y=72   width=30   height=56   xoffset=2    yoffset=15   xadvance=34   page=0    chnl=0 
char id=64      x=130  y=0    width=68   height=72   xoffset=2    yoffset=14   xadvance=70   page=0    chnl=0 
char id=65      x=405  y=128  width=57   height=54   xoffset=-1   yoffset=15   xadvance=55   page=0    chnl=0 
char id=66      x=264  y=183  width=48   height=53   xoffset=0    yoffset=16   xadvance=51   page=0    chnl=0 
char id=67      x=0    y=72   width=49   height=56   xoffset=1    yoffset=15   xadvance=51   page=0    chnl=0 
char id=68      x=312  y=183  width=53   height=53   xoffset=0    yoffset=16   xadvance=55   page=0    chnl=0 
char id=69      x=365  y=183  width=46   height=53   xoffset=0    yoffset=16   xadvance=46   page=0    chnl=0 
char id=70      x=411  y=183  width=41   height=53   xoffset=0    yoffset=16   xadvance=42   page=0    chnl=0 
char id=71      x=49   y=72   width=54   height=56   xoffset=1    yoffset=15   xadvance=55   page=0    chnl=0 
char id=72      x=452  y=183  width=55   height=53   xoffset=0    yoffset=16   xadvance=55   page=0    chnl=0 
char id=73      x=0    y=237  width=25   height=53   xoffset=0    yoffset=16   xadvance=25   page=0    chnl=0 
char id=74      x=362  y=72   width=31   height=55   xoffset=0    yoffset=16   xadvance=30   page=0    chnl=0 
char id=75      x=25   y=237  width=57   height=53   xoffset=0    yoffset=16   xadvance=55   page=0    chnl=0 
char id=76      x=82   y=237  width=46   height=53   xoffset=0    yoffset=16   xadvance=46   page=0    chnl=0 
char id=77      x=128  y=237  width=67   height=53   xoffset=0    yoffset=16   xadvance=68   page=0    chnl=0 
char id=78      x=0    y=183  width=59   height=54   xoffset=-3   yoffset=16   xadvance=55   page=0    chnl=0 
char id=79      x=103  y=72   width=52   height=56   xoffset=1    yoffset=15   xadvance=55   page=0    chnl=0 
char id=80      x=195  y=237  width=41   height=53   xoffset=0    yoffset=16   xadvance=42   page=0    chnl=0 
char id=81      x=237  y=0    width=52   height=69   xoffset=1    yoffset=15   xadvance=55   page=0    chnl=0 
char id=82      x=236  y=237  width=53   height=53   xoffset=0    yoffset=16   xadvance=51   page=0    chnl=0 
char id=83      x=155  y=72   width=37   height=56   xoffset=3    yoffset=15   xadvance=42   page=0    chnl=0 
char id=84      x=289  y=237  width=45   height=53   xoffset=1    yoffset=16   xadvance=46   page=0    chnl=0 
char id=85      x=393  y=72   width=57   height=55   xoffset=-1   yoffset=16   xadvance=55   page=0    chnl=0 
char id=86      x=450  y=72   width=56   height=55   xoffset=-1   yoffset=16   xadvance=55   page=0    chnl=0 
char id=87      x=0    y=128  width=73   height=55   xoffset=0    yoffset=16   xadvance=72   page=0    chnl=0 
char id=88      x=334  y=237  width=56   height=53   xoffset=-1   yoffset=16   xadvance=55   page=0    chnl=0 
char id=89      x=390  y=237  width=56   height=53   xoffset=-1   yoffset=16   xadvance=55   page=0    chnl=0 
char id=90      x=446  y=237  width=47   height=53   xoffset=-1   yoffset=16   xadvance=46   page=0    chnl=0 
char id=91      x=198  y=0    width=19   height=70   xoffset=5    yoffset=15   xadvance=25   page=0    chnl=0 
char id=92      x=424  y=0    width=24   height=57   xoffset=-1   yoffset=14   xadvance=21   page=0    chnl=0 
char id=93      x=217  y=0    width=20   height=70   xoffset=1    yoffset=15   xadvance=25   page=0    chnl=0 
char id=94      x=232  y=343  width=36   height=30   xoffset=0    yoffset=15   xadvance=36   page=0    chnl=0 
char id=95      x=429  y=343  width=42   height=6    xoffset=-2   yoffset=80   xadvance=38   page=0    chnl=0 
char id=96      x=349  y=343  width=15   height=16   xoffset=3    yoffset=15   xadvance=25   page=0    chnl=0 
char id=97      x=319  y=290  width=34   height=38   xoffset=1    yoffset=32   xadvance=34   page=0    chnl=0 
char id=98      x=322  y=0    width=39   height=57   xoffset=-2   yoffset=14   xadvance=38   page=0    chnl=0 
char id=99      x=225  y=290  width=32   height=39   xoffset=1    yoffset=32   xadvance=34   page=0    chnl=0 
char id=100     x=361  y=0    width=39   height=57   xoffset=1    yoffset=14   xadvance=38   page=0    chnl=0 
char id=101     x=107  y=290  width=32   height=40   xoffset=1    yoffset=31   xadvance=34   page=0    chnl=0 
char id=102     x=73   y=128  width=42   height=55   xoffset=1    yoffset=14   xadvance=25   page=0    chnl=0 
char id=103     x=462  y=128  width=37   height=54   xoffset=1    yoffset=32   xadvance=38   page=0    chnl=0 
char id=104     x=115  y=128  width=40   height=55   xoffset=-1   yoffset=14   xadvance=38   page=0    chnl=0 
char id=105     x=155  y=128  width=20   height=55   xoffset=1    yoffset=14   xadvance=21   page=0    chnl=0 
char id=106     x=0    y=0    width=28   height=72   xoffset=-7   yoffset=14   xadvance=21   page=0    chnl=0 
char id=107     x=175  y=128  width=41   height=55   xoffset=-1   yoffset=14   xadvance=38   page=0    chnl=0 
char id=108     x=216  y=128  width=20   height=55   xoffset=1    yoffset=14   xadvance=21   page=0    chnl=0 
char id=109     x=0    y=343  width=61   height=37   xoffset=-1   yoffset=32   xadvance=59   page=0    chnl=0 
char id=110     x=61   y=343  width=40   height=37   xoffset=-1   yoffset=32   xadvance=38   page=0    chnl=0 
char id=111     x=257  y=290  width=36   height=39   xoffset=1    yoffset=32   xadvance=38   page=0    chnl=0 
char id=112     x=59   y=183  width=39   height=54   xoffset=-2   yoffset=32   xadvance=38   page=0    chnl=0 
char id=113     x=98   y=183  width=38   height=54   xoffset=1    yoffset=32   xadvance=38   page=0    chnl=0 
char id=114     x=101  y=343  width=28   height=37   xoffset=-1   yoffset=32   xadvance=25   page=0    chnl=0 
char id=115     x=293  y=290  width=26   height=39   xoffset=2    yoffset=32   xadvance=30   page=0    chnl=0 
char id=116     x=40   y=290  width=24   height=49   xoffset=-1   yoffset=21   xadvance=21   page=0    chnl=0 
char id=117     x=353  y=290  width=40   height=38   xoffset=-1   yoffset=33   xadvance=38   page=0    chnl=0 
char id=118     x=393  y=290  width=40   height=38   xoffset=-1   yoffset=33   xadvance=38   page=0    chnl=0 
char id=119     x=433  y=290  width=57   height=38   xoffset=-1   yoffset=33   xadvance=55   page=0    chnl=0 
char id=120     x=129  y=343  width=39   height=36   xoffset=0    yoffset=33   xadvance=38   page=0    chnl=0 
char id=121     x=0    y=290  width=40   height=53   xoffset=-1   yoffset=33   xadvance=38   page=0    chnl=0 
char id=122     x=168  y=343  width=34   height=36   xoffset=0    yoffset=33   xadvance=34   page=0    chnl=0 
char id=123     x=75   y=0    width=24   height=72   xoffset=9    yoffset=14   xadvance=36   page=0    chnl=0 
char id=124     x=123  y=0    width=7    height=72   xoffset=4    yoffset=14   xadvance=15   page=0    chnl=0 
char id=125     x=99   y=0    width=24   height=72   xoffset=5    yoffset=14   xadvance=36   page=0    chnl=0 
char id=126     x=364  y=343  width=43   height=14   xoffset=-1   yoffset=41   xadvance=41   page=0    chnl=0 
