info face="TimesNewRomanPSMT" size=137 bold=0 italic=0 charset="" unicode=0 stretchH=100 smooth=1 aa=1 padding=1,1,1,1 spacing=-2,-2
common lineHeight=159 base=123 scaleW=512 scaleH=512 pages=3 packed=0
page id=0 file="b_cert_1371.png"
page id=1 file="b_cert_1372.png"
page id=2 file="b_cert_1373.png"
chars count=96
char id=10      x=0    y=0    width=0    height=0    xoffset=-1   yoffset=0    xadvance=0    page=0    chnl=0 
char id=32      x=0    y=0    width=0    height=0    xoffset=-1   yoffset=0    xadvance=34   page=0    chnl=0 
char id=33      x=393  y=338  width=18   height=97   xoffset=14   yoffset=29   xadvance=46   page=0    chnl=0 
char id=36      x=0    y=128  width=57   height=112  xoffset=6    yoffset=23   xadvance=69   page=0    chnl=0 
char id=37      x=273  y=128  width=108  height=99   xoffset=3    yoffset=29   xadvance=114  page=0    chnl=0 
char id=38      x=0    y=338  width=100  height=98   xoffset=4    yoffset=29   xadvance=107  page=0    chnl=0 
char id=39      x=495  y=240  width=16   height=42   xoffset=4    yoffset=29   xadvance=25   page=0    chnl=0 
char id=40      x=50   y=0    width=40   height=128  xoffset=4    yoffset=26   xadvance=46   page=0    chnl=0 
char id=41      x=90   y=0    width=40   height=128  xoffset=2    yoffset=26   xadvance=46   page=0    chnl=0 
char id=43      x=0    y=436  width=75   height=75   xoffset=1    yoffset=40   xadvance=77   page=0    chnl=0 
char id=47      x=191  y=128  width=41   height=100  xoffset=-1   yoffset=26   xadvance=38   page=0    chnl=0 
char id=48      x=331  y=338  width=62   height=97   xoffset=3    yoffset=29   xadvance=69   page=0    chnl=0 
char id=49      x=463  y=338  width=38   height=95   xoffset=15   yoffset=29   xadvance=69   page=0    chnl=0 
char id=51      x=100  y=338  width=55   height=97   xoffset=4    yoffset=29   xadvance=69   page=0    chnl=0 
char id=54      x=155  y=338  width=61   height=97   xoffset=4    yoffset=29   xadvance=69   page=0    chnl=0 
char id=56      x=216  y=338  width=55   height=97   xoffset=7    yoffset=29   xadvance=69   page=0    chnl=0 
char id=57      x=271  y=338  width=60   height=97   xoffset=4    yoffset=29   xadvance=69   page=0    chnl=0 
char id=60      x=75   y=436  width=75   height=69   xoffset=1    yoffset=43   xadvance=77   page=0    chnl=0 
char id=62      x=150  y=436  width=75   height=69   xoffset=1    yoffset=43   xadvance=77   page=0    chnl=0 
char id=63      x=411  y=338  width=52   height=97   xoffset=5    yoffset=29   xadvance=61   page=0    chnl=0 
char id=64      x=221  y=0    width=119  height=128  xoffset=5    yoffset=26   xadvance=126  page=0    chnl=0 
char id=67      x=381  y=128  width=85   height=98   xoffset=3    yoffset=29   xadvance=91   page=0    chnl=0 
char id=71      x=0    y=240  width=95   height=98   xoffset=3    yoffset=29   xadvance=99   page=0    chnl=0 
char id=79      x=95   y=240  width=92   height=98   xoffset=3    yoffset=29   xadvance=99   page=0    chnl=0 
char id=81      x=404  y=0    width=92   height=122  xoffset=3    yoffset=29   xadvance=99   page=0    chnl=0 
char id=83      x=187  y=240  width=63   height=98   xoffset=7    yoffset=29   xadvance=76   page=0    chnl=0 
char id=91      x=340  y=0    width=32   height=123  xoffset=10   yoffset=29   xadvance=46   page=0    chnl=0 
char id=92      x=232  y=128  width=41   height=100  xoffset=-1   yoffset=26   xadvance=38   page=0    chnl=0 
char id=93      x=372  y=0    width=32   height=123  xoffset=4    yoffset=29   xadvance=46   page=0    chnl=0 
char id=97      x=225  y=436  width=59   height=68   xoffset=3    yoffset=58   xadvance=61   page=0    chnl=0 
char id=98      x=57   y=128  width=67   height=100  xoffset=-2   yoffset=26   xadvance=69   page=0    chnl=0 
char id=99      x=284  y=436  width=55   height=68   xoffset=3    yoffset=58   xadvance=61   page=0    chnl=0 
char id=100     x=124  y=128  width=67   height=100  xoffset=3    yoffset=26   xadvance=69   page=0    chnl=0 
char id=101     x=339  y=436  width=54   height=68   xoffset=4    yoffset=58   xadvance=61   page=0    chnl=0 
char id=102     x=425  y=240  width=70   height=97   xoffset=4    yoffset=27   xadvance=46   page=0    chnl=0 
char id=104     x=250  y=240  width=70   height=98   xoffset=-1   yoffset=26   xadvance=69   page=0    chnl=0 
char id=105     x=466  y=128  width=33   height=98   xoffset=3    yoffset=26   xadvance=38   page=0    chnl=0 
char id=106     x=0    y=0    width=50   height=128  xoffset=-12  yoffset=26   xadvance=38   page=0    chnl=0 
char id=107     x=320  y=240  width=71   height=98   xoffset=0    yoffset=26   xadvance=69   page=0    chnl=0 
char id=108     x=391  y=240  width=34   height=98   xoffset=3    yoffset=26   xadvance=38   page=0    chnl=0 
char id=111     x=393  y=436  width=62   height=68   xoffset=3    yoffset=58   xadvance=69   page=0    chnl=0 
char id=115     x=455  y=436  width=45   height=68   xoffset=5    yoffset=58   xadvance=53   page=0    chnl=0 
char id=123     x=130  y=0    width=41   height=128  xoffset=17   yoffset=26   xadvance=66   page=0    chnl=0 
char id=124     x=212  y=0    width=9    height=128  xoffset=9    yoffset=26   xadvance=27   page=0    chnl=0 
char id=125     x=171  y=0    width=41   height=128  xoffset=10   yoffset=26   xadvance=66   page=0    chnl=0 
char id=35      x=0    y=0    width=67   height=97   xoffset=1    yoffset=29   xadvance=69   page=1    chnl=0 
char id=45      x=174  y=474  width=38   height=13   xoffset=4    yoffset=86   xadvance=46   page=1    chnl=0 
char id=46      x=491  y=381  width=18   height=17   xoffset=8    yoffset=109  xadvance=34   page=1    chnl=0 
char id=50      x=400  y=97   width=63   height=95   xoffset=1    yoffset=29   xadvance=69   page=1    chnl=0 
char id=52      x=0    y=193  width=64   height=95   xoffset=1    yoffset=29   xadvance=69   page=1    chnl=0 
char id=53      x=449  y=0    width=56   height=95   xoffset=5    yoffset=31   xadvance=69   page=1    chnl=0 
char id=55      x=64   y=193  width=60   height=95   xoffset=4    yoffset=31   xadvance=69   page=1    chnl=0 
char id=58      x=493  y=288  width=18   height=68   xoffset=10   yoffset=58   xadvance=38   page=1    chnl=0 
char id=59      x=470  y=288  width=23   height=89   xoffset=8    yoffset=58   xadvance=38   page=1    chnl=0 
char id=61      x=0    y=474  width=75   height=31   xoffset=1    yoffset=62   xadvance=77   page=1    chnl=0 
char id=65      x=199  y=97   width=99   height=95   xoffset=0    yoffset=29   xadvance=99   page=1    chnl=0 
char id=66      x=194  y=193  width=84   height=93   xoffset=1    yoffset=31   xadvance=91   page=1    chnl=0 
char id=68      x=278  y=193  width=94   height=93   xoffset=1    yoffset=31   xadvance=99   page=1    chnl=0 
char id=69      x=372  y=193  width=81   height=93   xoffset=1    yoffset=31   xadvance=84   page=1    chnl=0 
char id=70      x=0    y=288  width=71   height=93   xoffset=1    yoffset=31   xadvance=76   page=1    chnl=0 
char id=72      x=71   y=288  width=97   height=93   xoffset=1    yoffset=31   xadvance=99   page=1    chnl=0 
char id=73      x=453  y=193  width=42   height=93   xoffset=2    yoffset=31   xadvance=46   page=1    chnl=0 
char id=74      x=67   y=0    width=53   height=96   xoffset=1    yoffset=31   xadvance=53   page=1    chnl=0 
char id=75      x=168  y=288  width=102  height=93   xoffset=1    yoffset=31   xadvance=99   page=1    chnl=0 
char id=76      x=270  y=288  width=81   height=93   xoffset=1    yoffset=31   xadvance=84   page=1    chnl=0 
char id=77      x=351  y=288  width=119  height=93   xoffset=1    yoffset=31   xadvance=122  page=1    chnl=0 
char id=78      x=298  y=97   width=102  height=95   xoffset=-3   yoffset=31   xadvance=99   page=1    chnl=0 
char id=80      x=0    y=381  width=72   height=93   xoffset=1    yoffset=31   xadvance=76   page=1    chnl=0 
char id=82      x=72   y=381  width=94   height=93   xoffset=1    yoffset=31   xadvance=91   page=1    chnl=0 
char id=84      x=166  y=381  width=79   height=93   xoffset=3    yoffset=31   xadvance=84   page=1    chnl=0 
char id=85      x=120  y=0    width=100  height=96   xoffset=-1   yoffset=31   xadvance=99   page=1    chnl=0 
char id=86      x=220  y=0    width=99   height=96   xoffset=0    yoffset=31   xadvance=99   page=1    chnl=0 
char id=87      x=319  y=0    width=130  height=96   xoffset=0    yoffset=31   xadvance=129  page=1    chnl=0 
char id=88      x=245  y=381  width=99   height=93   xoffset=0    yoffset=31   xadvance=99   page=1    chnl=0 
char id=89      x=344  y=381  width=98   height=93   xoffset=0    yoffset=31   xadvance=99   page=1    chnl=0 
char id=95      x=212  y=474  width=75   height=9    xoffset=-3   yoffset=145  xadvance=69   page=1    chnl=0 
char id=96      x=75   y=474  width=25   height=26   xoffset=6    yoffset=29   xadvance=46   page=1    chnl=0 
char id=103     x=0    y=97   width=65   height=96   xoffset=3    yoffset=58   xadvance=69   page=1    chnl=0 
char id=112     x=65   y=97   width=67   height=96   xoffset=-2   yoffset=58   xadvance=69   page=1    chnl=0 
char id=113     x=132  y=97   width=67   height=96   xoffset=3    yoffset=58   xadvance=69   page=1    chnl=0 
char id=114     x=442  y=381  width=49   height=66   xoffset=-1   yoffset=58   xadvance=46   page=1    chnl=0 
char id=116     x=463  y=97   width=40   height=86   xoffset=0    yoffset=40   xadvance=38   page=1    chnl=0 
char id=121     x=124  y=193  width=70   height=94   xoffset=-1   yoffset=60   xadvance=69   page=1    chnl=0 
char id=126     x=100  y=474  width=74   height=22   xoffset=0    yoffset=76   xadvance=74   page=1    chnl=0 
char id=34      x=241  y=93   width=41   height=42   xoffset=7    yoffset=29   xadvance=56   page=2    chnl=0 
char id=42      x=127  y=93   width=52   height=59   xoffset=8    yoffset=26   xadvance=69   page=2    chnl=0 
char id=44      x=282  y=93   width=23   height=39   xoffset=6    yoffset=108  xadvance=34   page=2    chnl=0 
char id=90      x=0    y=0    width=81   height=93   xoffset=0    yoffset=31   xadvance=84   page=2    chnl=0 
char id=94      x=179  y=93   width=62   height=51   xoffset=1    yoffset=29   xadvance=64   page=2    chnl=0 
char id=109     x=81   y=0    width=107  height=66   xoffset=0    yoffset=58   xadvance=107  page=2    chnl=0 
char id=110     x=188  y=0    width=70   height=66   xoffset=-1   yoffset=58   xadvance=69   page=2    chnl=0 
char id=117     x=258  y=0    width=71   height=66   xoffset=-1   yoffset=60   xadvance=69   page=2    chnl=0 
char id=118     x=329  y=0    width=69   height=66   xoffset=0    yoffset=60   xadvance=69   page=2    chnl=0 
char id=119     x=398  y=0    width=100  height=66   xoffset=-1   yoffset=60   xadvance=99   page=2    chnl=0 
char id=120     x=0    y=93   width=68   height=64   xoffset=0    yoffset=60   xadvance=69   page=2    chnl=0 
char id=122     x=68   y=93   width=59   height=64   xoffset=1    yoffset=60   xadvance=61   page=2    chnl=0 
