info face="TimesNewRomanPSMT" size=46 bold=0 italic=0 charset="" unicode=0 stretchH=100 smooth=1 aa=1 padding=1,1,1,1 spacing=-2,-2
common lineHeight=53 base=41 scaleW=512 scaleH=512 pages=1 packed=0
page id=0 file="nomor_46.png"
chars count=96
char id=10      x=0    y=0    width=0    height=0    xoffset=-1   yoffset=0    xadvance=0    page=0    chnl=0 
char id=32      x=0    y=0    width=0    height=0    xoffset=-1   yoffset=0    xadvance=12   page=0    chnl=0 
char id=33      x=23   y=44   width=8    height=35   xoffset=4    yoffset=8    xadvance=15   page=0    chnl=0 
char id=34      x=70   y=146  width=16   height=16   xoffset=1    yoffset=8    xadvance=19   page=0    chnl=0 
char id=35      x=80   y=44   width=25   height=35   xoffset=-1   yoffset=8    xadvance=23   page=0    chnl=0 
char id=36      x=186  y=0    width=21   height=40   xoffset=1    yoffset=6    xadvance=23   page=0    chnl=0 
char id=37      x=207  y=0    width=38   height=36   xoffset=0    yoffset=8    xadvance=38   page=0    chnl=0 
char id=38      x=105  y=44   width=36   height=35   xoffset=0    yoffset=8    xadvance=36   page=0    chnl=0 
char id=39      x=86   y=146  width=8    height=16   xoffset=0    yoffset=8    xadvance=8    page=0    chnl=0 
char id=40      x=51   y=0    width=16   height=44   xoffset=0    yoffset=8    xadvance=15   page=0    chnl=0 
char id=41      x=67   y=0    width=15   height=44   xoffset=0    yoffset=8    xadvance=15   page=0    chnl=0 
char id=42      x=490  y=113  width=19   height=21   xoffset=2    yoffset=8    xadvance=23   page=0    chnl=0 
char id=43      x=139  y=113  width=28   height=27   xoffset=-1   yoffset=12   xadvance=26   page=0    chnl=0 
char id=44      x=94   y=146  width=10   height=15   xoffset=1    yoffset=35   xadvance=12   page=0    chnl=0 
char id=45      x=178  y=146  width=15   height=7    xoffset=0    yoffset=27   xadvance=15   page=0    chnl=0 
char id=46      x=170  y=146  width=8    height=8    xoffset=2    yoffset=35   xadvance=12   page=0    chnl=0 
char id=47      x=50   y=44   width=15   height=35   xoffset=-1   yoffset=8    xadvance=13   page=0    chnl=0 
char id=48      x=0    y=44   width=23   height=35   xoffset=0    yoffset=8    xadvance=23   page=0    chnl=0 
char id=49      x=24   y=79   width=15   height=34   xoffset=4    yoffset=8    xadvance=23   page=0    chnl=0 
char id=50      x=39   y=79   width=24   height=34   xoffset=-1   yoffset=8    xadvance=23   page=0    chnl=0 
char id=51      x=417  y=0    width=21   height=35   xoffset=0    yoffset=8    xadvance=23   page=0    chnl=0 
char id=52      x=63   y=79   width=24   height=34   xoffset=-1   yoffset=8    xadvance=23   page=0    chnl=0 
char id=53      x=87   y=79   width=20   height=34   xoffset=1    yoffset=9    xadvance=23   page=0    chnl=0 
char id=54      x=438  y=0    width=23   height=35   xoffset=0    yoffset=8    xadvance=23   page=0    chnl=0 
char id=55      x=107  y=79   width=22   height=34   xoffset=0    yoffset=9    xadvance=23   page=0    chnl=0 
char id=56      x=461  y=0    width=21   height=35   xoffset=1    yoffset=8    xadvance=23   page=0    chnl=0 
char id=57      x=482  y=0    width=23   height=35   xoffset=0    yoffset=8    xadvance=23   page=0    chnl=0 
char id=58      x=499  y=44   width=8    height=25   xoffset=2    yoffset=18   xadvance=13   page=0    chnl=0 
char id=59      x=497  y=79   width=9    height=32   xoffset=2    yoffset=18   xadvance=13   page=0    chnl=0 
char id=60      x=270  y=113  width=27   height=25   xoffset=-1   yoffset=13   xadvance=26   page=0    chnl=0 
char id=61      x=104  y=146  width=28   height=12   xoffset=-1   yoffset=20   xadvance=26   page=0    chnl=0 
char id=62      x=297  y=113  width=27   height=25   xoffset=-1   yoffset=13   xadvance=26   page=0    chnl=0 
char id=63      x=31   y=44   width=19   height=35   xoffset=1    yoffset=8    xadvance=20   page=0    chnl=0 
char id=64      x=144  y=0    width=42   height=44   xoffset=1    yoffset=8    xadvance=42   page=0    chnl=0 
char id=65      x=141  y=44   width=35   height=34   xoffset=-1   yoffset=8    xadvance=33   page=0    chnl=0 
char id=66      x=129  y=79   width=31   height=33   xoffset=-1   yoffset=9    xadvance=31   page=0    chnl=0 
char id=67      x=245  y=0    width=31   height=35   xoffset=0    yoffset=8    xadvance=31   page=0    chnl=0 
char id=68      x=160  y=79   width=34   height=33   xoffset=-1   yoffset=9    xadvance=33   page=0    chnl=0 
char id=69      x=194  y=79   width=30   height=33   xoffset=-1   yoffset=9    xadvance=28   page=0    chnl=0 
char id=70      x=224  y=79   width=26   height=33   xoffset=-1   yoffset=9    xadvance=26   page=0    chnl=0 
char id=71      x=276  y=0    width=34   height=35   xoffset=0    yoffset=8    xadvance=33   page=0    chnl=0 
char id=72      x=250  y=79   width=35   height=33   xoffset=-1   yoffset=9    xadvance=33   page=0    chnl=0 
char id=73      x=285  y=79   width=16   height=33   xoffset=0    yoffset=9    xadvance=15   page=0    chnl=0 
char id=74      x=176  y=44   width=20   height=34   xoffset=-1   yoffset=9    xadvance=18   page=0    chnl=0 
char id=75      x=301  y=79   width=36   height=33   xoffset=-1   yoffset=9    xadvance=33   page=0    chnl=0 
char id=76      x=337  y=79   width=30   height=33   xoffset=-1   yoffset=9    xadvance=28   page=0    chnl=0 
char id=77      x=367  y=79   width=42   height=33   xoffset=-1   yoffset=9    xadvance=41   page=0    chnl=0 
char id=78      x=196  y=44   width=36   height=34   xoffset=-2   yoffset=9    xadvance=33   page=0    chnl=0 
char id=79      x=310  y=0    width=33   height=35   xoffset=0    yoffset=8    xadvance=33   page=0    chnl=0 
char id=80      x=409  y=79   width=26   height=33   xoffset=-1   yoffset=9    xadvance=26   page=0    chnl=0 
char id=81      x=0    y=0    width=33   height=44   xoffset=0    yoffset=8    xadvance=33   page=0    chnl=0 
char id=82      x=435  y=79   width=34   height=33   xoffset=-1   yoffset=9    xadvance=31   page=0    chnl=0 
char id=83      x=343  y=0    width=24   height=35   xoffset=1    yoffset=8    xadvance=26   page=0    chnl=0 
char id=84      x=469  y=79   width=28   height=33   xoffset=0    yoffset=9    xadvance=28   page=0    chnl=0 
char id=85      x=232  y=44   width=35   height=34   xoffset=-1   yoffset=9    xadvance=33   page=0    chnl=0 
char id=86      x=267  y=44   width=35   height=34   xoffset=-1   yoffset=9    xadvance=33   page=0    chnl=0 
char id=87      x=302  y=44   width=46   height=34   xoffset=-1   yoffset=9    xadvance=43   page=0    chnl=0 
char id=88      x=0    y=113  width=35   height=33   xoffset=-1   yoffset=9    xadvance=33   page=0    chnl=0 
char id=89      x=35   y=113  width=35   height=33   xoffset=-1   yoffset=9    xadvance=33   page=0    chnl=0 
char id=90      x=70   y=113  width=29   height=33   xoffset=-1   yoffset=9    xadvance=28   page=0    chnl=0 
char id=91      x=82   y=0    width=13   height=44   xoffset=2    yoffset=8    xadvance=15   page=0    chnl=0 
char id=92      x=65   y=44   width=15   height=35   xoffset=-1   yoffset=8    xadvance=13   page=0    chnl=0 
char id=93      x=95   y=0    width=13   height=44   xoffset=0    yoffset=8    xadvance=15   page=0    chnl=0 
char id=94      x=47   y=146  width=23   height=20   xoffset=-1   yoffset=8    xadvance=22   page=0    chnl=0 
char id=95      x=193  y=146  width=27   height=4    xoffset=-2   yoffset=48   xadvance=23   page=0    chnl=0 
char id=96      x=132  y=146  width=11   height=11   xoffset=1    yoffset=8    xadvance=15   page=0    chnl=0 
char id=97      x=167  y=113  width=22   height=25   xoffset=0    yoffset=18   xadvance=20   page=0    chnl=0 
char id=98      x=367  y=0    width=25   height=35   xoffset=-2   yoffset=8    xadvance=23   page=0    chnl=0 
char id=99      x=189  y=113  width=20   height=25   xoffset=0    yoffset=18   xadvance=20   page=0    chnl=0 
char id=100     x=392  y=0    width=25   height=35   xoffset=0    yoffset=8    xadvance=23   page=0    chnl=0 
char id=101     x=209  y=113  width=21   height=25   xoffset=0    yoffset=18   xadvance=20   page=0    chnl=0 
char id=102     x=348  y=44   width=25   height=34   xoffset=0    yoffset=8    xadvance=15   page=0    chnl=0 
char id=103     x=373  y=44   width=24   height=34   xoffset=0    yoffset=18   xadvance=23   page=0    chnl=0 
char id=104     x=397  y=44   width=25   height=34   xoffset=-1   yoffset=8    xadvance=23   page=0    chnl=0 
char id=105     x=422  y=44   width=13   height=34   xoffset=0    yoffset=8    xadvance=13   page=0    chnl=0 
char id=106     x=33   y=0    width=18   height=44   xoffset=-5   yoffset=8    xadvance=13   page=0    chnl=0 
char id=107     x=435  y=44   width=26   height=34   xoffset=-1   yoffset=8    xadvance=23   page=0    chnl=0 
char id=108     x=461  y=44   width=13   height=34   xoffset=0    yoffset=8    xadvance=13   page=0    chnl=0 
char id=109     x=324  y=113  width=38   height=24   xoffset=-1   yoffset=18   xadvance=36   page=0    chnl=0 
char id=110     x=362  y=113  width=25   height=24   xoffset=-1   yoffset=18   xadvance=23   page=0    chnl=0 
char id=111     x=230  y=113  width=23   height=25   xoffset=0    yoffset=18   xadvance=23   page=0    chnl=0 
char id=112     x=474  y=44   width=25   height=34   xoffset=-2   yoffset=18   xadvance=23   page=0    chnl=0 
char id=113     x=0    y=79   width=24   height=34   xoffset=0    yoffset=18   xadvance=23   page=0    chnl=0 
char id=114     x=387  y=113  width=18   height=24   xoffset=-1   yoffset=18   xadvance=15   page=0    chnl=0 
char id=115     x=253  y=113  width=17   height=25   xoffset=1    yoffset=18   xadvance=18   page=0    chnl=0 
char id=116     x=124  y=113  width=15   height=31   xoffset=-1   yoffset=12   xadvance=13   page=0    chnl=0 
char id=117     x=405  y=113  width=25   height=24   xoffset=-1   yoffset=19   xadvance=23   page=0    chnl=0 
char id=118     x=430  y=113  width=25   height=24   xoffset=-1   yoffset=19   xadvance=23   page=0    chnl=0 
char id=119     x=455  y=113  width=35   height=24   xoffset=-1   yoffset=19   xadvance=33   page=0    chnl=0 
char id=120     x=0    y=146  width=25   height=23   xoffset=-1   yoffset=19   xadvance=23   page=0    chnl=0 
char id=121     x=99   y=113  width=25   height=33   xoffset=-1   yoffset=19   xadvance=23   page=0    chnl=0 
char id=122     x=25   y=146  width=22   height=23   xoffset=-1   yoffset=19   xadvance=20   page=0    chnl=0 
char id=123     x=108  y=0    width=15   height=44   xoffset=5    yoffset=8    xadvance=22   page=0    chnl=0 
char id=124     x=139  y=0    width=5    height=44   xoffset=2    yoffset=8    xadvance=9    page=0    chnl=0 
char id=125     x=123  y=0    width=16   height=44   xoffset=2    yoffset=8    xadvance=22   page=0    chnl=0 
char id=126     x=143  y=146  width=27   height=10   xoffset=-1   yoffset=24   xadvance=25   page=0    chnl=0 
