info face="TimesNewRomanPSMT" size=33 bold=0 italic=0 charset="" unicode=0 stretchH=100 smooth=1 aa=1 padding=1,1,1,1 spacing=-2,-2
common lineHeight=39 base=30 scaleW=512 scaleH=512 pages=1 packed=0
page id=0 file="nomor_33.png"
chars count=96
char id=10      x=0    y=0    width=0    height=0    xoffset=-1   yoffset=0    xadvance=0    page=0    chnl=0 
char id=32      x=0    y=0    width=0    height=0    xoffset=-1   yoffset=0    xadvance=8    page=0    chnl=0 
char id=33      x=419  y=0    width=7    height=26   xoffset=2    yoffset=6    xadvance=11   page=0    chnl=0 
char id=34      x=49   y=83   width=12   height=13   xoffset=1    yoffset=6    xadvance=13   page=0    chnl=0 
char id=35      x=493  y=0    width=18   height=26   xoffset=-1   yoffset=6    xadvance=17   page=0    chnl=0 
char id=36      x=141  y=0    width=16   height=29   xoffset=0    yoffset=5    xadvance=17   page=0    chnl=0 
char id=37      x=465  y=0    width=28   height=26   xoffset=0    yoffset=6    xadvance=27   page=0    chnl=0 
char id=38      x=0    y=33   width=26   height=26   xoffset=0    yoffset=6    xadvance=26   page=0    chnl=0 
char id=39      x=61   y=83   width=6    height=13   xoffset=0    yoffset=6    xadvance=6    page=0    chnl=0 
char id=40      x=14   y=0    width=12   height=33   xoffset=0    yoffset=6    xadvance=11   page=0    chnl=0 
char id=41      x=26   y=0    width=12   height=33   xoffset=-1   yoffset=6    xadvance=11   page=0    chnl=0 
char id=42      x=17   y=83   width=15   height=16   xoffset=1    yoffset=6    xadvance=17   page=0    chnl=0 
char id=43      x=219  y=59   width=20   height=20   xoffset=-1   yoffset=9    xadvance=19   page=0    chnl=0 
char id=44      x=67   y=83   width=8    height=12   xoffset=0    yoffset=25   xadvance=8    page=0    chnl=0 
char id=45      x=130  y=83   width=11   height=5    xoffset=0    yoffset=20   xadvance=11   page=0    chnl=0 
char id=46      x=104  y=83   width=6    height=7    xoffset=1    yoffset=25   xadvance=8    page=0    chnl=0 
char id=47      x=441  y=0    width=12   height=26   xoffset=-1   yoffset=6    xadvance=9    page=0    chnl=0 
char id=48      x=402  y=0    width=17   height=26   xoffset=0    yoffset=6    xadvance=17   page=0    chnl=0 
char id=49      x=277  y=33   width=12   height=25   xoffset=2    yoffset=6    xadvance=17   page=0    chnl=0 
char id=50      x=289  y=33   width=18   height=25   xoffset=-1   yoffset=6    xadvance=17   page=0    chnl=0 
char id=51      x=337  y=0    width=15   height=26   xoffset=0    yoffset=6    xadvance=17   page=0    chnl=0 
char id=52      x=307  y=33   width=18   height=25   xoffset=-1   yoffset=6    xadvance=17   page=0    chnl=0 
char id=53      x=325  y=33   width=16   height=25   xoffset=0    yoffset=7    xadvance=17   page=0    chnl=0 
char id=54      x=352  y=0    width=17   height=26   xoffset=0    yoffset=6    xadvance=17   page=0    chnl=0 
char id=55      x=341  y=33   width=17   height=25   xoffset=0    yoffset=7    xadvance=17   page=0    chnl=0 
char id=56      x=369  y=0    width=16   height=26   xoffset=0    yoffset=6    xadvance=17   page=0    chnl=0 
char id=57      x=385  y=0    width=17   height=26   xoffset=0    yoffset=6    xadvance=17   page=0    chnl=0 
char id=58      x=315  y=59   width=7    height=19   xoffset=1    yoffset=13   xadvance=9    page=0    chnl=0 
char id=59      x=199  y=59   width=8    height=24   xoffset=1    yoffset=13   xadvance=9    page=0    chnl=0 
char id=60      x=447  y=59   width=20   height=18   xoffset=-1   yoffset=10   xadvance=19   page=0    chnl=0 
char id=61      x=75   y=83   width=20   height=10   xoffset=-1   yoffset=14   xadvance=19   page=0    chnl=0 
char id=62      x=467  y=59   width=20   height=18   xoffset=-1   yoffset=10   xadvance=19   page=0    chnl=0 
char id=63      x=426  y=0    width=15   height=26   xoffset=0    yoffset=6    xadvance=15   page=0    chnl=0 
char id=64      x=66   y=0    width=31   height=33   xoffset=0    yoffset=6    xadvance=30   page=0    chnl=0 
char id=65      x=26   y=33   width=26   height=25   xoffset=-1   yoffset=6    xadvance=24   page=0    chnl=0 
char id=66      x=358  y=33   width=23   height=24   xoffset=-1   yoffset=7    xadvance=22   page=0    chnl=0 
char id=67      x=157  y=0    width=22   height=26   xoffset=0    yoffset=6    xadvance=22   page=0    chnl=0 
char id=68      x=381  y=33   width=25   height=24   xoffset=-1   yoffset=7    xadvance=24   page=0    chnl=0 
char id=69      x=406  y=33   width=22   height=24   xoffset=-1   yoffset=7    xadvance=20   page=0    chnl=0 
char id=70      x=428  y=33   width=19   height=24   xoffset=-1   yoffset=7    xadvance=18   page=0    chnl=0 
char id=71      x=179  y=0    width=25   height=26   xoffset=0    yoffset=6    xadvance=24   page=0    chnl=0 
char id=72      x=447  y=33   width=26   height=24   xoffset=-1   yoffset=7    xadvance=24   page=0    chnl=0 
char id=73      x=473  y=33   width=13   height=24   xoffset=-1   yoffset=7    xadvance=11   page=0    chnl=0 
char id=74      x=52   y=33   width=15   height=25   xoffset=-1   yoffset=7    xadvance=13   page=0    chnl=0 
char id=75      x=0    y=59   width=27   height=24   xoffset=-1   yoffset=7    xadvance=24   page=0    chnl=0 
char id=76      x=486  y=33   width=22   height=24   xoffset=-1   yoffset=7    xadvance=20   page=0    chnl=0 
char id=77      x=27   y=59   width=31   height=24   xoffset=-1   yoffset=7    xadvance=29   page=0    chnl=0 
char id=78      x=67   y=33   width=27   height=25   xoffset=-2   yoffset=7    xadvance=24   page=0    chnl=0 
char id=79      x=204  y=0    width=24   height=26   xoffset=0    yoffset=6    xadvance=24   page=0    chnl=0 
char id=80      x=58   y=59   width=20   height=24   xoffset=-1   yoffset=7    xadvance=18   page=0    chnl=0 
char id=81      x=97   y=0    width=24   height=32   xoffset=0    yoffset=6    xadvance=24   page=0    chnl=0 
char id=82      x=78   y=59   width=25   height=24   xoffset=-1   yoffset=7    xadvance=22   page=0    chnl=0 
char id=83      x=228  y=0    width=17   height=26   xoffset=1    yoffset=6    xadvance=18   page=0    chnl=0 
char id=84      x=103  y=59   width=22   height=24   xoffset=-1   yoffset=7    xadvance=20   page=0    chnl=0 
char id=85      x=94   y=33   width=26   height=25   xoffset=-1   yoffset=7    xadvance=24   page=0    chnl=0 
char id=86      x=120  y=33   width=26   height=25   xoffset=-1   yoffset=7    xadvance=24   page=0    chnl=0 
char id=87      x=146  y=33   width=33   height=25   xoffset=-1   yoffset=7    xadvance=31   page=0    chnl=0 
char id=88      x=125  y=59   width=26   height=24   xoffset=-1   yoffset=7    xadvance=24   page=0    chnl=0 
char id=89      x=151  y=59   width=26   height=24   xoffset=-1   yoffset=7    xadvance=24   page=0    chnl=0 
char id=90      x=177  y=59   width=22   height=24   xoffset=-1   yoffset=7    xadvance=20   page=0    chnl=0 
char id=91      x=121  y=0    width=10   height=32   xoffset=1    yoffset=6    xadvance=11   page=0    chnl=0 
char id=92      x=453  y=0    width=12   height=26   xoffset=-1   yoffset=6    xadvance=9    page=0    chnl=0 
char id=93      x=131  y=0    width=10   height=32   xoffset=0    yoffset=6    xadvance=11   page=0    chnl=0 
char id=94      x=32   y=83   width=17   height=15   xoffset=-1   yoffset=6    xadvance=15   page=0    chnl=0 
char id=95      x=141  y=83   width=20   height=5    xoffset=-2   yoffset=34   xadvance=17   page=0    chnl=0 
char id=96      x=95   y=83   width=9    height=9    xoffset=0    yoffset=6    xadvance=11   page=0    chnl=0 
char id=97      x=239  y=59   width=16   height=19   xoffset=0    yoffset=13   xadvance=15   page=0    chnl=0 
char id=98      x=245  y=0    width=19   height=26   xoffset=-2   yoffset=6    xadvance=17   page=0    chnl=0 
char id=99      x=255  y=59   width=15   height=19   xoffset=0    yoffset=13   xadvance=15   page=0    chnl=0 
char id=100     x=264  y=0    width=18   height=26   xoffset=0    yoffset=6    xadvance=17   page=0    chnl=0 
char id=101     x=270  y=59   width=15   height=19   xoffset=0    yoffset=13   xadvance=15   page=0    chnl=0 
char id=102     x=179  y=33   width=19   height=25   xoffset=0    yoffset=6    xadvance=11   page=0    chnl=0 
char id=103     x=282  y=0    width=18   height=26   xoffset=-1   yoffset=13   xadvance=17   page=0    chnl=0 
char id=104     x=198  y=33   width=19   height=25   xoffset=-1   yoffset=6    xadvance=17   page=0    chnl=0 
char id=105     x=217  y=33   width=11   height=25   xoffset=-1   yoffset=6    xadvance=9    page=0    chnl=0 
char id=106     x=0    y=0    width=14   height=33   xoffset=-4   yoffset=6    xadvance=9    page=0    chnl=0 
char id=107     x=228  y=33   width=19   height=25   xoffset=-1   yoffset=6    xadvance=17   page=0    chnl=0 
char id=108     x=247  y=33   width=11   height=25   xoffset=-1   yoffset=6    xadvance=9    page=0    chnl=0 
char id=109     x=322  y=59   width=28   height=18   xoffset=-1   yoffset=13   xadvance=26   page=0    chnl=0 
char id=110     x=350  y=59   width=19   height=18   xoffset=-1   yoffset=13   xadvance=17   page=0    chnl=0 
char id=111     x=285  y=59   width=17   height=19   xoffset=0    yoffset=13   xadvance=17   page=0    chnl=0 
char id=112     x=300  y=0    width=19   height=26   xoffset=-2   yoffset=13   xadvance=17   page=0    chnl=0 
char id=113     x=319  y=0    width=18   height=26   xoffset=0    yoffset=13   xadvance=17   page=0    chnl=0 
char id=114     x=369  y=59   width=14   height=18   xoffset=-1   yoffset=13   xadvance=11   page=0    chnl=0 
char id=115     x=302  y=59   width=13   height=19   xoffset=0    yoffset=13   xadvance=13   page=0    chnl=0 
char id=116     x=207  y=59   width=12   height=23   xoffset=-1   yoffset=9    xadvance=9    page=0    chnl=0 
char id=117     x=383  y=59   width=19   height=18   xoffset=-1   yoffset=14   xadvance=17   page=0    chnl=0 
char id=118     x=402  y=59   width=19   height=18   xoffset=-1   yoffset=14   xadvance=17   page=0    chnl=0 
char id=119     x=421  y=59   width=26   height=18   xoffset=-1   yoffset=14   xadvance=24   page=0    chnl=0 
char id=120     x=487  y=59   width=19   height=17   xoffset=-1   yoffset=14   xadvance=17   page=0    chnl=0 
char id=121     x=258  y=33   width=19   height=25   xoffset=-1   yoffset=14   xadvance=17   page=0    chnl=0 
char id=122     x=0    y=83   width=17   height=17   xoffset=-1   yoffset=14   xadvance=15   page=0    chnl=0 
char id=123     x=38   y=0    width=12   height=33   xoffset=3    yoffset=6    xadvance=16   page=0    chnl=0 
char id=124     x=62   y=0    width=4    height=33   xoffset=1    yoffset=6    xadvance=7    page=0    chnl=0 
char id=125     x=50   y=0    width=12   height=33   xoffset=1    yoffset=6    xadvance=16   page=0    chnl=0 
char id=126     x=110  y=83   width=20   height=7    xoffset=-1   yoffset=18   xadvance=18   page=0    chnl=0 
