info face="TimesNewRomanPSMT" size=86 bold=0 italic=0 charset="" unicode=0 stretchH=100 smooth=1 aa=1 padding=1,1,1,1 spacing=-2,-2
common lineHeight=100 base=77 scaleW=512 scaleH=512 pages=1 packed=0
page id=0 file="nomor_86.png"
chars count=96
char id=10      x=0    y=0    width=0    height=0    xoffset=-1   yoffset=0    xadvance=0    page=0    chnl=0 
char id=32      x=0    y=0    width=0    height=0    xoffset=-1   yoffset=0    xadvance=22   page=0    chnl=0 
char id=33      x=469  y=81   width=13   height=63   xoffset=8    yoffset=17   xadvance=29   page=0    chnl=0 
char id=34      x=154  y=433  width=27   height=28   xoffset=4    yoffset=17   xadvance=35   page=0    chnl=0 
char id=35      x=34   y=145  width=43   height=63   xoffset=0    yoffset=17   xadvance=43   page=0    chnl=0 
char id=36      x=321  y=0    width=37   height=71   xoffset=3    yoffset=14   xadvance=43   page=0    chnl=0 
char id=37      x=0    y=81   width=68   height=64   xoffset=2    yoffset=17   xadvance=72   page=0    chnl=0 
char id=38      x=77   y=145  width=64   height=63   xoffset=2    yoffset=17   xadvance=67   page=0    chnl=0 
char id=39      x=500  y=0    width=11   height=28   xoffset=2    yoffset=17   xadvance=15   page=0    chnl=0 
char id=40      x=32   y=0    width=26   height=81   xoffset=2    yoffset=16   xadvance=29   page=0    chnl=0 
char id=41      x=58   y=0    width=27   height=81   xoffset=0    yoffset=16   xadvance=29   page=0    chnl=0 
char id=42      x=81   y=433  width=33   height=38   xoffset=5    yoffset=16   xadvance=43   page=0    chnl=0 
char id=43      x=380  y=329  width=48   height=49   xoffset=0    yoffset=24   xadvance=49   page=0    chnl=0 
char id=44      x=181  y=433  width=16   height=26   xoffset=3    yoffset=67   xadvance=22   page=0    chnl=0 
char id=45      x=322  y=433  width=25   height=9    xoffset=2    yoffset=53   xadvance=29   page=0    chnl=0 
char id=46      x=310  y=433  width=12   height=13   xoffset=5    yoffset=67   xadvance=22   page=0    chnl=0 
char id=47      x=446  y=0    width=27   height=64   xoffset=-1   yoffset=16   xadvance=24   page=0    chnl=0 
char id=48      x=430  y=81   width=39   height=63   xoffset=2    yoffset=17   xadvance=43   page=0    chnl=0 
char id=49      x=233  y=208  width=25   height=61   xoffset=9    yoffset=17   xadvance=43   page=0    chnl=0 
char id=50      x=258  y=208  width=41   height=61   xoffset=0    yoffset=17   xadvance=43   page=0    chnl=0 
char id=51      x=281  y=81   width=35   height=63   xoffset=2    yoffset=17   xadvance=43   page=0    chnl=0 
char id=52      x=299  y=208  width=42   height=61   xoffset=0    yoffset=17   xadvance=43   page=0    chnl=0 
char id=53      x=341  y=208  width=36   height=61   xoffset=3    yoffset=19   xadvance=43   page=0    chnl=0 
char id=54      x=316  y=81   width=39   height=63   xoffset=2    yoffset=17   xadvance=43   page=0    chnl=0 
char id=55      x=377  y=208  width=39   height=61   xoffset=2    yoffset=19   xadvance=43   page=0    chnl=0 
char id=56      x=355  y=81   width=36   height=63   xoffset=4    yoffset=17   xadvance=43   page=0    chnl=0 
char id=57      x=391  y=81   width=39   height=63   xoffset=2    yoffset=17   xadvance=43   page=0    chnl=0 
char id=58      x=154  y=388  width=12   height=44   xoffset=6    yoffset=36   xadvance=24   page=0    chnl=0 
char id=59      x=337  y=329  width=16   height=57   xoffset=4    yoffset=36   xadvance=24   page=0    chnl=0 
char id=60      x=428  y=329  width=48   height=45   xoffset=0    yoffset=26   xadvance=49   page=0    chnl=0 
char id=61      x=197  y=433  width=48   height=21   xoffset=0    yoffset=38   xadvance=49   page=0    chnl=0 
char id=62      x=0    y=388  width=48   height=45   xoffset=0    yoffset=26   xadvance=49   page=0    chnl=0 
char id=63      x=0    y=145  width=34   height=63   xoffset=2    yoffset=17   xadvance=38   page=0    chnl=0 
char id=64      x=145  y=0    width=76   height=81   xoffset=3    yoffset=16   xadvance=79   page=0    chnl=0 
char id=65      x=300  y=145  width=64   height=61   xoffset=-1   yoffset=17   xadvance=62   page=0    chnl=0 
char id=66      x=45   y=269  width=54   height=59   xoffset=0    yoffset=19   xadvance=57   page=0    chnl=0 
char id=67      x=68   y=81   width=54   height=63   xoffset=2    yoffset=17   xadvance=57   page=0    chnl=0 
char id=68      x=99   y=269  width=60   height=59   xoffset=0    yoffset=19   xadvance=62   page=0    chnl=0 
char id=69      x=159  y=269  width=52   height=59   xoffset=0    yoffset=19   xadvance=53   page=0    chnl=0 
char id=70      x=211  y=269  width=46   height=59   xoffset=0    yoffset=19   xadvance=48   page=0    chnl=0 
char id=71      x=122  y=81   width=60   height=63   xoffset=2    yoffset=17   xadvance=62   page=0    chnl=0 
char id=72      x=257  y=269  width=62   height=59   xoffset=0    yoffset=19   xadvance=62   page=0    chnl=0 
char id=73      x=482  y=208  width=27   height=59   xoffset=1    yoffset=19   xadvance=29   page=0    chnl=0 
char id=74      x=364  y=145  width=34   height=61   xoffset=0    yoffset=19   xadvance=33   page=0    chnl=0 
char id=75      x=319  y=269  width=64   height=59   xoffset=0    yoffset=19   xadvance=62   page=0    chnl=0 
char id=76      x=383  y=269  width=52   height=59   xoffset=0    yoffset=19   xadvance=53   page=0    chnl=0 
char id=77      x=435  y=269  width=76   height=59   xoffset=0    yoffset=19   xadvance=76   page=0    chnl=0 
char id=78      x=416  y=208  width=66   height=60   xoffset=-3   yoffset=19   xadvance=62   page=0    chnl=0 
char id=79      x=182  y=81   width=58   height=63   xoffset=2    yoffset=17   xadvance=62   page=0    chnl=0 
char id=80      x=0    y=329  width=46   height=59   xoffset=0    yoffset=19   xadvance=48   page=0    chnl=0 
char id=81      x=263  y=0    width=58   height=78   xoffset=2    yoffset=17   xadvance=62   page=0    chnl=0 
char id=82      x=46   y=329  width=61   height=59   xoffset=0    yoffset=19   xadvance=57   page=0    chnl=0 
char id=83      x=240  y=81   width=41   height=63   xoffset=4    yoffset=17   xadvance=48   page=0    chnl=0 
char id=84      x=107  y=329  width=51   height=59   xoffset=1    yoffset=19   xadvance=53   page=0    chnl=0 
char id=85      x=398  y=145  width=64   height=61   xoffset=-1   yoffset=19   xadvance=62   page=0    chnl=0 
char id=86      x=0    y=208  width=64   height=61   xoffset=-1   yoffset=19   xadvance=62   page=0    chnl=0 
char id=87      x=64   y=208  width=82   height=61   xoffset=0    yoffset=19   xadvance=81   page=0    chnl=0 
char id=88      x=158  y=329  width=64   height=59   xoffset=-1   yoffset=19   xadvance=62   page=0    chnl=0 
char id=89      x=222  y=329  width=63   height=59   xoffset=-1   yoffset=19   xadvance=62   page=0    chnl=0 
char id=90      x=285  y=329  width=52   height=59   xoffset=0    yoffset=19   xadvance=53   page=0    chnl=0 
char id=91      x=221  y=0    width=21   height=79   xoffset=6    yoffset=17   xadvance=29   page=0    chnl=0 
char id=92      x=473  y=0    width=27   height=64   xoffset=-1   yoffset=16   xadvance=24   page=0    chnl=0 
char id=93      x=242  y=0    width=21   height=79   xoffset=2    yoffset=17   xadvance=29   page=0    chnl=0 
char id=94      x=114  y=433  width=40   height=33   xoffset=0    yoffset=17   xadvance=40   page=0    chnl=0 
char id=95      x=347  y=433  width=47   height=6    xoffset=-2   yoffset=91   xadvance=43   page=0    chnl=0 
char id=96      x=245  y=433  width=17   height=18   xoffset=3    yoffset=17   xadvance=29   page=0    chnl=0 
char id=97      x=166  y=388  width=38   height=43   xoffset=2    yoffset=36   xadvance=38   page=0    chnl=0 
char id=98      x=358  y=0    width=44   height=64   xoffset=-2   yoffset=16   xadvance=43   page=0    chnl=0 
char id=99      x=48   y=388  width=36   height=44   xoffset=1    yoffset=36   xadvance=38   page=0    chnl=0 
char id=100     x=402  y=0    width=44   height=64   xoffset=1    yoffset=16   xadvance=43   page=0    chnl=0 
char id=101     x=476  y=329  width=35   height=44   xoffset=2    yoffset=36   xadvance=38   page=0    chnl=0 
char id=102     x=141  y=145  width=45   height=62   xoffset=2    yoffset=16   xadvance=29   page=0    chnl=0 
char id=103     x=462  y=145  width=42   height=61   xoffset=1    yoffset=36   xadvance=43   page=0    chnl=0 
char id=104     x=186  y=145  width=45   height=62   xoffset=-1   yoffset=16   xadvance=43   page=0    chnl=0 
char id=105     x=482  y=81   width=22   height=62   xoffset=1    yoffset=16   xadvance=24   page=0    chnl=0 
char id=106     x=0    y=0    width=32   height=81   xoffset=-8   yoffset=16   xadvance=24   page=0    chnl=0 
char id=107     x=231  y=145  width=46   height=62   xoffset=-1   yoffset=16   xadvance=43   page=0    chnl=0 
char id=108     x=277  y=145  width=23   height=62   xoffset=1    yoffset=16   xadvance=24   page=0    chnl=0 
char id=109     x=358  y=388  width=69   height=42   xoffset=-1   yoffset=36   xadvance=67   page=0    chnl=0 
char id=110     x=427  y=388  width=45   height=42   xoffset=-1   yoffset=36   xadvance=43   page=0    chnl=0 
char id=111     x=84   y=388  width=41   height=44   xoffset=1    yoffset=36   xadvance=43   page=0    chnl=0 
char id=112     x=146  y=208  width=44   height=61   xoffset=-2   yoffset=36   xadvance=43   page=0    chnl=0 
char id=113     x=190  y=208  width=43   height=61   xoffset=1    yoffset=36   xadvance=43   page=0    chnl=0 
char id=114     x=472  y=388  width=32   height=42   xoffset=-1   yoffset=36   xadvance=29   page=0    chnl=0 
char id=115     x=125  y=388  width=29   height=44   xoffset=3    yoffset=36   xadvance=33   page=0    chnl=0 
char id=116     x=353  y=329  width=27   height=55   xoffset=-1   yoffset=24   xadvance=24   page=0    chnl=0 
char id=117     x=204  y=388  width=45   height=43   xoffset=-1   yoffset=37   xadvance=43   page=0    chnl=0 
char id=118     x=249  y=388  width=45   height=43   xoffset=-1   yoffset=37   xadvance=43   page=0    chnl=0 
char id=119     x=294  y=388  width=64   height=43   xoffset=-1   yoffset=37   xadvance=62   page=0    chnl=0 
char id=120     x=0    y=433  width=43   height=41   xoffset=0    yoffset=37   xadvance=43   page=0    chnl=0 
char id=121     x=0    y=269  width=45   height=60   xoffset=-1   yoffset=37   xadvance=43   page=0    chnl=0 
char id=122     x=43   y=433  width=38   height=41   xoffset=0    yoffset=37   xadvance=38   page=0    chnl=0 
char id=123     x=85   y=0    width=27   height=81   xoffset=10   yoffset=16   xadvance=41   page=0    chnl=0 
char id=124     x=138  y=0    width=7    height=81   xoffset=5    yoffset=16   xadvance=17   page=0    chnl=0 
char id=125     x=112  y=0    width=26   height=81   xoffset=6    yoffset=16   xadvance=41   page=0    chnl=0 
char id=126     x=262  y=433  width=48   height=15   xoffset=-1   yoffset=47   xadvance=47   page=0    chnl=0 
