info face="TimesNewRomanPSMT" size=51 bold=0 italic=0 charset="" unicode=0 stretchH=100 smooth=1 aa=1 padding=1,1,1,1 spacing=-2,-2
common lineHeight=60 base=46 scaleW=512 scaleH=512 pages=1 packed=0
page id=0 file="nomor_51.png"
chars count=96
char id=10      x=0    y=0    width=0    height=0    xoffset=-1   yoffset=0    xadvance=0    page=0    chnl=0 
char id=32      x=0    y=0    width=0    height=0    xoffset=-1   yoffset=0    xadvance=13   page=0    chnl=0 
char id=33      x=231  y=50   width=9    height=38   xoffset=4    yoffset=10   xadvance=17   page=0    chnl=0 
char id=34      x=492  y=125  width=17   height=18   xoffset=2    yoffset=10   xadvance=21   page=0    chnl=0 
char id=35      x=261  y=50   width=27   height=38   xoffset=-1   yoffset=10   xadvance=26   page=0    chnl=0 
char id=36      x=199  y=0    width=23   height=43   xoffset=1    yoffset=8    xadvance=26   page=0    chnl=0 
char id=37      x=310  y=0    width=42   height=39   xoffset=0    yoffset=10   xadvance=42   page=0    chnl=0 
char id=38      x=288  y=50   width=40   height=38   xoffset=0    yoffset=10   xadvance=40   page=0    chnl=0 
char id=39      x=281  y=161  width=8    height=18   xoffset=1    yoffset=10   xadvance=9    page=0    chnl=0 
char id=40      x=103  y=0    width=16   height=49   xoffset=1    yoffset=9    xadvance=17   page=0    chnl=0 
char id=41      x=119  y=0    width=16   height=49   xoffset=0    yoffset=9    xadvance=17   page=0    chnl=0 
char id=42      x=235  y=161  width=21   height=24   xoffset=2    yoffset=9    xadvance=26   page=0    chnl=0 
char id=43      x=281  y=125  width=30   height=30   xoffset=-1   yoffset=14   xadvance=29   page=0    chnl=0 
char id=44      x=289  y=161  width=11   height=16   xoffset=1    yoffset=40   xadvance=13   page=0    chnl=0 
char id=45      x=381  y=161  width=15   height=7    xoffset=1    yoffset=31   xadvance=17   page=0    chnl=0 
char id=46      x=372  y=161  width=9    height=8    xoffset=2    yoffset=40   xadvance=13   page=0    chnl=0 
char id=47      x=276  y=0    width=17   height=39   xoffset=-1   yoffset=9    xadvance=14   page=0    chnl=0 
char id=48      x=206  y=50   width=25   height=38   xoffset=0    yoffset=10   xadvance=26   page=0    chnl=0 
char id=49      x=132  y=88   width=17   height=37   xoffset=4    yoffset=10   xadvance=26   page=0    chnl=0 
char id=50      x=149  y=88   width=25   height=37   xoffset=0    yoffset=10   xadvance=26   page=0    chnl=0 
char id=51      x=114  y=50   width=22   height=38   xoffset=1    yoffset=10   xadvance=26   page=0    chnl=0 
char id=52      x=174  y=88   width=26   height=37   xoffset=-1   yoffset=10   xadvance=26   page=0    chnl=0 
char id=53      x=200  y=88   width=23   height=37   xoffset=1    yoffset=11   xadvance=26   page=0    chnl=0 
char id=54      x=136  y=50   width=24   height=38   xoffset=1    yoffset=10   xadvance=26   page=0    chnl=0 
char id=55      x=223  y=88   width=25   height=37   xoffset=0    yoffset=11   xadvance=26   page=0    chnl=0 
char id=56      x=160  y=50   width=22   height=38   xoffset=2    yoffset=10   xadvance=26   page=0    chnl=0 
char id=57      x=182  y=50   width=24   height=38   xoffset=1    yoffset=10   xadvance=26   page=0    chnl=0 
char id=58      x=484  y=125  width=8    height=27   xoffset=3    yoffset=21   xadvance=14   page=0    chnl=0 
char id=59      x=254  y=125  width=10   height=35   xoffset=2    yoffset=21   xadvance=14   page=0    chnl=0 
char id=60      x=311  y=125  width=30   height=28   xoffset=-1   yoffset=15   xadvance=29   page=0    chnl=0 
char id=61      x=300  y=161  width=30   height=13   xoffset=-1   yoffset=23   xadvance=29   page=0    chnl=0 
char id=62      x=341  y=125  width=30   height=28   xoffset=-1   yoffset=15   xadvance=29   page=0    chnl=0 
char id=63      x=240  y=50   width=21   height=38   xoffset=1    yoffset=10   xadvance=23   page=0    chnl=0 
char id=64      x=57   y=0    width=46   height=50   xoffset=1    yoffset=9    xadvance=47   page=0    chnl=0 
char id=65      x=328  y=50   width=39   height=37   xoffset=-1   yoffset=10   xadvance=37   page=0    chnl=0 
char id=66      x=248  y=88   width=34   height=36   xoffset=-1   yoffset=11   xadvance=34   page=0    chnl=0 
char id=67      x=352  y=0    width=34   height=38   xoffset=0    yoffset=10   xadvance=34   page=0    chnl=0 
char id=68      x=282  y=88   width=37   height=36   xoffset=-1   yoffset=11   xadvance=37   page=0    chnl=0 
char id=69      x=319  y=88   width=31   height=36   xoffset=0    yoffset=11   xadvance=31   page=0    chnl=0 
char id=70      x=350  y=88   width=29   height=36   xoffset=-1   yoffset=11   xadvance=28   page=0    chnl=0 
char id=71      x=386  y=0    width=38   height=38   xoffset=0    yoffset=10   xadvance=37   page=0    chnl=0 
char id=72      x=379  y=88   width=38   height=36   xoffset=-1   yoffset=11   xadvance=37   page=0    chnl=0 
char id=73      x=417  y=88   width=17   height=36   xoffset=0    yoffset=11   xadvance=17   page=0    chnl=0 
char id=74      x=367  y=50   width=21   height=37   xoffset=0    yoffset=11   xadvance=20   page=0    chnl=0 
char id=75      x=434  y=88   width=40   height=36   xoffset=-1   yoffset=11   xadvance=37   page=0    chnl=0 
char id=76      x=474  y=88   width=32   height=36   xoffset=0    yoffset=11   xadvance=31   page=0    chnl=0 
char id=77      x=0    y=125  width=47   height=36   xoffset=-1   yoffset=11   xadvance=45   page=0    chnl=0 
char id=78      x=388  y=50   width=40   height=37   xoffset=-2   yoffset=11   xadvance=37   page=0    chnl=0 
char id=79      x=424  y=0    width=36   height=38   xoffset=0    yoffset=10   xadvance=37   page=0    chnl=0 
char id=80      x=47   y=125  width=29   height=36   xoffset=-1   yoffset=11   xadvance=28   page=0    chnl=0 
char id=81      x=163  y=0    width=36   height=47   xoffset=0    yoffset=10   xadvance=37   page=0    chnl=0 
char id=82      x=76   y=125  width=37   height=36   xoffset=-1   yoffset=11   xadvance=34   page=0    chnl=0 
char id=83      x=460  y=0    width=25   height=38   xoffset=2    yoffset=10   xadvance=28   page=0    chnl=0 
char id=84      x=113  y=125  width=31   height=36   xoffset=0    yoffset=11   xadvance=31   page=0    chnl=0 
char id=85      x=428  y=50   width=39   height=37   xoffset=-1   yoffset=11   xadvance=37   page=0    chnl=0 
char id=86      x=467  y=50   width=39   height=37   xoffset=-1   yoffset=11   xadvance=37   page=0    chnl=0 
char id=87      x=0    y=88   width=50   height=37   xoffset=-1   yoffset=11   xadvance=48   page=0    chnl=0 
char id=88      x=144  y=125  width=39   height=36   xoffset=-1   yoffset=11   xadvance=37   page=0    chnl=0 
char id=89      x=183  y=125  width=39   height=36   xoffset=-1   yoffset=11   xadvance=37   page=0    chnl=0 
char id=90      x=222  y=125  width=32   height=36   xoffset=-1   yoffset=11   xadvance=31   page=0    chnl=0 
char id=91      x=135  y=0    width=14   height=48   xoffset=3    yoffset=10   xadvance=17   page=0    chnl=0 
char id=92      x=293  y=0    width=17   height=39   xoffset=-1   yoffset=9    xadvance=14   page=0    chnl=0 
char id=93      x=149  y=0    width=14   height=48   xoffset=0    yoffset=10   xadvance=17   page=0    chnl=0 
char id=94      x=256  y=161  width=25   height=21   xoffset=-1   yoffset=10   xadvance=24   page=0    chnl=0 
char id=95      x=396  y=161  width=29   height=6    xoffset=-2   yoffset=53   xadvance=26   page=0    chnl=0 
char id=96      x=330  y=161  width=12   height=11   xoffset=1    yoffset=10   xadvance=17   page=0    chnl=0 
char id=97      x=371  y=125  width=24   height=27   xoffset=0    yoffset=21   xadvance=23   page=0    chnl=0 
char id=98      x=222  y=0    width=27   height=39   xoffset=-2   yoffset=9    xadvance=26   page=0    chnl=0 
char id=99      x=395  y=125  width=22   height=27   xoffset=0    yoffset=21   xadvance=23   page=0    chnl=0 
char id=100     x=249  y=0    width=27   height=39   xoffset=0    yoffset=9    xadvance=26   page=0    chnl=0 
char id=101     x=417  y=125  width=23   height=27   xoffset=0    yoffset=21   xadvance=23   page=0    chnl=0 
char id=102     x=0    y=50   width=29   height=38   xoffset=0    yoffset=9    xadvance=17   page=0    chnl=0 
char id=103     x=485  y=0    width=26   height=38   xoffset=0    yoffset=21   xadvance=26   page=0    chnl=0 
char id=104     x=29   y=50   width=28   height=38   xoffset=-1   yoffset=9    xadvance=26   page=0    chnl=0 
char id=105     x=57   y=50   width=14   height=38   xoffset=0    yoffset=9    xadvance=14   page=0    chnl=0 
char id=106     x=0    y=0    width=19   height=50   xoffset=-5   yoffset=9    xadvance=14   page=0    chnl=0 
char id=107     x=71   y=50   width=28   height=38   xoffset=-1   yoffset=9    xadvance=26   page=0    chnl=0 
char id=108     x=99   y=50   width=15   height=38   xoffset=0    yoffset=9    xadvance=14   page=0    chnl=0 
char id=109     x=0    y=161  width=42   height=26   xoffset=-1   yoffset=21   xadvance=40   page=0    chnl=0 
char id=110     x=42   y=161  width=28   height=26   xoffset=-1   yoffset=21   xadvance=26   page=0    chnl=0 
char id=111     x=440  y=125  width=25   height=27   xoffset=0    yoffset=21   xadvance=26   page=0    chnl=0 
char id=112     x=50   y=88   width=27   height=37   xoffset=-2   yoffset=21   xadvance=26   page=0    chnl=0 
char id=113     x=77   y=88   width=27   height=37   xoffset=0    yoffset=21   xadvance=26   page=0    chnl=0 
char id=114     x=70   y=161  width=20   height=26   xoffset=-1   yoffset=21   xadvance=17   page=0    chnl=0 
char id=115     x=465  y=125  width=19   height=27   xoffset=1    yoffset=21   xadvance=20   page=0    chnl=0 
char id=116     x=264  y=125  width=17   height=34   xoffset=-1   yoffset=14   xadvance=14   page=0    chnl=0 
char id=117     x=90   y=161  width=28   height=26   xoffset=-1   yoffset=22   xadvance=26   page=0    chnl=0 
char id=118     x=118  y=161  width=28   height=26   xoffset=-1   yoffset=22   xadvance=26   page=0    chnl=0 
char id=119     x=146  y=161  width=39   height=26   xoffset=-1   yoffset=22   xadvance=37   page=0    chnl=0 
char id=120     x=185  y=161  width=27   height=25   xoffset=-1   yoffset=22   xadvance=26   page=0    chnl=0 
char id=121     x=104  y=88   width=28   height=37   xoffset=-1   yoffset=22   xadvance=26   page=0    chnl=0 
char id=122     x=212  y=161  width=23   height=25   xoffset=0    yoffset=22   xadvance=23   page=0    chnl=0 
char id=123     x=19   y=0    width=16   height=50   xoffset=6    yoffset=9    xadvance=24   page=0    chnl=0 
char id=124     x=52   y=0    width=5    height=50   xoffset=3    yoffset=9    xadvance=10   page=0    chnl=0 
char id=125     x=35   y=0    width=17   height=50   xoffset=3    yoffset=9    xadvance=24   page=0    chnl=0 
char id=126     x=342  y=161  width=30   height=10   xoffset=-1   yoffset=28   xadvance=28   page=0    chnl=0 
