info face="TimesNewRomanPSMT" size=27 bold=0 italic=0 charset="" unicode=0 stretchH=100 smooth=1 aa=1 padding=1,1,1,1 spacing=-2,-2
common lineHeight=32 base=25 scaleW=512 scaleH=512 pages=1 packed=0
page id=0 file="nomor_27.png"
chars count=96
char id=10      x=0    y=0    width=0    height=0    xoffset=-1   yoffset=0    xadvance=0    page=0    chnl=0 
char id=32      x=0    y=0    width=0    height=0    xoffset=-1   yoffset=0    xadvance=7    page=0    chnl=0 
char id=33      x=316  y=0    width=5    height=22   xoffset=2    yoffset=5    xadvance=9    page=0    chnl=0 
char id=34      x=315  y=48   width=11   height=11   xoffset=0    yoffset=5    xadvance=11   page=0    chnl=0 
char id=35      x=377  y=0    width=16   height=22   xoffset=-1   yoffset=5    xadvance=14   page=0    chnl=0 
char id=36      x=123  y=0    width=14   height=25   xoffset=0    yoffset=4    xadvance=14   page=0    chnl=0 
char id=37      x=353  y=0    width=24   height=22   xoffset=-1   yoffset=5    xadvance=22   page=0    chnl=0 
char id=38      x=393  y=0    width=23   height=22   xoffset=-1   yoffset=5    xadvance=21   page=0    chnl=0 
char id=39      x=326  y=48   width=5    height=11   xoffset=0    yoffset=5    xadvance=5    page=0    chnl=0 
char id=40      x=34   y=0    width=10   height=27   xoffset=0    yoffset=5    xadvance=9    page=0    chnl=0 
char id=41      x=44   y=0    width=10   height=27   xoffset=-1   yoffset=5    xadvance=9    page=0    chnl=0 
char id=42      x=287  y=48   width=13   height=14   xoffset=0    yoffset=5    xadvance=14   page=0    chnl=0 
char id=43      x=28   y=48   width=17   height=18   xoffset=-1   yoffset=7    xadvance=15   page=0    chnl=0 
char id=44      x=331  y=48   width=7    height=10   xoffset=0    yoffset=21   xadvance=7    page=0    chnl=0 
char id=45      x=385  y=48   width=9    height=5    xoffset=0    yoffset=16   xadvance=9    page=0    chnl=0 
char id=46      x=362  y=48   width=6    height=6    xoffset=0    yoffset=21   xadvance=7    page=0    chnl=0 
char id=47      x=333  y=0    width=10   height=22   xoffset=-1   yoffset=5    xadvance=8    page=0    chnl=0 
char id=48      x=301  y=0    width=15   height=22   xoffset=-1   yoffset=5    xadvance=14   page=0    chnl=0 
char id=49      x=164  y=27   width=10   height=21   xoffset=2    yoffset=5    xadvance=14   page=0    chnl=0 
char id=50      x=174  y=27   width=15   height=21   xoffset=-1   yoffset=5    xadvance=14   page=0    chnl=0 
char id=51      x=247  y=0    width=13   height=22   xoffset=0    yoffset=5    xadvance=14   page=0    chnl=0 
char id=52      x=189  y=27   width=15   height=21   xoffset=-1   yoffset=5    xadvance=14   page=0    chnl=0 
char id=53      x=204  y=27   width=13   height=21   xoffset=0    yoffset=6    xadvance=14   page=0    chnl=0 
char id=54      x=260  y=0    width=14   height=22   xoffset=0    yoffset=5    xadvance=14   page=0    chnl=0 
char id=55      x=217  y=27   width=14   height=21   xoffset=0    yoffset=6    xadvance=14   page=0    chnl=0 
char id=56      x=274  y=0    width=13   height=22   xoffset=0    yoffset=5    xadvance=14   page=0    chnl=0 
char id=57      x=287  y=0    width=14   height=22   xoffset=0    yoffset=5    xadvance=14   page=0    chnl=0 
char id=58      x=166  y=48   width=6    height=16   xoffset=1    yoffset=11   xadvance=8    page=0    chnl=0 
char id=59      x=503  y=27   width=7    height=20   xoffset=0    yoffset=11   xadvance=8    page=0    chnl=0 
char id=60      x=172  y=48   width=17   height=16   xoffset=-1   yoffset=8    xadvance=15   page=0    chnl=0 
char id=61      x=345  y=48   width=17   height=8    xoffset=-1   yoffset=12   xadvance=15   page=0    chnl=0 
char id=62      x=189  y=48   width=17   height=16   xoffset=-1   yoffset=8    xadvance=15   page=0    chnl=0 
char id=63      x=321  y=0    width=12   height=22   xoffset=0    yoffset=5    xadvance=12   page=0    chnl=0 
char id=64      x=97   y=0    width=26   height=27   xoffset=0    yoffset=5    xadvance=25   page=0    chnl=0 
char id=65      x=416  y=0    width=22   height=21   xoffset=-1   yoffset=5    xadvance=19   page=0    chnl=0 
char id=66      x=231  y=27   width=19   height=20   xoffset=-1   yoffset=6    xadvance=18   page=0    chnl=0 
char id=67      x=137  y=0    width=20   height=22   xoffset=-1   yoffset=5    xadvance=18   page=0    chnl=0 
char id=68      x=250  y=27   width=21   height=20   xoffset=-1   yoffset=6    xadvance=19   page=0    chnl=0 
char id=69      x=271  y=27   width=18   height=20   xoffset=-1   yoffset=6    xadvance=16   page=0    chnl=0 
char id=70      x=289  y=27   width=16   height=20   xoffset=-1   yoffset=6    xadvance=15   page=0    chnl=0 
char id=71      x=157  y=0    width=22   height=22   xoffset=-1   yoffset=5    xadvance=19   page=0    chnl=0 
char id=72      x=305  y=27   width=21   height=20   xoffset=-1   yoffset=6    xadvance=19   page=0    chnl=0 
char id=73      x=326  y=27   width=11   height=20   xoffset=-1   yoffset=6    xadvance=9    page=0    chnl=0 
char id=74      x=438  y=0    width=13   height=21   xoffset=-1   yoffset=6    xadvance=11   page=0    chnl=0 
char id=75      x=337  y=27   width=22   height=20   xoffset=-1   yoffset=6    xadvance=19   page=0    chnl=0 
char id=76      x=359  y=27   width=18   height=20   xoffset=-1   yoffset=6    xadvance=16   page=0    chnl=0 
char id=77      x=377  y=27   width=26   height=20   xoffset=-1   yoffset=6    xadvance=24   page=0    chnl=0 
char id=78      x=451  y=0    width=23   height=21   xoffset=-2   yoffset=6    xadvance=19   page=0    chnl=0 
char id=79      x=179  y=0    width=21   height=22   xoffset=-1   yoffset=5    xadvance=19   page=0    chnl=0 
char id=80      x=403  y=27   width=17   height=20   xoffset=-1   yoffset=6    xadvance=15   page=0    chnl=0 
char id=81      x=0    y=0    width=21   height=27   xoffset=-1   yoffset=5    xadvance=19   page=0    chnl=0 
char id=82      x=420  y=27   width=21   height=20   xoffset=-1   yoffset=6    xadvance=18   page=0    chnl=0 
char id=83      x=200  y=0    width=15   height=22   xoffset=0    yoffset=5    xadvance=15   page=0    chnl=0 
char id=84      x=441  y=27   width=18   height=20   xoffset=-1   yoffset=6    xadvance=16   page=0    chnl=0 
char id=85      x=474  y=0    width=22   height=21   xoffset=-1   yoffset=6    xadvance=19   page=0    chnl=0 
char id=86      x=0    y=27   width=22   height=21   xoffset=-1   yoffset=6    xadvance=19   page=0    chnl=0 
char id=87      x=22   y=27   width=28   height=21   xoffset=-1   yoffset=6    xadvance=25   page=0    chnl=0 
char id=88      x=459  y=27   width=22   height=20   xoffset=-1   yoffset=6    xadvance=19   page=0    chnl=0 
char id=89      x=481  y=27   width=22   height=20   xoffset=-1   yoffset=6    xadvance=19   page=0    chnl=0 
char id=90      x=0    y=48   width=18   height=20   xoffset=-1   yoffset=6    xadvance=16   page=0    chnl=0 
char id=91      x=54   y=0    width=9    height=27   xoffset=1    yoffset=5    xadvance=9    page=0    chnl=0 
char id=92      x=343  y=0    width=10   height=22   xoffset=-1   yoffset=5    xadvance=8    page=0    chnl=0 
char id=93      x=63   y=0    width=9    height=27   xoffset=-1   yoffset=5    xadvance=9    page=0    chnl=0 
char id=94      x=300  y=48   width=15   height=13   xoffset=-1   yoffset=5    xadvance=13   page=0    chnl=0 
char id=95      x=394  y=48   width=17   height=4    xoffset=-2   yoffset=28   xadvance=14   page=0    chnl=0 
char id=96      x=338  y=48   width=7    height=8    xoffset=0    yoffset=5    xadvance=9    page=0    chnl=0 
char id=97      x=45   y=48   width=14   height=16   xoffset=-1   yoffset=11   xadvance=12   page=0    chnl=0 
char id=98      x=215  y=0    width=16   height=22   xoffset=-2   yoffset=5    xadvance=14   page=0    chnl=0 
char id=99      x=59   y=48   width=14   height=16   xoffset=-1   yoffset=11   xadvance=12   page=0    chnl=0 
char id=100     x=231  y=0    width=16   height=22   xoffset=-1   yoffset=5    xadvance=14   page=0    chnl=0 
char id=101     x=73   y=48   width=13   height=16   xoffset=0    yoffset=11   xadvance=12   page=0    chnl=0 
char id=102     x=496  y=0    width=15   height=21   xoffset=0    yoffset=5    xadvance=9    page=0    chnl=0 
char id=103     x=50   y=27   width=16   height=21   xoffset=-1   yoffset=11   xadvance=14   page=0    chnl=0 
char id=104     x=66   y=27   width=16   height=21   xoffset=-1   yoffset=5    xadvance=14   page=0    chnl=0 
char id=105     x=82   y=27   width=9    height=21   xoffset=-1   yoffset=5    xadvance=8    page=0    chnl=0 
char id=106     x=21   y=0    width=13   height=27   xoffset=-4   yoffset=5    xadvance=8    page=0    chnl=0 
char id=107     x=91   y=27   width=16   height=21   xoffset=-1   yoffset=5    xadvance=14   page=0    chnl=0 
char id=108     x=107  y=27   width=9    height=21   xoffset=-1   yoffset=5    xadvance=8    page=0    chnl=0 
char id=109     x=206  y=48   width=23   height=15   xoffset=-1   yoffset=11   xadvance=21   page=0    chnl=0 
char id=110     x=229  y=48   width=16   height=15   xoffset=-1   yoffset=11   xadvance=14   page=0    chnl=0 
char id=111     x=86   y=48   width=15   height=16   xoffset=-1   yoffset=11   xadvance=14   page=0    chnl=0 
char id=112     x=116  y=27   width=16   height=21   xoffset=-2   yoffset=11   xadvance=14   page=0    chnl=0 
char id=113     x=132  y=27   width=16   height=21   xoffset=-1   yoffset=11   xadvance=14   page=0    chnl=0 
char id=114     x=245  y=48   width=12   height=15   xoffset=-1   yoffset=11   xadvance=9    page=0    chnl=0 
char id=115     x=101  y=48   width=11   height=16   xoffset=0    yoffset=11   xadvance=11   page=0    chnl=0 
char id=116     x=18   y=48   width=10   height=20   xoffset=-1   yoffset=7    xadvance=8    page=0    chnl=0 
char id=117     x=112  y=48   width=16   height=16   xoffset=-1   yoffset=11   xadvance=14   page=0    chnl=0 
char id=118     x=128  y=48   width=16   height=16   xoffset=-1   yoffset=11   xadvance=14   page=0    chnl=0 
char id=119     x=144  y=48   width=22   height=16   xoffset=-1   yoffset=11   xadvance=19   page=0    chnl=0 
char id=120     x=257  y=48   width=16   height=15   xoffset=-1   yoffset=11   xadvance=14   page=0    chnl=0 
char id=121     x=148  y=27   width=16   height=21   xoffset=-1   yoffset=11   xadvance=14   page=0    chnl=0 
char id=122     x=273  y=48   width=14   height=15   xoffset=-1   yoffset=11   xadvance=12   page=0    chnl=0 
char id=123     x=72   y=0    width=11   height=27   xoffset=2    yoffset=5    xadvance=13   page=0    chnl=0 
char id=124     x=93   y=0    width=4    height=27   xoffset=1    yoffset=5    xadvance=5    page=0    chnl=0 
char id=125     x=83   y=0    width=10   height=27   xoffset=1    yoffset=5    xadvance=13   page=0    chnl=0 
char id=126     x=368  y=48   width=17   height=6    xoffset=-1   yoffset=15   xadvance=15   page=0    chnl=0 
