info face="TimesNewRomanPSMT" size=47 bold=0 italic=0 charset="" unicode=0 stretchH=100 smooth=1 aa=1 padding=1,1,1,1 spacing=-2,-2
common lineHeight=55 base=42 scaleW=512 scaleH=512 pages=1 packed=0
page id=0 file="nomor_47.png"
chars count=96
char id=10      x=0    y=0    width=0    height=0    xoffset=-1   yoffset=0    xadvance=0    page=0    chnl=0 
char id=32      x=0    y=0    width=0    height=0    xoffset=-1   yoffset=0    xadvance=12   page=0    chnl=0 
char id=33      x=503  y=0    width=8    height=35   xoffset=4    yoffset=9    xadvance=16   page=0    chnl=0 
char id=34      x=110  y=150  width=16   height=16   xoffset=2    yoffset=9    xadvance=19   page=0    chnl=0 
char id=35      x=0    y=81   width=25   height=35   xoffset=-1   yoffset=9    xadvance=24   page=0    chnl=0 
char id=36      x=189  y=0    width=22   height=40   xoffset=1    yoffset=7    xadvance=24   page=0    chnl=0 
char id=37      x=293  y=0    width=39   height=36   xoffset=0    yoffset=9    xadvance=39   page=0    chnl=0 
char id=38      x=25   y=81   width=37   height=35   xoffset=0    yoffset=9    xadvance=37   page=0    chnl=0 
char id=39      x=503  y=116  width=8    height=16   xoffset=0    yoffset=9    xadvance=8    page=0    chnl=0 
char id=40      x=19   y=0    width=16   height=46   xoffset=0    yoffset=8    xadvance=16   page=0    chnl=0 
char id=41      x=35   y=0    width=15   height=46   xoffset=0    yoffset=8    xadvance=16   page=0    chnl=0 
char id=42      x=66   y=150  width=20   height=22   xoffset=2    yoffset=8    xadvance=24   page=0    chnl=0 
char id=43      x=154  y=116  width=28   height=27   xoffset=-1   yoffset=13   xadvance=27   page=0    chnl=0 
char id=44      x=126  y=150  width=10   height=15   xoffset=1    yoffset=36   xadvance=12   page=0    chnl=0 
char id=45      x=210  y=150  width=15   height=7    xoffset=0    yoffset=28   xadvance=16   page=0    chnl=0 
char id=46      x=202  y=150  width=8    height=8    xoffset=2    yoffset=36   xadvance=12   page=0    chnl=0 
char id=47      x=261  y=0    width=16   height=36   xoffset=-1   yoffset=8    xadvance=13   page=0    chnl=0 
char id=48      x=465  y=46   width=23   height=35   xoffset=0    yoffset=9    xadvance=24   page=0    chnl=0 
char id=49      x=66   y=116  width=15   height=34   xoffset=4    yoffset=9    xadvance=24   page=0    chnl=0 
char id=50      x=81   y=116  width=23   height=34   xoffset=0    yoffset=9    xadvance=24   page=0    chnl=0 
char id=51      x=334  y=46   width=21   height=35   xoffset=0    yoffset=9    xadvance=24   page=0    chnl=0 
char id=52      x=104  y=116  width=24   height=34   xoffset=-1   yoffset=9    xadvance=24   page=0    chnl=0 
char id=53      x=355  y=46   width=21   height=35   xoffset=1    yoffset=9    xadvance=24   page=0    chnl=0 
char id=54      x=376  y=46   width=22   height=35   xoffset=1    yoffset=9    xadvance=24   page=0    chnl=0 
char id=55      x=398  y=46   width=23   height=35   xoffset=0    yoffset=9    xadvance=24   page=0    chnl=0 
char id=56      x=421  y=46   width=21   height=35   xoffset=1    yoffset=9    xadvance=24   page=0    chnl=0 
char id=57      x=442  y=46   width=23   height=35   xoffset=0    yoffset=9    xadvance=24   page=0    chnl=0 
char id=58      x=374  y=116  width=8    height=25   xoffset=3    yoffset=19   xadvance=13   page=0    chnl=0 
char id=59      x=128  y=116  width=10   height=32   xoffset=2    yoffset=19   xadvance=13   page=0    chnl=0 
char id=60      x=382  y=116  width=28   height=25   xoffset=-1   yoffset=14   xadvance=27   page=0    chnl=0 
char id=61      x=136  y=150  width=28   height=13   xoffset=-1   yoffset=20   xadvance=27   page=0    chnl=0 
char id=62      x=410  y=116  width=28   height=25   xoffset=-1   yoffset=14   xadvance=27   page=0    chnl=0 
char id=63      x=488  y=46   width=19   height=35   xoffset=1    yoffset=9    xadvance=21   page=0    chnl=0 
char id=64      x=86   y=0    width=43   height=46   xoffset=1    yoffset=8    xadvance=43   page=0    chnl=0 
char id=65      x=62   y=81   width=36   height=34   xoffset=-1   yoffset=9    xadvance=34   page=0    chnl=0 
char id=66      x=98   y=81   width=31   height=34   xoffset=-1   yoffset=9    xadvance=31   page=0    chnl=0 
char id=67      x=332  y=0    width=31   height=35   xoffset=0    yoffset=9    xadvance=31   page=0    chnl=0 
char id=68      x=129  y=81   width=35   height=34   xoffset=-1   yoffset=9    xadvance=34   page=0    chnl=0 
char id=69      x=164  y=81   width=30   height=34   xoffset=-1   yoffset=9    xadvance=29   page=0    chnl=0 
char id=70      x=194  y=81   width=27   height=34   xoffset=-1   yoffset=9    xadvance=26   page=0    chnl=0 
char id=71      x=363  y=0    width=35   height=35   xoffset=0    yoffset=9    xadvance=34   page=0    chnl=0 
char id=72      x=221  y=81   width=35   height=34   xoffset=-1   yoffset=9    xadvance=34   page=0    chnl=0 
char id=73      x=256  y=81   width=16   height=34   xoffset=0    yoffset=9    xadvance=16   page=0    chnl=0 
char id=74      x=398  y=0    width=21   height=35   xoffset=-1   yoffset=9    xadvance=18   page=0    chnl=0 
char id=75      x=272  y=81   width=37   height=34   xoffset=-1   yoffset=9    xadvance=34   page=0    chnl=0 
char id=76      x=309  y=81   width=30   height=34   xoffset=-1   yoffset=9    xadvance=29   page=0    chnl=0 
char id=77      x=339  y=81   width=43   height=34   xoffset=-1   yoffset=9    xadvance=42   page=0    chnl=0 
char id=78      x=419  y=0    width=37   height=35   xoffset=-2   yoffset=9    xadvance=34   page=0    chnl=0 
char id=79      x=456  y=0    width=34   height=35   xoffset=0    yoffset=9    xadvance=34   page=0    chnl=0 
char id=80      x=382  y=81   width=27   height=34   xoffset=-1   yoffset=9    xadvance=26   page=0    chnl=0 
char id=81      x=129  y=0    width=34   height=44   xoffset=0    yoffset=9    xadvance=34   page=0    chnl=0 
char id=82      x=409  y=81   width=34   height=34   xoffset=-1   yoffset=9    xadvance=31   page=0    chnl=0 
char id=83      x=0    y=46   width=24   height=35   xoffset=1    yoffset=9    xadvance=26   page=0    chnl=0 
char id=84      x=443  y=81   width=29   height=34   xoffset=0    yoffset=9    xadvance=29   page=0    chnl=0 
char id=85      x=24   y=46   width=36   height=35   xoffset=-1   yoffset=9    xadvance=34   page=0    chnl=0 
char id=86      x=60   y=46   width=36   height=35   xoffset=-1   yoffset=9    xadvance=34   page=0    chnl=0 
char id=87      x=96   y=46   width=46   height=35   xoffset=-1   yoffset=9    xadvance=44   page=0    chnl=0 
char id=88      x=472  y=81   width=36   height=34   xoffset=-1   yoffset=9    xadvance=34   page=0    chnl=0 
char id=89      x=0    y=116  width=36   height=34   xoffset=-1   yoffset=9    xadvance=34   page=0    chnl=0 
char id=90      x=36   y=116  width=30   height=34   xoffset=-1   yoffset=9    xadvance=29   page=0    chnl=0 
char id=91      x=163  y=0    width=13   height=44   xoffset=2    yoffset=9    xadvance=16   page=0    chnl=0 
char id=92      x=277  y=0    width=16   height=36   xoffset=-1   yoffset=8    xadvance=13   page=0    chnl=0 
char id=93      x=176  y=0    width=13   height=44   xoffset=0    yoffset=9    xadvance=16   page=0    chnl=0 
char id=94      x=86   y=150  width=24   height=19   xoffset=-1   yoffset=9    xadvance=22   page=0    chnl=0 
char id=95      x=225  y=150  width=27   height=5    xoffset=-2   yoffset=49   xadvance=24   page=0    chnl=0 
char id=96      x=164  y=150  width=11   height=11   xoffset=1    yoffset=9    xadvance=16   page=0    chnl=0 
char id=97      x=182  y=116  width=22   height=25   xoffset=0    yoffset=19   xadvance=21   page=0    chnl=0 
char id=98      x=211  y=0    width=25   height=36   xoffset=-2   yoffset=8    xadvance=24   page=0    chnl=0 
char id=99      x=204  y=116  width=21   height=25   xoffset=0    yoffset=19   xadvance=21   page=0    chnl=0 
char id=100     x=236  y=0    width=25   height=36   xoffset=0    yoffset=8    xadvance=24   page=0    chnl=0 
char id=101     x=225  y=116  width=21   height=25   xoffset=0    yoffset=19   xadvance=21   page=0    chnl=0 
char id=102     x=142  y=46   width=26   height=35   xoffset=0    yoffset=8    xadvance=16   page=0    chnl=0 
char id=103     x=168  y=46   width=24   height=35   xoffset=0    yoffset=19   xadvance=24   page=0    chnl=0 
char id=104     x=192  y=46   width=26   height=35   xoffset=-1   yoffset=8    xadvance=24   page=0    chnl=0 
char id=105     x=490  y=0    width=13   height=35   xoffset=0    yoffset=8    xadvance=13   page=0    chnl=0 
char id=106     x=0    y=0    width=19   height=46   xoffset=-5   yoffset=8    xadvance=13   page=0    chnl=0 
char id=107     x=218  y=46   width=26   height=35   xoffset=-1   yoffset=8    xadvance=24   page=0    chnl=0 
char id=108     x=244  y=46   width=14   height=35   xoffset=0    yoffset=8    xadvance=13   page=0    chnl=0 
char id=109     x=438  y=116  width=39   height=24   xoffset=-1   yoffset=19   xadvance=37   page=0    chnl=0 
char id=110     x=477  y=116  width=26   height=24   xoffset=-1   yoffset=19   xadvance=24   page=0    chnl=0 
char id=111     x=246  y=116  width=23   height=25   xoffset=0    yoffset=19   xadvance=24   page=0    chnl=0 
char id=112     x=258  y=46   width=25   height=35   xoffset=-2   yoffset=19   xadvance=24   page=0    chnl=0 
char id=113     x=283  y=46   width=25   height=35   xoffset=0    yoffset=19   xadvance=24   page=0    chnl=0 
char id=114     x=0    y=150  width=18   height=24   xoffset=-1   yoffset=19   xadvance=16   page=0    chnl=0 
char id=115     x=269  y=116  width=17   height=25   xoffset=1    yoffset=19   xadvance=18   page=0    chnl=0 
char id=116     x=138  y=116  width=16   height=31   xoffset=-1   yoffset=13   xadvance=13   page=0    chnl=0 
char id=117     x=286  y=116  width=26   height=25   xoffset=-1   yoffset=19   xadvance=24   page=0    chnl=0 
char id=118     x=312  y=116  width=26   height=25   xoffset=-1   yoffset=19   xadvance=24   page=0    chnl=0 
char id=119     x=338  y=116  width=36   height=25   xoffset=-1   yoffset=19   xadvance=34   page=0    chnl=0 
char id=120     x=18   y=150  width=25   height=24   xoffset=-1   yoffset=19   xadvance=24   page=0    chnl=0 
char id=121     x=308  y=46   width=26   height=35   xoffset=-1   yoffset=19   xadvance=24   page=0    chnl=0 
char id=122     x=43   y=150  width=23   height=24   xoffset=-1   yoffset=19   xadvance=21   page=0    chnl=0 
char id=123     x=50   y=0    width=16   height=46   xoffset=5    yoffset=8    xadvance=23   page=0    chnl=0 
char id=124     x=81   y=0    width=5    height=46   xoffset=2    yoffset=8    xadvance=9    page=0    chnl=0 
char id=125     x=66   y=0    width=15   height=46   xoffset=3    yoffset=8    xadvance=23   page=0    chnl=0 
char id=126     x=175  y=150  width=27   height=9    xoffset=-1   yoffset=25   xadvance=25   page=0    chnl=0 
