info face="Times New Roman" size=160 bold=0 italic=0 charset="" unicode=0 stretchH=100 smooth=1 aa=1 padding=1,1,1,1 spacing=-2,-2
common lineHeight=184 base=146 scaleW=2048 scaleH=2048 pages=1 packed=0
page id=0 file="nomor_160.png"
chars count=97
char id=0       x=1156 y=264  width=82   height=104  xoffset=21   yoffset=43   xadvance=124  page=0    chnl=0 
char id=10      x=0    y=0    width=0    height=0    xoffset=-1   yoffset=0    xadvance=0    page=0    chnl=0 
char id=32      x=0    y=0    width=0    height=0    xoffset=-1   yoffset=0    xadvance=40   page=0    chnl=0 
char id=33      x=1994 y=0    width=21   height=113  xoffset=17   yoffset=36   xadvance=53   page=0    chnl=0 
char id=34      x=1992 y=264  width=46   height=48   xoffset=10   yoffset=36   xadvance=65   page=0    chnl=0 
char id=35      x=132  y=151  width=75   height=113  xoffset=2    yoffset=36   xadvance=80   page=0    chnl=0 
char id=36      x=576  y=0    width=68   height=131  xoffset=7    yoffset=28   xadvance=80   page=0    chnl=0 
char id=37      x=891  y=0    width=126  height=115  xoffset=4    yoffset=36   xadvance=133  page=0    chnl=0 
char id=38      x=207  y=151  width=115  height=113  xoffset=4    yoffset=36   xadvance=123  page=0    chnl=0 
char id=39      x=2015 y=0    width=18   height=48   xoffset=5    yoffset=36   xadvance=29   page=0    chnl=0 
char id=40      x=205  y=0    width=46   height=146  xoffset=5    yoffset=35   xadvance=53   page=0    chnl=0 
char id=41      x=251  y=0    width=46   height=146  xoffset=3    yoffset=35   xadvance=53   page=0    chnl=0 
char id=42      x=567  y=373  width=59   height=69   xoffset=10   yoffset=33   xadvance=80   page=0    chnl=0 
char id=43      x=1284 y=264  width=87   height=87   xoffset=2    yoffset=49   xadvance=90   page=0    chnl=0 
char id=44      x=700  y=373  width=27   height=45   xoffset=7    yoffset=128  xadvance=40   page=0    chnl=0 
char id=45      x=946  y=373  width=43   height=16   xoffset=5    yoffset=101  xadvance=53   page=0    chnl=0 
char id=46      x=926  y=373  width=20   height=20   xoffset=10   yoffset=129  xadvance=40   page=0    chnl=0 
char id=47      x=798  y=0    width=48   height=116  xoffset=-1   yoffset=33   xadvance=44   page=0    chnl=0 
char id=48      x=0    y=151  width=70   height=113  xoffset=5    yoffset=36   xadvance=80   page=0    chnl=0 
char id=49      x=1232 y=151  width=44   height=111  xoffset=18   yoffset=36   xadvance=80   page=0    chnl=0 
char id=50      x=1276 y=151  width=72   height=111  xoffset=2    yoffset=36   xadvance=80   page=0    chnl=0 
char id=51      x=1727 y=0    width=62   height=113  xoffset=5    yoffset=36   xadvance=80   page=0    chnl=0 
char id=52      x=1348 y=151  width=73   height=111  xoffset=2    yoffset=36   xadvance=80   page=0    chnl=0 
char id=53      x=1421 y=151  width=62   height=111  xoffset=7    yoffset=38   xadvance=80   page=0    chnl=0 
char id=54      x=1789 y=0    width=70   height=113  xoffset=5    yoffset=36   xadvance=80   page=0    chnl=0 
char id=55      x=1483 y=151  width=69   height=111  xoffset=5    yoffset=38   xadvance=80   page=0    chnl=0 
char id=56      x=1859 y=0    width=65   height=113  xoffset=8    yoffset=36   xadvance=80   page=0    chnl=0 
char id=57      x=1924 y=0    width=70   height=113  xoffset=5    yoffset=36   xadvance=80   page=0    chnl=0 
char id=58      x=2010 y=151  width=21   height=78   xoffset=13   yoffset=71   xadvance=44   page=0    chnl=0 
char id=59      x=1983 y=151  width=27   height=102  xoffset=10   yoffset=71   xadvance=44   page=0    chnl=0 
char id=60      x=1691 y=264  width=88   height=79   xoffset=2    yoffset=53   xadvance=90   page=0    chnl=0 
char id=61      x=727  y=373  width=87   height=34   xoffset=2    yoffset=75   xadvance=90   page=0    chnl=0 
char id=62      x=1779 y=264  width=88   height=79   xoffset=1    yoffset=53   xadvance=90   page=0    chnl=0 
char id=63      x=70   y=151  width=62   height=113  xoffset=7    yoffset=36   xadvance=73   page=0    chnl=0 
char id=64      x=0    y=0    width=138  height=151  xoffset=7    yoffset=33   xadvance=147  page=0    chnl=0 
char id=65      x=322  y=151  width=116  height=111  xoffset=-1   yoffset=36   xadvance=116  page=0    chnl=0 
char id=66      x=1552 y=151  width=98   height=109  xoffset=1    yoffset=38   xadvance=107  page=0    chnl=0 
char id=67      x=1301 y=0    width=97   height=113  xoffset=5    yoffset=36   xadvance=107  page=0    chnl=0 
char id=68      x=1650 y=151  width=111  height=109  xoffset=1    yoffset=38   xadvance=116  page=0    chnl=0 
char id=69      x=1761 y=151  width=93   height=109  xoffset=2    yoffset=38   xadvance=98   page=0    chnl=0 
char id=70      x=1854 y=151  width=81   height=109  xoffset=1    yoffset=38   xadvance=89   page=0    chnl=0 
char id=71      x=1398 y=0    width=111  height=113  xoffset=5    yoffset=36   xadvance=116  page=0    chnl=0 
char id=72      x=0    y=264  width=114  height=109  xoffset=1    yoffset=38   xadvance=116  page=0    chnl=0 
char id=73      x=1935 y=151  width=48   height=109  xoffset=2    yoffset=38   xadvance=53   page=0    chnl=0 
char id=74      x=438  y=151  width=60   height=111  xoffset=2    yoffset=38   xadvance=62   page=0    chnl=0 
char id=75      x=114  y=264  width=116  height=109  xoffset=1    yoffset=38   xadvance=116  page=0    chnl=0 
char id=76      x=230  y=264  width=92   height=109  xoffset=2    yoffset=38   xadvance=98   page=0    chnl=0 
char id=77      x=322  y=264  width=140  height=109  xoffset=1    yoffset=38   xadvance=142  page=0    chnl=0 
char id=78      x=498  y=151  width=122  height=111  xoffset=-4   yoffset=38   xadvance=116  page=0    chnl=0 
char id=79      x=1509 y=0    width=107  height=113  xoffset=5    yoffset=36   xadvance=116  page=0    chnl=0 
char id=80      x=462  y=264  width=84   height=109  xoffset=1    yoffset=38   xadvance=89   page=0    chnl=0 
char id=81      x=469  y=0    width=107  height=141  xoffset=5    yoffset=36   xadvance=116  page=0    chnl=0 
char id=82      x=546  y=264  width=111  height=109  xoffset=1    yoffset=38   xadvance=107  page=0    chnl=0 
char id=83      x=1616 y=0    width=72   height=113  xoffset=9    yoffset=36   xadvance=89   page=0    chnl=0 
char id=84      x=657  y=264  width=93   height=109  xoffset=3    yoffset=38   xadvance=97   page=0    chnl=0 
char id=85      x=620  y=151  width=116  height=111  xoffset=0    yoffset=38   xadvance=116  page=0    chnl=0 
char id=86      x=736  y=151  width=114  height=111  xoffset=0    yoffset=38   xadvance=116  page=0    chnl=0 
char id=87      x=850  y=151  width=151  height=111  xoffset=2    yoffset=38   xadvance=152  page=0    chnl=0 
char id=88      x=750  y=264  width=116  height=109  xoffset=0    yoffset=38   xadvance=116  page=0    chnl=0 
char id=89      x=866  y=264  width=115  height=109  xoffset=1    yoffset=38   xadvance=116  page=0    chnl=0 
char id=90      x=981  y=264  width=95   height=109  xoffset=0    yoffset=38   xadvance=98   page=0    chnl=0 
char id=91      x=393  y=0    width=38   height=143  xoffset=13   yoffset=36   xadvance=54   page=0    chnl=0 
char id=92      x=846  y=0    width=45   height=116  xoffset=-1   yoffset=33   xadvance=44   page=0    chnl=0 
char id=93      x=431  y=0    width=38   height=143  xoffset=4    yoffset=36   xadvance=53   page=0    chnl=0 
char id=94      x=626  y=373  width=74   height=58   xoffset=2    yoffset=36   xadvance=75   page=0    chnl=0 
char id=95      x=989  y=373  width=88   height=9    xoffset=-2   yoffset=172  xadvance=80   page=0    chnl=0 
char id=96      x=814  y=373  width=27   height=29   xoffset=7    yoffset=36   xadvance=53   page=0    chnl=0 
char id=97      x=1371 y=264  width=69   height=79   xoffset=5    yoffset=70   xadvance=71   page=0    chnl=0 
char id=98      x=644  y=0    width=78   height=116  xoffset=-1   yoffset=33   xadvance=80   page=0    chnl=0 
char id=99      x=1440 y=264  width=63   height=79   xoffset=5    yoffset=70   xadvance=71   page=0    chnl=0 
char id=100     x=722  y=0    width=76   height=116  xoffset=5    yoffset=33   xadvance=80   page=0    chnl=0 
char id=101     x=1503 y=264  width=64   height=79   xoffset=5    yoffset=70   xadvance=71   page=0    chnl=0 
char id=102     x=1017 y=0    width=82   height=114  xoffset=5    yoffset=33   xadvance=53   page=0    chnl=0 
char id=103     x=1001 y=151  width=75   height=111  xoffset=4    yoffset=70   xadvance=80   page=0    chnl=0 
char id=104     x=1099 y=0    width=82   height=114  xoffset=-1   yoffset=33   xadvance=80   page=0    chnl=0 
char id=105     x=1688 y=0    width=39   height=113  xoffset=4    yoffset=34   xadvance=44   page=0    chnl=0 
char id=106     x=147  y=0    width=58   height=147  xoffset=-14  yoffset=34   xadvance=45   page=0    chnl=0 
char id=107     x=1181 y=0    width=82   height=114  xoffset=0    yoffset=33   xadvance=80   page=0    chnl=0 
char id=108     x=1263 y=0    width=38   height=114  xoffset=5    yoffset=33   xadvance=44   page=0    chnl=0 
char id=109     x=1867 y=264  width=125  height=77   xoffset=-1   yoffset=70   xadvance=123  page=0    chnl=0 
char id=110     x=0    y=373  width=82   height=77   xoffset=-1   yoffset=70   xadvance=80   page=0    chnl=0 
char id=111     x=1567 y=264  width=72   height=79   xoffset=5    yoffset=70   xadvance=80   page=0    chnl=0 
char id=112     x=1076 y=151  width=79   height=111  xoffset=-2   yoffset=70   xadvance=80   page=0    chnl=0 
char id=113     x=1155 y=151  width=77   height=111  xoffset=5    yoffset=70   xadvance=80   page=0    chnl=0 
char id=114     x=82   y=373  width=57   height=77   xoffset=-1   yoffset=70   xadvance=53   page=0    chnl=0 
char id=115     x=1639 y=264  width=52   height=79   xoffset=7    yoffset=70   xadvance=62   page=0    chnl=0 
char id=116     x=1238 y=264  width=46   height=101  xoffset=-1   yoffset=48   xadvance=44   page=0    chnl=0 
char id=117     x=139  y=373  width=82   height=77   xoffset=-1   yoffset=72   xadvance=80   page=0    chnl=0 
char id=118     x=221  y=373  width=80   height=77   xoffset=-1   yoffset=72   xadvance=80   page=0    chnl=0 
char id=119     x=301  y=373  width=117  height=77   xoffset=-1   yoffset=72   xadvance=116  page=0    chnl=0 
char id=120     x=418  y=373  width=81   height=75   xoffset=-1   yoffset=72   xadvance=80   page=0    chnl=0 
char id=121     x=1076 y=264  width=80   height=109  xoffset=0    yoffset=72   xadvance=82   page=0    chnl=0 
char id=122     x=499  y=373  width=68   height=75   xoffset=2    yoffset=72   xadvance=71   page=0    chnl=0 
char id=123     x=297  y=0    width=48   height=146  xoffset=20   yoffset=35   xadvance=77   page=0    chnl=0 
char id=124     x=138  y=0    width=9    height=149  xoffset=10   yoffset=33   xadvance=31   page=0    chnl=0 
char id=125     x=345  y=0    width=48   height=146  xoffset=13   yoffset=35   xadvance=77   page=0    chnl=0 
char id=126     x=841  y=373  width=85   height=23   xoffset=1    yoffset=91   xadvance=87   page=0    chnl=0 
kernings count=104
kerning first=80 second=32 amount=-6
kerning first=87 second=58 amount=-6
kerning first=84 second=45 amount=-15
kerning first=89 second=65 amount=-18
kerning first=84 second=79 amount=-3
kerning first=65 second=84 amount=-18
kerning first=76 second=86 amount=-15
kerning first=82 second=87 amount=-9
kerning first=32 second=89 amount=-6
kerning first=89 second=97 amount=-16
kerning first=84 second=99 amount=-11
kerning first=89 second=101 amount=-16
kerning first=102 second=102 amount=-3
kerning first=114 second=103 amount=-3
kerning first=86 second=111 amount=-21
kerning first=89 second=112 amount=-15
kerning first=89 second=113 amount=-18
kerning first=84 second=114 amount=-6
kerning first=84 second=115 amount=-11
kerning first=89 second=117 amount=-18
kerning first=65 second=118 amount=-12
kerning first=84 second=119 amount=-11
kerning first=76 second=121 amount=-9
kerning first=119 second=44 amount=-10
kerning first=65 second=121 amount=-15
kerning first=84 second=117 amount=-6
kerning first=119 second=46 amount=-10
kerning first=65 second=119 amount=-15
kerning first=87 second=59 amount=-6
kerning first=76 second=87 amount=-12
kerning first=86 second=46 amount=-21
kerning first=65 second=89 amount=-15
kerning first=86 second=65 amount=-21
kerning first=84 second=121 amount=-11
kerning first=65 second=87 amount=-13
kerning first=86 second=105 amount=-10
kerning first=87 second=117 amount=-6
kerning first=84 second=58 amount=-8
kerning first=86 second=45 amount=-15
kerning first=80 second=44 amount=-18
kerning first=87 second=114 amount=-6
kerning first=87 second=121 amount=-10
kerning first=86 second=101 amount=-18
kerning first=80 second=65 amount=-15
kerning first=89 second=105 amount=-9
kerning first=70 second=46 amount=-13
kerning first=114 second=46 amount=-9
kerning first=89 second=111 amount=-16
kerning first=84 second=32 amount=-3
kerning first=89 second=59 amount=-15
kerning first=86 second=114 amount=-10
kerning first=32 second=87 amount=-3
kerning first=70 second=44 amount=-13
kerning first=84 second=46 amount=-12
kerning first=114 second=45 amount=-3
kerning first=76 second=32 amount=-6
kerning first=84 second=59 amount=-9
kerning first=86 second=58 amount=-12
kerning first=86 second=44 amount=-21
kerning first=65 second=32 amount=-9
kerning first=89 second=44 amount=-21
kerning first=82 second=89 amount=-9
kerning first=114 second=44 amount=-6
kerning first=87 second=32 amount=-3
kerning first=87 second=46 amount=-15
kerning first=76 second=89 amount=-16
kerning first=89 second=58 amount=-15
kerning first=84 second=101 amount=-11
kerning first=86 second=32 amount=-3
kerning first=49 second=49 amount=-6
kerning first=87 second=101 amount=-13
kerning first=86 second=121 amount=-18
kerning first=84 second=97 amount=-11
kerning first=84 second=44 amount=-12
kerning first=70 second=65 amount=-12
kerning first=86 second=59 amount=-12
kerning first=86 second=97 amount=-18
kerning first=84 second=65 amount=-13
kerning first=89 second=32 amount=-6
kerning first=89 second=46 amount=-21
kerning first=87 second=44 amount=-15
kerning first=121 second=46 amount=-10
kerning first=65 second=86 amount=-21
kerning first=82 second=84 amount=-10
kerning first=118 second=46 amount=-10
kerning first=87 second=65 amount=-18
kerning first=87 second=111 amount=-13
kerning first=82 second=86 amount=-13
kerning first=89 second=45 amount=-18
kerning first=86 second=117 amount=-10
kerning first=87 second=97 amount=-13
kerning first=32 second=84 amount=-3
kerning first=84 second=111 amount=-11
kerning first=76 second=84 amount=-15
kerning first=121 second=44 amount=-10
kerning first=32 second=86 amount=-3
kerning first=89 second=118 amount=-16
kerning first=82 second=121 amount=-6
kerning first=80 second=46 amount=-18
kerning first=32 second=65 amount=-9
kerning first=84 second=105 amount=-6
kerning first=87 second=105 amount=-6
kerning first=118 second=44 amount=-10
kerning first=87 second=45 amount=-9
