info face="TimesNewRomanPSMT" size=99 bold=0 italic=0 charset="" unicode=0 stretchH=100 smooth=1 aa=1 padding=1,1,1,1 spacing=-2,-2
common lineHeight=115 base=89 scaleW=512 scaleH=512 pages=2 packed=0
page id=0 file="nomor_991.png"
page id=1 file="nomor_992.png"
chars count=96
char id=10      x=0    y=0    width=0    height=0    xoffset=-1   yoffset=0    xadvance=0    page=0    chnl=0 
char id=32      x=0    y=0    width=0    height=0    xoffset=-1   yoffset=0    xadvance=25   page=0    chnl=0 
char id=33      x=384  y=93   width=13   height=72   xoffset=10   yoffset=20   xadvance=33   page=0    chnl=0 
char id=35      x=435  y=93   width=49   height=72   xoffset=0    yoffset=20   xadvance=50   page=0    chnl=0 
char id=36      x=364  y=0    width=42   height=82   xoffset=4    yoffset=16   xadvance=50   page=0    chnl=0 
char id=37      x=60   y=93   width=79   height=73   xoffset=2    yoffset=20   xadvance=82   page=0    chnl=0 
char id=38      x=0    y=166  width=74   height=72   xoffset=2    yoffset=20   xadvance=77   page=0    chnl=0 
char id=40      x=37   y=0    width=29   height=93   xoffset=3    yoffset=19   xadvance=33   page=0    chnl=0 
char id=41      x=66   y=0    width=29   height=93   xoffset=1    yoffset=19   xadvance=33   page=0    chnl=0 
char id=43      x=30   y=446  width=55   height=55   xoffset=0    yoffset=29   xadvance=56   page=0    chnl=0 
char id=47      x=0    y=93   width=30   height=73   xoffset=-1   yoffset=19   xadvance=28   page=0    chnl=0 
char id=48      x=427  y=166  width=45   height=71   xoffset=2    yoffset=21   xadvance=50   page=0    chnl=0 
char id=49      x=186  y=308  width=29   height=69   xoffset=10   yoffset=21   xadvance=50   page=0    chnl=0 
char id=50      x=215  y=308  width=46   height=69   xoffset=1    yoffset=21   xadvance=50   page=0    chnl=0 
char id=51      x=257  y=166  width=40   height=71   xoffset=3    yoffset=21   xadvance=50   page=0    chnl=0 
char id=52      x=261  y=308  width=48   height=69   xoffset=0    yoffset=21   xadvance=50   page=0    chnl=0 
char id=53      x=49   y=308  width=41   height=70   xoffset=3    yoffset=22   xadvance=50   page=0    chnl=0 
char id=54      x=297  y=166  width=44   height=71   xoffset=3    yoffset=21   xadvance=50   page=0    chnl=0 
char id=55      x=90   y=308  width=45   height=70   xoffset=2    yoffset=22   xadvance=50   page=0    chnl=0 
char id=56      x=341  y=166  width=41   height=71   xoffset=4    yoffset=21   xadvance=50   page=0    chnl=0 
char id=57      x=382  y=166  width=45   height=71   xoffset=2    yoffset=21   xadvance=50   page=0    chnl=0 
char id=58      x=497  y=378  width=14   height=50   xoffset=7    yoffset=42   xadvance=28   page=0    chnl=0 
char id=59      x=487  y=238  width=18   height=65   xoffset=5    yoffset=42   xadvance=28   page=0    chnl=0 
char id=60      x=246  y=446  width=55   height=50   xoffset=0    yoffset=31   xadvance=56   page=0    chnl=0 
char id=62      x=301  y=446  width=55   height=50   xoffset=0    yoffset=31   xadvance=56   page=0    chnl=0 
char id=63      x=397  y=93   width=38   height=72   xoffset=3    yoffset=20   xadvance=44   page=0    chnl=0 
char id=64      x=162  y=0    width=87   height=93   xoffset=3    yoffset=19   xadvance=91   page=0    chnl=0 
char id=65      x=0    y=238  width=73   height=70   xoffset=-1   yoffset=20   xadvance=71   page=0    chnl=0 
char id=66      x=309  y=308  width=62   height=68   xoffset=0    yoffset=22   xadvance=66   page=0    chnl=0 
char id=67      x=139  y=93   width=62   height=72   xoffset=2    yoffset=20   xadvance=66   page=0    chnl=0 
char id=68      x=371  y=308  width=69   height=68   xoffset=0    yoffset=22   xadvance=71   page=0    chnl=0 
char id=69      x=440  y=308  width=59   height=68   xoffset=1    yoffset=22   xadvance=60   page=0    chnl=0 
char id=70      x=0    y=378  width=52   height=68   xoffset=0    yoffset=22   xadvance=55   page=0    chnl=0 
char id=71      x=201  y=93   width=70   height=72   xoffset=2    yoffset=20   xadvance=71   page=0    chnl=0 
char id=72      x=52   y=378  width=71   height=68   xoffset=0    yoffset=22   xadvance=71   page=0    chnl=0 
char id=73      x=123  y=378  width=31   height=68   xoffset=1    yoffset=22   xadvance=33   page=0    chnl=0 
char id=74      x=472  y=166  width=38   height=70   xoffset=1    yoffset=22   xadvance=39   page=0    chnl=0 
char id=75      x=154  y=378  width=75   height=68   xoffset=0    yoffset=22   xadvance=71   page=0    chnl=0 
char id=76      x=229  y=378  width=60   height=68   xoffset=0    yoffset=22   xadvance=60   page=0    chnl=0 
char id=77      x=289  y=378  width=87   height=68   xoffset=0    yoffset=22   xadvance=88   page=0    chnl=0 
char id=78      x=73   y=238  width=76   height=70   xoffset=-3   yoffset=22   xadvance=71   page=0    chnl=0 
char id=79      x=271  y=93   width=67   height=72   xoffset=2    yoffset=20   xadvance=71   page=0    chnl=0 
char id=80      x=376  y=378  width=53   height=68   xoffset=0    yoffset=22   xadvance=55   page=0    chnl=0 
char id=81      x=249  y=0    width=67   height=90   xoffset=2    yoffset=20   xadvance=71   page=0    chnl=0 
char id=82      x=429  y=378  width=68   height=68   xoffset=0    yoffset=22   xadvance=66   page=0    chnl=0 
char id=83      x=338  y=93   width=46   height=72   xoffset=5    yoffset=20   xadvance=55   page=0    chnl=0 
char id=85      x=149  y=238  width=73   height=70   xoffset=-1   yoffset=22   xadvance=71   page=0    chnl=0 
char id=86      x=222  y=238  width=73   height=70   xoffset=-1   yoffset=22   xadvance=71   page=0    chnl=0 
char id=87      x=295  y=238  width=94   height=70   xoffset=0    yoffset=22   xadvance=93   page=0    chnl=0 
char id=91      x=316  y=0    width=24   height=90   xoffset=7    yoffset=20   xadvance=33   page=0    chnl=0 
char id=92      x=30   y=93   width=30   height=73   xoffset=-1   yoffset=19   xadvance=28   page=0    chnl=0 
char id=93      x=340  y=0    width=24   height=90   xoffset=2    yoffset=20   xadvance=33   page=0    chnl=0 
char id=97      x=356  y=446  width=43   height=49   xoffset=2    yoffset=42   xadvance=44   page=0    chnl=0 
char id=98      x=406  y=0    width=50   height=73   xoffset=-2   yoffset=19   xadvance=50   page=0    chnl=0 
char id=99      x=85   y=446  width=40   height=50   xoffset=2    yoffset=42   xadvance=44   page=0    chnl=0 
char id=100     x=456  y=0    width=49   height=73   xoffset=2    yoffset=19   xadvance=50   page=0    chnl=0 
char id=101     x=125  y=446  width=41   height=50   xoffset=2    yoffset=42   xadvance=44   page=0    chnl=0 
char id=102     x=74   y=166  width=53   height=71   xoffset=2    yoffset=19   xadvance=33   page=0    chnl=0 
char id=103     x=389  y=238  width=48   height=70   xoffset=1    yoffset=42   xadvance=50   page=0    chnl=0 
char id=104     x=127  y=166  width=51   height=71   xoffset=-1   yoffset=19   xadvance=50   page=0    chnl=0 
char id=105     x=484  y=93   width=26   height=71   xoffset=1    yoffset=19   xadvance=28   page=0    chnl=0 
char id=106     x=0    y=0    width=37   height=93   xoffset=-9   yoffset=19   xadvance=28   page=0    chnl=0 
char id=107     x=178  y=166  width=53   height=71   xoffset=-1   yoffset=19   xadvance=50   page=0    chnl=0 
char id=108     x=231  y=166  width=26   height=71   xoffset=1    yoffset=19   xadvance=28   page=0    chnl=0 
char id=111     x=166  y=446  width=46   height=50   xoffset=2    yoffset=42   xadvance=50   page=0    chnl=0 
char id=112     x=437  y=238  width=50   height=70   xoffset=-2   yoffset=42   xadvance=50   page=0    chnl=0 
char id=113     x=0    y=308  width=49   height=70   xoffset=2    yoffset=42   xadvance=50   page=0    chnl=0 
char id=115     x=212  y=446  width=34   height=50   xoffset=3    yoffset=42   xadvance=39   page=0    chnl=0 
char id=116     x=0    y=446  width=30   height=62   xoffset=-1   yoffset=29   xadvance=28   page=0    chnl=0 
char id=117     x=399  y=446  width=52   height=49   xoffset=-1   yoffset=43   xadvance=50   page=0    chnl=0 
char id=118     x=451  y=446  width=51   height=49   xoffset=-1   yoffset=43   xadvance=50   page=0    chnl=0 
char id=121     x=135  y=308  width=51   height=69   xoffset=-1   yoffset=43   xadvance=50   page=0    chnl=0 
char id=123     x=95   y=0    width=30   height=93   xoffset=12   yoffset=19   xadvance=48   page=0    chnl=0 
char id=124     x=155  y=0    width=7    height=93   xoffset=6    yoffset=19   xadvance=20   page=0    chnl=0 
char id=125     x=125  y=0    width=30   height=93   xoffset=7    yoffset=19   xadvance=48   page=0    chnl=0 
char id=34      x=178  y=68   width=30   height=32   xoffset=5    yoffset=20   xadvance=40   page=1    chnl=0 
char id=39      x=208  y=68   width=13   height=32   xoffset=2    yoffset=20   xadvance=18   page=1    chnl=0 
char id=42      x=94   y=68   width=38   height=43   xoffset=6    yoffset=19   xadvance=50   page=1    chnl=0 
char id=44      x=221  y=68   width=17   height=29   xoffset=4    yoffset=78   xadvance=25   page=1    chnl=0 
char id=45      x=380  y=68   width=28   height=10   xoffset=3    yoffset=62   xadvance=33   page=1    chnl=0 
char id=46      x=367  y=68   width=13   height=14   xoffset=6    yoffset=78   xadvance=25   page=1    chnl=0 
char id=61      x=238  y=68   width=55   height=23   xoffset=0    yoffset=45   xadvance=56   page=1    chnl=0 
char id=84      x=0    y=0    width=59   height=68   xoffset=1    yoffset=22   xadvance=60   page=1    chnl=0 
char id=88      x=59   y=0    width=73   height=68   xoffset=-1   yoffset=22   xadvance=71   page=1    chnl=0 
char id=89      x=132  y=0    width=73   height=68   xoffset=-1   yoffset=22   xadvance=71   page=1    chnl=0 
char id=90      x=205  y=0    width=59   height=68   xoffset=0    yoffset=22   xadvance=60   page=1    chnl=0 
char id=94      x=132  y=68   width=46   height=37   xoffset=0    yoffset=21   xadvance=46   page=1    chnl=0 
char id=95      x=408  y=68   width=54   height=7    xoffset=-2   yoffset=105  xadvance=50   page=1    chnl=0 
char id=96      x=293  y=68   width=19   height=20   xoffset=4    yoffset=20   xadvance=33   page=1    chnl=0 
char id=109     x=337  y=0    width=79   height=48   xoffset=-1   yoffset=42   xadvance=77   page=1    chnl=0 
char id=110     x=416  y=0    width=52   height=48   xoffset=-1   yoffset=42   xadvance=50   page=1    chnl=0 
char id=114     x=468  y=0    width=36   height=48   xoffset=-1   yoffset=42   xadvance=33   page=1    chnl=0 
char id=119     x=264  y=0    width=73   height=49   xoffset=-1   yoffset=43   xadvance=71   page=1    chnl=0 
char id=120     x=0    y=68   width=50   height=47   xoffset=0    yoffset=43   xadvance=50   page=1    chnl=0 
char id=122     x=50   y=68   width=44   height=47   xoffset=0    yoffset=43   xadvance=44   page=1    chnl=0 
char id=126     x=312  y=68   width=55   height=16   xoffset=-1   yoffset=55   xadvance=54   page=1    chnl=0 
