info face="TimesNewRomanPSMT" size=75 bold=0 italic=0 charset="" unicode=0 stretchH=100 smooth=1 aa=1 padding=1,1,1,1 spacing=-2,-2
common lineHeight=87 base=67 scaleW=512 scaleH=512 pages=1 packed=0
page id=0 file="nomor_75.png"
chars count=96
char id=10      x=0    y=0    width=0    height=0    xoffset=-1   yoffset=0    xadvance=0    page=0    chnl=0 
char id=32      x=0    y=0    width=0    height=0    xoffset=-1   yoffset=0    xadvance=19   page=0    chnl=0 
char id=33      x=499  y=0    width=11   height=55   xoffset=7    yoffset=15   xadvance=25   page=0    chnl=0 
char id=34      x=227  y=338  width=24   height=24   xoffset=3    yoffset=15   xadvance=31   page=0    chnl=0 
char id=35      x=385  y=72   width=38   height=55   xoffset=0    yoffset=15   xadvance=38   page=0    chnl=0 
char id=36      x=283  y=0    width=33   height=62   xoffset=2    yoffset=12   xadvance=38   page=0    chnl=0 
char id=37      x=439  y=0    width=60   height=56   xoffset=1    yoffset=15   xadvance=62   page=0    chnl=0 
char id=38      x=423  y=72   width=57   height=55   xoffset=1    yoffset=15   xadvance=58   page=0    chnl=0 
char id=39      x=495  y=127  width=11   height=24   xoffset=1    yoffset=15   xadvance=14   page=0    chnl=0 
char id=40      x=28   y=0    width=23   height=72   xoffset=2    yoffset=13   xadvance=25   page=0    chnl=0 
char id=41      x=51   y=0    width=23   height=72   xoffset=0    yoffset=13   xadvance=25   page=0    chnl=0 
char id=42      x=162  y=338  width=30   height=34   xoffset=4    yoffset=13   xadvance=38   page=0    chnl=0 
char id=43      x=46   y=286  width=42   height=42   xoffset=0    yoffset=21   xadvance=42   page=0    chnl=0 
char id=44      x=251  y=338  width=13   height=23   xoffset=3    yoffset=58   xadvance=19   page=0    chnl=0 
char id=45      x=374  y=338  width=21   height=8    xoffset=2    yoffset=46   xadvance=25   page=0    chnl=0 
char id=46      x=363  y=338  width=11   height=12   xoffset=4    yoffset=58   xadvance=19   page=0    chnl=0 
char id=47      x=392  y=0    width=24   height=57   xoffset=-1   yoffset=13   xadvance=21   page=0    chnl=0 
char id=48      x=430  y=127  width=35   height=54   xoffset=1    yoffset=15   xadvance=38   page=0    chnl=0 
char id=49      x=153  y=181  width=23   height=53   xoffset=7    yoffset=15   xadvance=38   page=0    chnl=0 
char id=50      x=176  y=181  width=36   height=53   xoffset=0    yoffset=15   xadvance=38   page=0    chnl=0 
char id=51      x=298  y=127  width=31   height=54   xoffset=2    yoffset=15   xadvance=38   page=0    chnl=0 
char id=52      x=212  y=181  width=36   height=53   xoffset=0    yoffset=15   xadvance=38   page=0    chnl=0 
char id=53      x=248  y=181  width=32   height=53   xoffset=2    yoffset=16   xadvance=38   page=0    chnl=0 
char id=54      x=329  y=127  width=34   height=54   xoffset=2    yoffset=15   xadvance=38   page=0    chnl=0 
char id=55      x=363  y=127  width=35   height=54   xoffset=1    yoffset=16   xadvance=38   page=0    chnl=0 
char id=56      x=398  y=127  width=32   height=54   xoffset=3    yoffset=15   xadvance=38   page=0    chnl=0 
char id=57      x=350  y=72   width=35   height=55   xoffset=1    yoffset=15   xadvance=38   page=0    chnl=0 
char id=58      x=491  y=181  width=11   height=39   xoffset=5    yoffset=31   xadvance=21   page=0    chnl=0 
char id=59      x=472  y=234  width=14   height=50   xoffset=4    yoffset=31   xadvance=21   page=0    chnl=0 
char id=60      x=212  y=286  width=42   height=39   xoffset=0    yoffset=23   xadvance=42   page=0    chnl=0 
char id=61      x=264  y=338  width=42   height=18   xoffset=0    yoffset=33   xadvance=42   page=0    chnl=0 
char id=62      x=254  y=286  width=42   height=39   xoffset=0    yoffset=23   xadvance=42   page=0    chnl=0 
char id=63      x=465  y=127  width=30   height=54   xoffset=2    yoffset=15   xadvance=33   page=0    chnl=0 
char id=64      x=126  y=0    width=67   height=72   xoffset=2    yoffset=13   xadvance=69   page=0    chnl=0 
char id=65      x=0    y=181  width=56   height=53   xoffset=-1   yoffset=15   xadvance=54   page=0    chnl=0 
char id=66      x=280  y=181  width=47   height=52   xoffset=0    yoffset=16   xadvance=50   page=0    chnl=0 
char id=67      x=0    y=72   width=48   height=55   xoffset=1    yoffset=15   xadvance=50   page=0    chnl=0 
char id=68      x=327  y=181  width=53   height=52   xoffset=0    yoffset=16   xadvance=54   page=0    chnl=0 
char id=69      x=380  y=181  width=46   height=52   xoffset=0    yoffset=16   xadvance=46   page=0    chnl=0 
char id=70      x=426  y=181  width=40   height=52   xoffset=0    yoffset=16   xadvance=42   page=0    chnl=0 
char id=71      x=48   y=72   width=54   height=55   xoffset=1    yoffset=15   xadvance=54   page=0    chnl=0 
char id=72      x=0    y=234  width=54   height=52   xoffset=0    yoffset=16   xadvance=54   page=0    chnl=0 
char id=73      x=466  y=181  width=25   height=52   xoffset=0    yoffset=16   xadvance=25   page=0    chnl=0 
char id=74      x=480  y=72   width=30   height=54   xoffset=0    yoffset=16   xadvance=29   page=0    chnl=0 
char id=75      x=54   y=234  width=56   height=52   xoffset=0    yoffset=16   xadvance=54   page=0    chnl=0 
char id=76      x=110  y=234  width=46   height=52   xoffset=0    yoffset=16   xadvance=46   page=0    chnl=0 
char id=77      x=156  y=234  width=67   height=52   xoffset=0    yoffset=16   xadvance=67   page=0    chnl=0 
char id=78      x=56   y=181  width=57   height=53   xoffset=-2   yoffset=16   xadvance=54   page=0    chnl=0 
char id=79      x=102  y=72   width=52   height=55   xoffset=1    yoffset=15   xadvance=54   page=0    chnl=0 
char id=80      x=223  y=234  width=41   height=52   xoffset=0    yoffset=16   xadvance=42   page=0    chnl=0 
char id=81      x=193  y=0    width=52   height=68   xoffset=1    yoffset=15   xadvance=54   page=0    chnl=0 
char id=82      x=264  y=234  width=52   height=52   xoffset=0    yoffset=16   xadvance=50   page=0    chnl=0 
char id=83      x=154  y=72   width=36   height=55   xoffset=3    yoffset=15   xadvance=42   page=0    chnl=0 
char id=84      x=316  y=234  width=44   height=52   xoffset=1    yoffset=16   xadvance=46   page=0    chnl=0 
char id=85      x=0    y=127  width=56   height=54   xoffset=-1   yoffset=16   xadvance=54   page=0    chnl=0 
char id=86      x=56   y=127  width=56   height=54   xoffset=-1   yoffset=16   xadvance=54   page=0    chnl=0 
char id=87      x=112  y=127  width=73   height=54   xoffset=-1   yoffset=16   xadvance=71   page=0    chnl=0 
char id=88      x=360  y=234  width=56   height=52   xoffset=-1   yoffset=16   xadvance=54   page=0    chnl=0 
char id=89      x=416  y=234  width=56   height=52   xoffset=-1   yoffset=16   xadvance=54   page=0    chnl=0 
char id=90      x=0    y=286  width=46   height=52   xoffset=-1   yoffset=16   xadvance=46   page=0    chnl=0 
char id=91      x=245  y=0    width=19   height=68   xoffset=5    yoffset=15   xadvance=25   page=0    chnl=0 
char id=92      x=416  y=0    width=23   height=57   xoffset=-1   yoffset=13   xadvance=21   page=0    chnl=0 
char id=93      x=264  y=0    width=19   height=68   xoffset=1    yoffset=15   xadvance=25   page=0    chnl=0 
char id=94      x=192  y=338  width=35   height=29   xoffset=0    yoffset=15   xadvance=35   page=0    chnl=0 
char id=95      x=395  y=338  width=42   height=6    xoffset=-2   yoffset=79   xadvance=38   page=0    chnl=0 
char id=96      x=306  y=338  width=15   height=15   xoffset=3    yoffset=15   xadvance=25   page=0    chnl=0 
char id=97      x=296  y=286  width=34   height=38   xoffset=1    yoffset=31   xadvance=33   page=0    chnl=0 
char id=98      x=316  y=0    width=38   height=57   xoffset=-2   yoffset=13   xadvance=38   page=0    chnl=0 
char id=99      x=88   y=286  width=31   height=39   xoffset=1    yoffset=31   xadvance=33   page=0    chnl=0 
char id=100     x=354  y=0    width=38   height=57   xoffset=1    yoffset=13   xadvance=38   page=0    chnl=0 
char id=101     x=119  y=286  width=32   height=39   xoffset=1    yoffset=31   xadvance=33   page=0    chnl=0 
char id=102     x=190  y=72   width=40   height=55   xoffset=1    yoffset=13   xadvance=25   page=0    chnl=0 
char id=103     x=185  y=127  width=37   height=54   xoffset=1    yoffset=31   xadvance=38   page=0    chnl=0 
char id=104     x=230  y=72   width=40   height=55   xoffset=-1   yoffset=13   xadvance=38   page=0    chnl=0 
char id=105     x=270  y=72   width=20   height=55   xoffset=1    yoffset=13   xadvance=21   page=0    chnl=0 
char id=106     x=0    y=0    width=28   height=72   xoffset=-7   yoffset=13   xadvance=21   page=0    chnl=0 
char id=107     x=290  y=72   width=40   height=55   xoffset=-1   yoffset=13   xadvance=38   page=0    chnl=0 
char id=108     x=330  y=72   width=20   height=55   xoffset=1    yoffset=13   xadvance=21   page=0    chnl=0 
char id=109     x=0    y=338  width=61   height=37   xoffset=-1   yoffset=31   xadvance=58   page=0    chnl=0 
char id=110     x=465  y=286  width=40   height=37   xoffset=-1   yoffset=31   xadvance=38   page=0    chnl=0 
char id=111     x=151  y=286  width=35   height=39   xoffset=1    yoffset=31   xadvance=38   page=0    chnl=0 
char id=112     x=222  y=127  width=38   height=54   xoffset=-2   yoffset=31   xadvance=38   page=0    chnl=0 
char id=113     x=260  y=127  width=38   height=54   xoffset=1    yoffset=31   xadvance=38   page=0    chnl=0 
char id=114     x=61   y=338  width=28   height=37   xoffset=-1   yoffset=31   xadvance=25   page=0    chnl=0 
char id=115     x=186  y=286  width=26   height=39   xoffset=2    yoffset=31   xadvance=29   page=0    chnl=0 
char id=116     x=486  y=234  width=23   height=48   xoffset=-1   yoffset=21   xadvance=21   page=0    chnl=0 
char id=117     x=330  y=286  width=40   height=38   xoffset=-1   yoffset=32   xadvance=38   page=0    chnl=0 
char id=118     x=370  y=286  width=39   height=38   xoffset=-1   yoffset=32   xadvance=38   page=0    chnl=0 
char id=119     x=409  y=286  width=56   height=38   xoffset=-1   yoffset=32   xadvance=54   page=0    chnl=0 
char id=120     x=89   y=338  width=39   height=36   xoffset=-1   yoffset=32   xadvance=38   page=0    chnl=0 
char id=121     x=113  y=181  width=40   height=53   xoffset=-1   yoffset=32   xadvance=38   page=0    chnl=0 
char id=122     x=128  y=338  width=34   height=36   xoffset=0    yoffset=32   xadvance=33   page=0    chnl=0 
char id=123     x=74   y=0    width=23   height=72   xoffset=9    yoffset=13   xadvance=36   page=0    chnl=0 
char id=124     x=120  y=0    width=6    height=72   xoffset=4    yoffset=13   xadvance=15   page=0    chnl=0 
char id=125     x=97   y=0    width=23   height=72   xoffset=5    yoffset=13   xadvance=36   page=0    chnl=0 
char id=126     x=321  y=338  width=42   height=13   xoffset=-1   yoffset=41   xadvance=41   page=0    chnl=0 
