info face="TimesNewRomanPSMT" size=55 bold=0 italic=0 charset="" unicode=0 stretchH=100 smooth=1 aa=1 padding=1,1,1,1 spacing=-2,-2
common lineHeight=64 base=49 scaleW=512 scaleH=512 pages=1 packed=0
page id=0 file="nomor_55.png"
chars count=96
char id=10      x=0    y=0    width=0    height=0    xoffset=-1   yoffset=0    xadvance=0    page=0    chnl=0 
char id=32      x=0    y=0    width=0    height=0    xoffset=-1   yoffset=0    xadvance=14   page=0    chnl=0 
char id=33      x=258  y=53   width=9    height=41   xoffset=5    yoffset=10   xadvance=18   page=0    chnl=0 
char id=34      x=424  y=173  width=18   height=19   xoffset=2    yoffset=10   xadvance=22   page=0    chnl=0 
char id=35      x=290  y=53   width=29   height=41   xoffset=-1   yoffset=10   xadvance=28   page=0    chnl=0 
char id=36      x=217  y=0    width=25   height=47   xoffset=1    yoffset=8    xadvance=28   page=0    chnl=0 
char id=37      x=336  y=0    width=45   height=42   xoffset=0    yoffset=10   xadvance=46   page=0    chnl=0 
char id=38      x=319  y=53   width=42   height=41   xoffset=1    yoffset=10   xadvance=43   page=0    chnl=0 
char id=39      x=442  y=173  width=8    height=19   xoffset=1    yoffset=10   xadvance=10   page=0    chnl=0 
char id=40      x=22   y=0    width=18   height=53   xoffset=1    yoffset=9    xadvance=18   page=0    chnl=0 
char id=41      x=40   y=0    width=18   height=53   xoffset=0    yoffset=9    xadvance=18   page=0    chnl=0 
char id=42      x=374  y=173  width=23   height=26   xoffset=2    yoffset=9    xadvance=28   page=0    chnl=0 
char id=43      x=409  y=134  width=32   height=32   xoffset=-1   yoffset=15   xadvance=31   page=0    chnl=0 
char id=44      x=450  y=173  width=11   height=18   xoffset=1    yoffset=42   xadvance=14   page=0    chnl=0 
char id=45      x=41   y=202  width=17   height=7    xoffset=1    yoffset=33   xadvance=18   page=0    chnl=0 
char id=46      x=32   y=202  width=9    height=9    xoffset=2    yoffset=42   xadvance=14   page=0    chnl=0 
char id=47      x=300  y=0    width=18   height=42   xoffset=-1   yoffset=9    xadvance=15   page=0    chnl=0 
char id=48      x=231  y=53   width=27   height=41   xoffset=0    yoffset=10   xadvance=28   page=0    chnl=0 
char id=49      x=182  y=94   width=17   height=40   xoffset=5    yoffset=10   xadvance=28   page=0    chnl=0 
char id=50      x=199  y=94   width=27   height=40   xoffset=0    yoffset=10   xadvance=28   page=0    chnl=0 
char id=51      x=132  y=53   width=23   height=41   xoffset=1    yoffset=10   xadvance=28   page=0    chnl=0 
char id=52      x=226  y=94   width=28   height=40   xoffset=-1   yoffset=10   xadvance=28   page=0    chnl=0 
char id=53      x=254  y=94   width=24   height=40   xoffset=1    yoffset=11   xadvance=28   page=0    chnl=0 
char id=54      x=155  y=53   width=26   height=41   xoffset=1    yoffset=10   xadvance=28   page=0    chnl=0 
char id=55      x=278  y=94   width=26   height=40   xoffset=1    yoffset=11   xadvance=28   page=0    chnl=0 
char id=56      x=181  y=53   width=24   height=41   xoffset=2    yoffset=10   xadvance=28   page=0    chnl=0 
char id=57      x=205  y=53   width=26   height=41   xoffset=1    yoffset=10   xadvance=28   page=0    chnl=0 
char id=58      x=50   y=173  width=9    height=29   xoffset=3    yoffset=22   xadvance=15   page=0    chnl=0 
char id=59      x=380  y=134  width=11   height=38   xoffset=2    yoffset=22   xadvance=15   page=0    chnl=0 
char id=60      x=59   y=173  width=32   height=29   xoffset=-1   yoffset=16   xadvance=31   page=0    chnl=0 
char id=61      x=461  y=173  width=32   height=14   xoffset=-1   yoffset=24   xadvance=31   page=0    chnl=0 
char id=62      x=91   y=173  width=32   height=29   xoffset=-1   yoffset=16   xadvance=31   page=0    chnl=0 
char id=63      x=267  y=53   width=23   height=41   xoffset=1    yoffset=10   xadvance=24   page=0    chnl=0 
char id=64      x=99   y=0    width=50   height=53   xoffset=1    yoffset=9    xadvance=51   page=0    chnl=0 
char id=65      x=361  y=53   width=42   height=40   xoffset=-1   yoffset=10   xadvance=40   page=0    chnl=0 
char id=66      x=304  y=94   width=36   height=39   xoffset=-1   yoffset=11   xadvance=37   page=0    chnl=0 
char id=67      x=381  y=0    width=36   height=41   xoffset=0    yoffset=10   xadvance=37   page=0    chnl=0 
char id=68      x=340  y=94   width=40   height=39   xoffset=-1   yoffset=11   xadvance=40   page=0    chnl=0 
char id=69      x=380  y=94   width=34   height=39   xoffset=0    yoffset=11   xadvance=34   page=0    chnl=0 
char id=70      x=414  y=94   width=31   height=39   xoffset=-1   yoffset=11   xadvance=31   page=0    chnl=0 
char id=71      x=417  y=0    width=40   height=41   xoffset=0    yoffset=10   xadvance=40   page=0    chnl=0 
char id=72      x=445  y=94   width=41   height=39   xoffset=-1   yoffset=11   xadvance=40   page=0    chnl=0 
char id=73      x=486  y=94   width=18   height=39   xoffset=0    yoffset=11   xadvance=18   page=0    chnl=0 
char id=74      x=403  y=53   width=23   height=40   xoffset=0    yoffset=11   xadvance=21   page=0    chnl=0 
char id=75      x=0    y=134  width=43   height=39   xoffset=-1   yoffset=11   xadvance=40   page=0    chnl=0 
char id=76      x=43   y=134  width=34   height=39   xoffset=0    yoffset=11   xadvance=34   page=0    chnl=0 
char id=77      x=77   y=134  width=50   height=39   xoffset=-1   yoffset=11   xadvance=49   page=0    chnl=0 
char id=78      x=426  y=53   width=42   height=40   xoffset=-2   yoffset=11   xadvance=40   page=0    chnl=0 
char id=79      x=457  y=0    width=39   height=41   xoffset=0    yoffset=10   xadvance=40   page=0    chnl=0 
char id=80      x=127  y=134  width=31   height=39   xoffset=-1   yoffset=11   xadvance=31   page=0    chnl=0 
char id=81      x=149  y=0    width=39   height=51   xoffset=0    yoffset=10   xadvance=40   page=0    chnl=0 
char id=82      x=158  y=134  width=40   height=39   xoffset=-1   yoffset=11   xadvance=37   page=0    chnl=0 
char id=83      x=0    y=53   width=27   height=41   xoffset=2    yoffset=10   xadvance=31   page=0    chnl=0 
char id=84      x=198  y=134  width=34   height=39   xoffset=0    yoffset=11   xadvance=34   page=0    chnl=0 
char id=85      x=468  y=53   width=42   height=40   xoffset=-1   yoffset=11   xadvance=40   page=0    chnl=0 
char id=86      x=0    y=94   width=42   height=40   xoffset=-1   yoffset=11   xadvance=40   page=0    chnl=0 
char id=87      x=42   y=94   width=54   height=40   xoffset=-1   yoffset=11   xadvance=52   page=0    chnl=0 
char id=88      x=232  y=134  width=42   height=39   xoffset=-1   yoffset=11   xadvance=40   page=0    chnl=0 
char id=89      x=274  y=134  width=41   height=39   xoffset=-1   yoffset=11   xadvance=40   page=0    chnl=0 
char id=90      x=315  y=134  width=35   height=39   xoffset=-1   yoffset=11   xadvance=34   page=0    chnl=0 
char id=91      x=188  y=0    width=15   height=51   xoffset=3    yoffset=10   xadvance=18   page=0    chnl=0 
char id=92      x=318  y=0    width=18   height=42   xoffset=-1   yoffset=9    xadvance=15   page=0    chnl=0 
char id=93      x=203  y=0    width=14   height=51   xoffset=1    yoffset=10   xadvance=18   page=0    chnl=0 
char id=94      x=397  y=173  width=27   height=23   xoffset=-1   yoffset=10   xadvance=26   page=0    chnl=0 
char id=95      x=58   y=202  width=31   height=5    xoffset=-2   yoffset=57   xadvance=28   page=0    chnl=0 
char id=96      x=493  y=173  width=12   height=12   xoffset=2    yoffset=10   xadvance=18   page=0    chnl=0 
char id=97      x=441  y=134  width=26   height=29   xoffset=0    yoffset=22   xadvance=24   page=0    chnl=0 
char id=98      x=242  y=0    width=29   height=42   xoffset=-2   yoffset=9    xadvance=28   page=0    chnl=0 
char id=99      x=467  y=134  width=24   height=29   xoffset=0    yoffset=22   xadvance=24   page=0    chnl=0 
char id=100     x=271  y=0    width=29   height=42   xoffset=0    yoffset=9    xadvance=28   page=0    chnl=0 
char id=101     x=0    y=173  width=23   height=29   xoffset=1    yoffset=22   xadvance=24   page=0    chnl=0 
char id=102     x=27   y=53   width=29   height=41   xoffset=1    yoffset=9    xadvance=18   page=0    chnl=0 
char id=103     x=96   y=94   width=28   height=40   xoffset=0    yoffset=22   xadvance=28   page=0    chnl=0 
char id=104     x=56   y=53   width=30   height=41   xoffset=-1   yoffset=9    xadvance=28   page=0    chnl=0 
char id=105     x=496  y=0    width=15   height=41   xoffset=0    yoffset=9    xadvance=15   page=0    chnl=0 
char id=106     x=0    y=0    width=22   height=53   xoffset=-6   yoffset=9    xadvance=15   page=0    chnl=0 
char id=107     x=86   y=53   width=30   height=41   xoffset=-1   yoffset=9    xadvance=28   page=0    chnl=0 
char id=108     x=116  y=53   width=16   height=41   xoffset=0    yoffset=9    xadvance=15   page=0    chnl=0 
char id=109     x=123  y=173  width=45   height=28   xoffset=-1   yoffset=22   xadvance=43   page=0    chnl=0 
char id=110     x=168  y=173  width=30   height=28   xoffset=-1   yoffset=22   xadvance=28   page=0    chnl=0 
char id=111     x=23   y=173  width=27   height=29   xoffset=0    yoffset=22   xadvance=28   page=0    chnl=0 
char id=112     x=124  y=94   width=29   height=40   xoffset=-2   yoffset=22   xadvance=28   page=0    chnl=0 
char id=113     x=153  y=94   width=29   height=40   xoffset=0    yoffset=22   xadvance=28   page=0    chnl=0 
char id=114     x=198  y=173  width=21   height=28   xoffset=-1   yoffset=22   xadvance=18   page=0    chnl=0 
char id=115     x=491  y=134  width=20   height=29   xoffset=1    yoffset=22   xadvance=21   page=0    chnl=0 
char id=116     x=391  y=134  width=18   height=36   xoffset=-1   yoffset=15   xadvance=15   page=0    chnl=0 
char id=117     x=219  y=173  width=30   height=28   xoffset=-1   yoffset=23   xadvance=28   page=0    chnl=0 
char id=118     x=249  y=173  width=29   height=28   xoffset=-1   yoffset=23   xadvance=28   page=0    chnl=0 
char id=119     x=278  y=173  width=42   height=28   xoffset=-1   yoffset=23   xadvance=40   page=0    chnl=0 
char id=120     x=320  y=173  width=29   height=27   xoffset=-1   yoffset=23   xadvance=28   page=0    chnl=0 
char id=121     x=350  y=134  width=30   height=39   xoffset=-1   yoffset=23   xadvance=28   page=0    chnl=0 
char id=122     x=349  y=173  width=25   height=27   xoffset=0    yoffset=23   xadvance=24   page=0    chnl=0 
char id=123     x=58   y=0    width=18   height=53   xoffset=6    yoffset=9    xadvance=26   page=0    chnl=0 
char id=124     x=94   y=0    width=5    height=53   xoffset=3    yoffset=9    xadvance=11   page=0    chnl=0 
char id=125     x=76   y=0    width=18   height=53   xoffset=3    yoffset=9    xadvance=26   page=0    chnl=0 
char id=126     x=0    y=202  width=32   height=11   xoffset=-1   yoffset=29   xadvance=30   page=0    chnl=0 
