info face="TimesNewRomanPSMT" size=26 bold=0 italic=0 charset="" unicode=0 stretchH=100 smooth=1 aa=1 padding=1,1,1,1 spacing=-2,-2
common lineHeight=31 base=24 scaleW=512 scaleH=512 pages=1 packed=0
page id=0 file="nomor_26.png"
chars count=96
char id=10      x=0    y=0    width=0    height=0    xoffset=-1   yoffset=0    xadvance=0    page=0    chnl=0 
char id=32      x=0    y=0    width=0    height=0    xoffset=-1   yoffset=0    xadvance=7    page=0    chnl=0 
char id=33      x=502  y=0    width=6    height=21   xoffset=1    yoffset=5    xadvance=9    page=0    chnl=0 
char id=34      x=279  y=48   width=10   height=10   xoffset=0    yoffset=5    xadvance=11   page=0    chnl=0 
char id=35      x=50   y=27   width=15   height=21   xoffset=-1   yoffset=5    xadvance=13   page=0    chnl=0 
char id=36      x=117  y=0    width=13   height=23   xoffset=0    yoffset=4    xadvance=13   page=0    chnl=0 
char id=37      x=27   y=27   width=23   height=21   xoffset=-1   yoffset=5    xadvance=22   page=0    chnl=0 
char id=38      x=65   y=27   width=22   height=21   xoffset=-1   yoffset=5    xadvance=20   page=0    chnl=0 
char id=39      x=506  y=27   width=5    height=10   xoffset=0    yoffset=5    xadvance=5    page=0    chnl=0 
char id=40      x=11   y=0    width=10   height=27   xoffset=0    yoffset=4    xadvance=9    page=0    chnl=0 
char id=41      x=21   y=0    width=10   height=27   xoffset=-1   yoffset=4    xadvance=9    page=0    chnl=0 
char id=42      x=252  y=48   width=13   height=14   xoffset=0    yoffset=4    xadvance=13   page=0    chnl=0 
char id=43      x=0    y=48   width=17   height=17   xoffset=-1   yoffset=7    xadvance=15   page=0    chnl=0 
char id=44      x=289  y=48   width=7    height=10   xoffset=0    yoffset=20   xadvance=7    page=0    chnl=0 
char id=45      x=342  y=48   width=9    height=5    xoffset=0    yoffset=16   xadvance=9    page=0    chnl=0 
char id=46      x=320  y=48   width=6    height=6    xoffset=0    yoffset=20   xadvance=7    page=0    chnl=0 
char id=47      x=162  y=0    width=10   height=22   xoffset=-1   yoffset=4    xadvance=7    page=0    chnl=0 
char id=48      x=0    y=27   width=15   height=21   xoffset=-1   yoffset=5    xadvance=13   page=0    chnl=0 
char id=49      x=451  y=27   width=9    height=20   xoffset=2    yoffset=5    xadvance=13   page=0    chnl=0 
char id=50      x=460  y=27   width=14   height=20   xoffset=-1   yoffset=5    xadvance=13   page=0    chnl=0 
char id=51      x=424  y=0    width=12   height=21   xoffset=0    yoffset=5    xadvance=13   page=0    chnl=0 
char id=52      x=474  y=27   width=15   height=20   xoffset=-1   yoffset=5    xadvance=13   page=0    chnl=0 
char id=53      x=436  y=0    width=13   height=21   xoffset=0    yoffset=5    xadvance=13   page=0    chnl=0 
char id=54      x=449  y=0    width=13   height=21   xoffset=0    yoffset=5    xadvance=13   page=0    chnl=0 
char id=55      x=462  y=0    width=14   height=21   xoffset=-1   yoffset=5    xadvance=13   page=0    chnl=0 
char id=56      x=476  y=0    width=13   height=21   xoffset=0    yoffset=5    xadvance=13   page=0    chnl=0 
char id=57      x=489  y=0    width=13   height=21   xoffset=0    yoffset=5    xadvance=13   page=0    chnl=0 
char id=58      x=134  y=48   width=6    height=15   xoffset=1    yoffset=11   xadvance=7    page=0    chnl=0 
char id=59      x=499  y=27   width=7    height=19   xoffset=0    yoffset=11   xadvance=7    page=0    chnl=0 
char id=60      x=140  y=48   width=17   height=15   xoffset=-1   yoffset=8    xadvance=15   page=0    chnl=0 
char id=61      x=296  y=48   width=17   height=8    xoffset=-1   yoffset=11   xadvance=15   page=0    chnl=0 
char id=62      x=157  y=48   width=17   height=15   xoffset=-1   yoffset=8    xadvance=15   page=0    chnl=0 
char id=63      x=15   y=27   width=12   height=21   xoffset=0    yoffset=5    xadvance=12   page=0    chnl=0 
char id=64      x=55   y=0    width=25   height=27   xoffset=0    yoffset=4    xadvance=24   page=0    chnl=0 
char id=65      x=87   y=27   width=21   height=20   xoffset=-1   yoffset=5    xadvance=19   page=0    chnl=0 
char id=66      x=108  y=27   width=18   height=20   xoffset=-1   yoffset=5    xadvance=17   page=0    chnl=0 
char id=67      x=182  y=0    width=19   height=21   xoffset=-1   yoffset=5    xadvance=17   page=0    chnl=0 
char id=68      x=126  y=27   width=20   height=20   xoffset=-1   yoffset=5    xadvance=19   page=0    chnl=0 
char id=69      x=146  y=27   width=18   height=20   xoffset=-1   yoffset=5    xadvance=16   page=0    chnl=0 
char id=70      x=164  y=27   width=16   height=20   xoffset=-1   yoffset=5    xadvance=14   page=0    chnl=0 
char id=71      x=201  y=0    width=21   height=21   xoffset=-1   yoffset=5    xadvance=19   page=0    chnl=0 
char id=72      x=180  y=27   width=21   height=20   xoffset=-1   yoffset=5    xadvance=19   page=0    chnl=0 
char id=73      x=201  y=27   width=11   height=20   xoffset=-1   yoffset=5    xadvance=9    page=0    chnl=0 
char id=74      x=222  y=0    width=12   height=21   xoffset=-1   yoffset=5    xadvance=10   page=0    chnl=0 
char id=75      x=212  y=27   width=21   height=20   xoffset=-1   yoffset=5    xadvance=19   page=0    chnl=0 
char id=76      x=233  y=27   width=18   height=20   xoffset=-1   yoffset=5    xadvance=16   page=0    chnl=0 
char id=77      x=251  y=27   width=25   height=20   xoffset=-1   yoffset=5    xadvance=23   page=0    chnl=0 
char id=78      x=234  y=0    width=22   height=21   xoffset=-2   yoffset=5    xadvance=19   page=0    chnl=0 
char id=79      x=256  y=0    width=20   height=21   xoffset=-1   yoffset=5    xadvance=19   page=0    chnl=0 
char id=80      x=276  y=27   width=16   height=20   xoffset=-1   yoffset=5    xadvance=14   page=0    chnl=0 
char id=81      x=80   y=0    width=20   height=26   xoffset=-1   yoffset=5    xadvance=19   page=0    chnl=0 
char id=82      x=292  y=27   width=20   height=20   xoffset=-1   yoffset=5    xadvance=17   page=0    chnl=0 
char id=83      x=276  y=0    width=15   height=21   xoffset=0    yoffset=5    xadvance=14   page=0    chnl=0 
char id=84      x=312  y=27   width=18   height=20   xoffset=-1   yoffset=5    xadvance=16   page=0    chnl=0 
char id=85      x=291  y=0    width=21   height=21   xoffset=-1   yoffset=5    xadvance=19   page=0    chnl=0 
char id=86      x=312  y=0    width=21   height=21   xoffset=-1   yoffset=5    xadvance=19   page=0    chnl=0 
char id=87      x=333  y=0    width=27   height=21   xoffset=-1   yoffset=5    xadvance=25   page=0    chnl=0 
char id=88      x=330  y=27   width=21   height=20   xoffset=-1   yoffset=5    xadvance=19   page=0    chnl=0 
char id=89      x=351  y=27   width=21   height=20   xoffset=-1   yoffset=5    xadvance=19   page=0    chnl=0 
char id=90      x=372  y=27   width=18   height=20   xoffset=-1   yoffset=5    xadvance=16   page=0    chnl=0 
char id=91      x=100  y=0    width=8    height=26   xoffset=1    yoffset=5    xadvance=9    page=0    chnl=0 
char id=92      x=172  y=0    width=10   height=22   xoffset=-1   yoffset=4    xadvance=7    page=0    chnl=0 
char id=93      x=108  y=0    width=9    height=26   xoffset=-1   yoffset=5    xadvance=9    page=0    chnl=0 
char id=94      x=265  y=48   width=14   height=12   xoffset=-1   yoffset=5    xadvance=12   page=0    chnl=0 
char id=95      x=351  y=48   width=17   height=4    xoffset=-2   yoffset=27   xadvance=13   page=0    chnl=0 
char id=96      x=313  y=48   width=7    height=7    xoffset=0    yoffset=5    xadvance=9    page=0    chnl=0 
char id=97      x=17   y=48   width=14   height=15   xoffset=-1   yoffset=11   xadvance=12   page=0    chnl=0 
char id=98      x=130  y=0    width=16   height=22   xoffset=-2   yoffset=4    xadvance=13   page=0    chnl=0 
char id=99      x=31   y=48   width=13   height=15   xoffset=-1   yoffset=11   xadvance=12   page=0    chnl=0 
char id=100     x=146  y=0    width=16   height=22   xoffset=-1   yoffset=4    xadvance=13   page=0    chnl=0 
char id=101     x=44   y=48   width=13   height=15   xoffset=-1   yoffset=11   xadvance=12   page=0    chnl=0 
char id=102     x=360  y=0    width=15   height=21   xoffset=0    yoffset=4    xadvance=9    page=0    chnl=0 
char id=103     x=390  y=27   width=15   height=20   xoffset=-1   yoffset=11   xadvance=13   page=0    chnl=0 
char id=104     x=375  y=0    width=15   height=21   xoffset=-1   yoffset=4    xadvance=13   page=0    chnl=0 
char id=105     x=390  y=0    width=9    height=21   xoffset=-1   yoffset=4    xadvance=7    page=0    chnl=0 
char id=106     x=0    y=0    width=11   height=27   xoffset=-3   yoffset=4    xadvance=7    page=0    chnl=0 
char id=107     x=399  y=0    width=16   height=21   xoffset=-1   yoffset=4    xadvance=13   page=0    chnl=0 
char id=108     x=415  y=0    width=9    height=21   xoffset=-1   yoffset=4    xadvance=7    page=0    chnl=0 
char id=109     x=174  y=48   width=23   height=14   xoffset=-1   yoffset=11   xadvance=20   page=0    chnl=0 
char id=110     x=197  y=48   width=15   height=14   xoffset=-1   yoffset=11   xadvance=13   page=0    chnl=0 
char id=111     x=57   y=48   width=15   height=15   xoffset=-1   yoffset=11   xadvance=13   page=0    chnl=0 
char id=112     x=405  y=27   width=16   height=20   xoffset=-2   yoffset=11   xadvance=13   page=0    chnl=0 
char id=113     x=421  y=27   width=15   height=20   xoffset=-1   yoffset=11   xadvance=13   page=0    chnl=0 
char id=114     x=212  y=48   width=11   height=14   xoffset=-1   yoffset=11   xadvance=9    page=0    chnl=0 
char id=115     x=72   y=48   width=11   height=15   xoffset=0    yoffset=11   xadvance=10   page=0    chnl=0 
char id=116     x=489  y=27   width=10   height=19   xoffset=-1   yoffset=7    xadvance=7    page=0    chnl=0 
char id=117     x=83   y=48   width=15   height=15   xoffset=-1   yoffset=11   xadvance=13   page=0    chnl=0 
char id=118     x=98   y=48   width=15   height=15   xoffset=-1   yoffset=11   xadvance=13   page=0    chnl=0 
char id=119     x=113  y=48   width=21   height=15   xoffset=-1   yoffset=11   xadvance=19   page=0    chnl=0 
char id=120     x=223  y=48   width=15   height=14   xoffset=-1   yoffset=11   xadvance=13   page=0    chnl=0 
char id=121     x=436  y=27   width=15   height=20   xoffset=-1   yoffset=11   xadvance=13   page=0    chnl=0 
char id=122     x=238  y=48   width=14   height=14   xoffset=-1   yoffset=11   xadvance=12   page=0    chnl=0 
char id=123     x=31   y=0    width=10   height=27   xoffset=2    yoffset=4    xadvance=12   page=0    chnl=0 
char id=124     x=51   y=0    width=4    height=27   xoffset=1    yoffset=4    xadvance=5    page=0    chnl=0 
char id=125     x=41   y=0    width=10   height=27   xoffset=1    yoffset=4    xadvance=12   page=0    chnl=0 
char id=126     x=326  y=48   width=16   height=6    xoffset=-1   yoffset=14   xadvance=14   page=0    chnl=0 
