info face="TimesNewRomanPSMT" size=120 bold=0 italic=0 charset="" unicode=0 stretchH=100 smooth=1 aa=1 padding=1,1,1,1 spacing=-2,-2
common lineHeight=139 base=107 scaleW=512 scaleH=512 pages=2 packed=0
page id=0 file="w_cert_1201.png"
page id=1 file="w_cert_1202.png"
chars count=96
char id=10      x=0    y=0    width=0    height=0    xoffset=-1   yoffset=0    xadvance=0    page=0    chnl=0 
char id=32      x=0    y=0    width=0    height=0    xoffset=-1   yoffset=0    xadvance=30   page=0    chnl=0 
char id=33      x=480  y=200  width=16   height=86   xoffset=12   yoffset=24   xadvance=40   page=0    chnl=0 
char id=34      x=101  y=456  width=37   height=37   xoffset=6    yoffset=24   xadvance=49   page=0    chnl=0 
char id=35      x=153  y=286  width=58   height=86   xoffset=1    yoffset=24   xadvance=60   page=0    chnl=0 
char id=36      x=441  y=0    width=50   height=99   xoffset=5    yoffset=19   xadvance=60   page=0    chnl=0 
char id=37      x=191  y=112  width=94   height=88   xoffset=3    yoffset=24   xadvance=100  page=0    chnl=0 
char id=38      x=211  y=286  width=88   height=86   xoffset=3    yoffset=24   xadvance=93   page=0    chnl=0 
char id=39      x=496  y=200  width=15   height=37   xoffset=3    yoffset=24   xadvance=22   page=0    chnl=0 
char id=40      x=45   y=0    width=36   height=112  xoffset=3    yoffset=22   xadvance=40   page=0    chnl=0 
char id=41      x=81   y=0    width=36   height=112  xoffset=1    yoffset=22   xadvance=40   page=0    chnl=0 
char id=42      x=0    y=456  width=46   height=52   xoffset=7    yoffset=22   xadvance=60   page=0    chnl=0 
char id=44      x=138  y=456  width=20   height=34   xoffset=5    yoffset=94   xadvance=30   page=0    chnl=0 
char id=45      x=328  y=456  width=34   height=12   xoffset=3    yoffset=74   xadvance=40   page=0    chnl=0 
char id=46      x=312  y=456  width=16   height=16   xoffset=7    yoffset=94   xadvance=30   page=0    chnl=0 
char id=47      x=119  y=112  width=36   height=88   xoffset=-1   yoffset=22   xadvance=33   page=0    chnl=0 
char id=48      x=53   y=286  width=54   height=86   xoffset=3    yoffset=24   xadvance=60   page=0    chnl=0 
char id=51      x=329  y=200  width=49   height=86   xoffset=3    yoffset=24   xadvance=60   page=0    chnl=0 
char id=54      x=378  y=200  width=53   height=86   xoffset=4    yoffset=24   xadvance=60   page=0    chnl=0 
char id=56      x=431  y=200  width=49   height=86   xoffset=6    yoffset=24   xadvance=60   page=0    chnl=0 
char id=57      x=0    y=286  width=53   height=86   xoffset=3    yoffset=24   xadvance=60   page=0    chnl=0 
char id=58      x=491  y=0    width=16   height=60   xoffset=9    yoffset=50   xadvance=33   page=0    chnl=0 
char id=59      x=490  y=286  width=20   height=78   xoffset=7    yoffset=50   xadvance=33   page=0    chnl=0 
char id=61      x=158  y=456  width=66   height=27   xoffset=1    yoffset=54   xadvance=68   page=0    chnl=0 
char id=63      x=107  y=286  width=46   height=86   xoffset=4    yoffset=24   xadvance=53   page=0    chnl=0 
char id=64      x=197  y=0    width=105  height=112  xoffset=4    yoffset=22   xadvance=111  page=0    chnl=0 
char id=65      x=299  y=286  width=88   height=84   xoffset=-1   yoffset=24   xadvance=87   page=0    chnl=0 
char id=67      x=285  y=112  width=74   height=86   xoffset=3    yoffset=24   xadvance=80   page=0    chnl=0 
char id=71      x=359  y=112  width=83   height=86   xoffset=3    yoffset=24   xadvance=87   page=0    chnl=0 
char id=74      x=387  y=286  width=46   height=84   xoffset=1    yoffset=26   xadvance=47   page=0    chnl=0 
char id=78      x=0    y=372  width=90   height=84   xoffset=-3   yoffset=26   xadvance=87   page=0    chnl=0 
char id=79      x=0    y=200  width=81   height=86   xoffset=3    yoffset=24   xadvance=87   page=0    chnl=0 
char id=81      x=302  y=0    width=81   height=108  xoffset=3    yoffset=24   xadvance=87   page=0    chnl=0 
char id=83      x=442  y=112  width=56   height=86   xoffset=6    yoffset=24   xadvance=67   page=0    chnl=0 
char id=85      x=90   y=372  width=88   height=84   xoffset=-1   yoffset=26   xadvance=87   page=0    chnl=0 
char id=86      x=178  y=372  width=87   height=84   xoffset=0    yoffset=26   xadvance=87   page=0    chnl=0 
char id=87      x=265  y=372  width=114  height=84   xoffset=0    yoffset=26   xadvance=113  page=0    chnl=0 
char id=91      x=383  y=0    width=29   height=108  xoffset=8    yoffset=24   xadvance=40   page=0    chnl=0 
char id=92      x=155  y=112  width=36   height=88   xoffset=-1   yoffset=22   xadvance=33   page=0    chnl=0 
char id=93      x=412  y=0    width=29   height=108  xoffset=3    yoffset=24   xadvance=40   page=0    chnl=0 
char id=94      x=46   y=456  width=55   height=45   xoffset=1    yoffset=24   xadvance=56   page=0    chnl=0 
char id=95      x=362  y=456  width=66   height=8    xoffset=-2   yoffset=126  xadvance=60   page=0    chnl=0 
char id=96      x=224  y=456  width=23   height=23   xoffset=5    yoffset=24   xadvance=40   page=0    chnl=0 
char id=98      x=0    y=112  width=59   height=88   xoffset=-2   yoffset=22   xadvance=60   page=0    chnl=0 
char id=100     x=59   y=112  width=60   height=88   xoffset=2    yoffset=22   xadvance=60   page=0    chnl=0 
char id=102     x=81   y=200  width=63   height=86   xoffset=3    yoffset=22   xadvance=40   page=0    chnl=0 
char id=103     x=433  y=286  width=57   height=84   xoffset=2    yoffset=50   xadvance=60   page=0    chnl=0 
char id=104     x=144  y=200  width=62   height=86   xoffset=-1   yoffset=22   xadvance=60   page=0    chnl=0 
char id=105     x=206  y=200  width=30   height=86   xoffset=2    yoffset=22   xadvance=33   page=0    chnl=0 
char id=106     x=0    y=0    width=45   height=112  xoffset=-11  yoffset=22   xadvance=33   page=0    chnl=0 
char id=107     x=236  y=200  width=63   height=86   xoffset=-1   yoffset=22   xadvance=60   page=0    chnl=0 
char id=108     x=299  y=200  width=30   height=86   xoffset=2    yoffset=22   xadvance=33   page=0    chnl=0 
char id=112     x=379  y=372  width=59   height=84   xoffset=-2   yoffset=50   xadvance=60   page=0    chnl=0 
char id=113     x=438  y=372  width=59   height=84   xoffset=2    yoffset=50   xadvance=60   page=0    chnl=0 
char id=123     x=117  y=0    width=36   height=112  xoffset=15   yoffset=22   xadvance=58   page=0    chnl=0 
char id=124     x=189  y=0    width=8    height=112  xoffset=8    yoffset=22   xadvance=24   page=0    chnl=0 
char id=125     x=153  y=0    width=36   height=112  xoffset=9    yoffset=22   xadvance=58   page=0    chnl=0 
char id=126     x=247  y=456  width=65   height=19   xoffset=0    yoffset=66   xadvance=65   page=0    chnl=0 
char id=43      x=62   y=248  width=66   height=66   xoffset=1    yoffset=34   xadvance=68   page=1    chnl=0 
char id=49      x=0    y=0    width=34   height=84   xoffset=13   yoffset=24   xadvance=60   page=1    chnl=0 
char id=50      x=34   y=0    width=56   height=84   xoffset=1    yoffset=24   xadvance=60   page=1    chnl=0 
char id=52      x=90   y=0    width=57   height=84   xoffset=0    yoffset=24   xadvance=60   page=1    chnl=0 
char id=53      x=147  y=0    width=50   height=84   xoffset=4    yoffset=26   xadvance=60   page=1    chnl=0 
char id=55      x=197  y=0    width=53   height=84   xoffset=3    yoffset=26   xadvance=60   page=1    chnl=0 
char id=60      x=128  y=248  width=66   height=61   xoffset=1    yoffset=37   xadvance=68   page=1    chnl=0 
char id=62      x=194  y=248  width=66   height=61   xoffset=1    yoffset=37   xadvance=68   page=1    chnl=0 
char id=66      x=250  y=0    width=75   height=82   xoffset=0    yoffset=26   xadvance=80   page=1    chnl=0 
char id=68      x=325  y=0    width=83   height=82   xoffset=1    yoffset=26   xadvance=87   page=1    chnl=0 
char id=69      x=408  y=0    width=71   height=82   xoffset=1    yoffset=26   xadvance=73   page=1    chnl=0 
char id=70      x=0    y=84   width=63   height=82   xoffset=0    yoffset=26   xadvance=67   page=1    chnl=0 
char id=72      x=63   y=84   width=85   height=82   xoffset=1    yoffset=26   xadvance=87   page=1    chnl=0 
char id=73      x=148  y=84   width=38   height=82   xoffset=1    yoffset=26   xadvance=40   page=1    chnl=0 
char id=75      x=186  y=84   width=89   height=82   xoffset=0    yoffset=26   xadvance=87   page=1    chnl=0 
char id=76      x=275  y=84   width=71   height=82   xoffset=1    yoffset=26   xadvance=73   page=1    chnl=0 
char id=77      x=346  y=84   width=106  height=82   xoffset=0    yoffset=26   xadvance=107  page=1    chnl=0 
char id=80      x=0    y=166  width=64   height=82   xoffset=0    yoffset=26   xadvance=67   page=1    chnl=0 
char id=82      x=64   y=166  width=83   height=82   xoffset=1    yoffset=26   xadvance=80   page=1    chnl=0 
char id=84      x=147  y=166  width=70   height=82   xoffset=2    yoffset=26   xadvance=73   page=1    chnl=0 
char id=88      x=217  y=166  width=88   height=82   xoffset=-1   yoffset=26   xadvance=87   page=1    chnl=0 
char id=89      x=305  y=166  width=86   height=82   xoffset=0    yoffset=26   xadvance=87   page=1    chnl=0 
char id=90      x=391  y=166  width=71   height=82   xoffset=0    yoffset=26   xadvance=73   page=1    chnl=0 
char id=97      x=260  y=248  width=52   height=60   xoffset=3    yoffset=50   xadvance=53   page=1    chnl=0 
char id=99      x=462  y=166  width=48   height=60   xoffset=3    yoffset=50   xadvance=53   page=1    chnl=0 
char id=101     x=312  y=248  width=48   height=60   xoffset=3    yoffset=50   xadvance=53   page=1    chnl=0 
char id=109     x=0    y=330  width=95   height=58   xoffset=-1   yoffset=50   xadvance=93   page=1    chnl=0 
char id=110     x=95   y=330  width=62   height=58   xoffset=-1   yoffset=50   xadvance=60   page=1    chnl=0 
char id=111     x=360  y=248  width=54   height=60   xoffset=3    yoffset=50   xadvance=60   page=1    chnl=0 
char id=114     x=454  y=248  width=43   height=58   xoffset=-1   yoffset=50   xadvance=40   page=1    chnl=0 
char id=115     x=414  y=248  width=40   height=60   xoffset=4    yoffset=50   xadvance=47   page=1    chnl=0 
char id=116     x=452  y=84   width=35   height=75   xoffset=0    yoffset=34   xadvance=33   page=1    chnl=0 
char id=117     x=157  y=330  width=62   height=58   xoffset=-1   yoffset=52   xadvance=60   page=1    chnl=0 
char id=118     x=219  y=330  width=61   height=58   xoffset=-1   yoffset=52   xadvance=60   page=1    chnl=0 
char id=119     x=280  y=330  width=88   height=58   xoffset=-1   yoffset=52   xadvance=87   page=1    chnl=0 
char id=120     x=368  y=330  width=60   height=56   xoffset=0    yoffset=52   xadvance=60   page=1    chnl=0 
char id=121     x=0    y=248  width=62   height=82   xoffset=-1   yoffset=52   xadvance=60   page=1    chnl=0 
char id=122     x=428  y=330  width=52   height=56   xoffset=1    yoffset=52   xadvance=53   page=1    chnl=0 
