info face="TimesNewRomanPSMT" size=107 bold=0 italic=0 charset="" unicode=0 stretchH=100 smooth=1 aa=1 padding=1,1,1,1 spacing=-2,-2
common lineHeight=124 base=96 scaleW=512 scaleH=512 pages=2 packed=0
page id=0 file="w_cert_1071.png"
page id=1 file="w_cert_1072.png"
chars count=96
char id=10      x=0    y=0    width=0    height=0    xoffset=-1   yoffset=0    xadvance=0    page=0    chnl=0 
char id=32      x=0    y=0    width=0    height=0    xoffset=-1   yoffset=0    xadvance=27   page=0    chnl=0 
char id=33      x=494  y=101  width=15   height=77   xoffset=10   yoffset=22   xadvance=36   page=0    chnl=0 
char id=35      x=0    y=257  width=53   height=77   xoffset=0    yoffset=22   xadvance=54   page=0    chnl=0 
char id=36      x=393  y=0    width=46   height=88   xoffset=4    yoffset=18   xadvance=54   page=0    chnl=0 
char id=37      x=117  y=101  width=85   height=78   xoffset=2    yoffset=22   xadvance=89   page=0    chnl=0 
char id=38      x=53   y=257  width=79   height=77   xoffset=2    yoffset=22   xadvance=83   page=0    chnl=0 
char id=40      x=204  y=0    width=32   height=100  xoffset=3    yoffset=20   xadvance=36   page=0    chnl=0 
char id=41      x=236  y=0    width=32   height=100  xoffset=1    yoffset=20   xadvance=36   page=0    chnl=0 
char id=45      x=153  y=482  width=30   height=10   xoffset=3    yoffset=67   xadvance=36   page=0    chnl=0 
char id=46      x=138  y=482  width=15   height=15   xoffset=6    yoffset=84   xadvance=27   page=0    chnl=0 
char id=47      x=53   y=101  width=32   height=79   xoffset=-1   yoffset=20   xadvance=30   page=0    chnl=0 
char id=48      x=376  y=180  width=49   height=77   xoffset=2    yoffset=22   xadvance=54   page=0    chnl=0 
char id=49      x=208  y=334  width=31   height=75   xoffset=11   yoffset=22   xadvance=54   page=0    chnl=0 
char id=50      x=239  y=334  width=50   height=75   xoffset=1    yoffset=22   xadvance=54   page=0    chnl=0 
char id=51      x=194  y=180  width=43   height=77   xoffset=3    yoffset=22   xadvance=54   page=0    chnl=0 
char id=52      x=289  y=334  width=51   height=75   xoffset=0    yoffset=22   xadvance=54   page=0    chnl=0 
char id=53      x=340  y=334  width=44   height=75   xoffset=4    yoffset=24   xadvance=54   page=0    chnl=0 
char id=54      x=237  y=180  width=48   height=77   xoffset=3    yoffset=22   xadvance=54   page=0    chnl=0 
char id=55      x=384  y=334  width=48   height=75   xoffset=2    yoffset=24   xadvance=54   page=0    chnl=0 
char id=56      x=285  y=180  width=44   height=77   xoffset=5    yoffset=22   xadvance=54   page=0    chnl=0 
char id=57      x=329  y=180  width=47   height=77   xoffset=3    yoffset=22   xadvance=54   page=0    chnl=0 
char id=58      x=492  y=0    width=14   height=54   xoffset=8    yoffset=45   xadvance=30   page=0    chnl=0 
char id=59      x=487  y=334  width=18   height=70   xoffset=6    yoffset=45   xadvance=30   page=0    chnl=0 
char id=61      x=0    y=482  width=60   height=25   xoffset=0    yoffset=48   xadvance=60   page=0    chnl=0 
char id=63      x=425  y=180  width=42   height=77   xoffset=3    yoffset=22   xadvance=47   page=0    chnl=0 
char id=64      x=111  y=0    width=93   height=101  xoffset=4    yoffset=20   xadvance=99   page=0    chnl=0 
char id=65      x=183  y=257  width=79   height=75   xoffset=-1   yoffset=22   xadvance=77   page=0    chnl=0 
char id=66      x=0    y=409  width=67   height=73   xoffset=0    yoffset=24   xadvance=71   page=0    chnl=0 
char id=67      x=202  y=101  width=67   height=77   xoffset=2    yoffset=22   xadvance=71   page=0    chnl=0 
char id=68      x=67   y=409  width=75   height=73   xoffset=0    yoffset=24   xadvance=77   page=0    chnl=0 
char id=69      x=142  y=409  width=63   height=73   xoffset=1    yoffset=24   xadvance=65   page=0    chnl=0 
char id=70      x=205  y=409  width=57   height=73   xoffset=0    yoffset=24   xadvance=60   page=0    chnl=0 
char id=71      x=269  y=101  width=75   height=77   xoffset=2    yoffset=22   xadvance=77   page=0    chnl=0 
char id=72      x=262  y=409  width=77   height=73   xoffset=0    yoffset=24   xadvance=77   page=0    chnl=0 
char id=73      x=339  y=409  width=34   height=73   xoffset=1    yoffset=24   xadvance=36   page=0    chnl=0 
char id=74      x=467  y=180  width=42   height=75   xoffset=1    yoffset=24   xadvance=42   page=0    chnl=0 
char id=75      x=373  y=409  width=81   height=73   xoffset=0    yoffset=24   xadvance=77   page=0    chnl=0 
char id=78      x=262  y=257  width=81   height=75   xoffset=-3   yoffset=24   xadvance=77   page=0    chnl=0 
char id=79      x=344  y=101  width=73   height=77   xoffset=2    yoffset=22   xadvance=77   page=0    chnl=0 
char id=80      x=454  y=409  width=57   height=73   xoffset=0    yoffset=24   xadvance=60   page=0    chnl=0 
char id=81      x=320  y=0    width=73   height=96   xoffset=2    yoffset=22   xadvance=77   page=0    chnl=0 
char id=83      x=417  y=101  width=50   height=77   xoffset=5    yoffset=22   xadvance=60   page=0    chnl=0 
char id=85      x=343  y=257  width=79   height=75   xoffset=-1   yoffset=24   xadvance=77   page=0    chnl=0 
char id=86      x=422  y=257  width=78   height=75   xoffset=-1   yoffset=24   xadvance=77   page=0    chnl=0 
char id=87      x=0    y=334  width=102  height=75   xoffset=0    yoffset=24   xadvance=101  page=0    chnl=0 
char id=91      x=268  y=0    width=26   height=97   xoffset=7    yoffset=22   xadvance=36   page=0    chnl=0 
char id=92      x=85   y=101  width=32   height=79   xoffset=-1   yoffset=20   xadvance=30   page=0    chnl=0 
char id=93      x=294  y=0    width=26   height=97   xoffset=2    yoffset=22   xadvance=36   page=0    chnl=0 
char id=95      x=183  y=482  width=58   height=8    xoffset=-2   yoffset=113  xadvance=54   page=0    chnl=0 
char id=96      x=60   y=482  width=20   height=21   xoffset=5    yoffset=22   xadvance=36   page=0    chnl=0 
char id=98      x=439  y=0    width=53   height=79   xoffset=-2   yoffset=20   xadvance=54   page=0    chnl=0 
char id=100     x=0    y=101  width=53   height=79   xoffset=2    yoffset=20   xadvance=54   page=0    chnl=0 
char id=102     x=0    y=180  width=55   height=77   xoffset=3    yoffset=20   xadvance=36   page=0    chnl=0 
char id=103     x=132  y=257  width=51   height=76   xoffset=2    yoffset=45   xadvance=54   page=0    chnl=0 
char id=104     x=55   y=180  width=55   height=77   xoffset=-1   yoffset=20   xadvance=54   page=0    chnl=0 
char id=105     x=467  y=101  width=27   height=77   xoffset=2    yoffset=20   xadvance=30   page=0    chnl=0 
char id=106     x=0    y=0    width=40   height=101  xoffset=-10  yoffset=20   xadvance=30   page=0    chnl=0 
char id=107     x=110  y=180  width=57   height=77   xoffset=-1   yoffset=20   xadvance=54   page=0    chnl=0 
char id=108     x=167  y=180  width=27   height=77   xoffset=2    yoffset=20   xadvance=30   page=0    chnl=0 
char id=112     x=102  y=334  width=53   height=75   xoffset=-2   yoffset=45   xadvance=54   page=0    chnl=0 
char id=113     x=155  y=334  width=53   height=75   xoffset=2    yoffset=45   xadvance=54   page=0    chnl=0 
char id=121     x=432  y=334  width=55   height=74   xoffset=-1   yoffset=47   xadvance=54   page=0    chnl=0 
char id=123     x=40   y=0    width=32   height=101  xoffset=13   yoffset=20   xadvance=51   page=0    chnl=0 
char id=124     x=104  y=0    width=7    height=101  xoffset=7    yoffset=20   xadvance=21   page=0    chnl=0 
char id=125     x=72   y=0    width=32   height=101  xoffset=8    yoffset=20   xadvance=51   page=0    chnl=0 
char id=126     x=80   y=482  width=58   height=18   xoffset=0    yoffset=59   xadvance=58   page=0    chnl=0 
char id=34      x=472  y=146  width=33   height=34   xoffset=5    yoffset=22   xadvance=44   page=1    chnl=0 
char id=39      x=483  y=0    width=13   height=34   xoffset=3    yoffset=22   xadvance=19   page=1    chnl=0 
char id=42      x=431  y=146  width=41   height=47   xoffset=6    yoffset=20   xadvance=54   page=1    chnl=0 
char id=43      x=64   y=73   width=60   height=59   xoffset=0    yoffset=31   xadvance=60   page=1    chnl=0 
char id=44      x=50   y=198  width=19   height=31   xoffset=4    yoffset=84   xadvance=27   page=1    chnl=0 
char id=60      x=124  y=73   width=60   height=55   xoffset=0    yoffset=33   xadvance=60   page=1    chnl=0 
char id=62      x=184  y=73   width=60   height=55   xoffset=0    yoffset=33   xadvance=60   page=1    chnl=0 
char id=76      x=0    y=0    width=64   height=73   xoffset=1    yoffset=24   xadvance=65   page=1    chnl=0 
char id=77      x=64   y=0    width=94   height=73   xoffset=0    yoffset=24   xadvance=95   page=1    chnl=0 
char id=82      x=158  y=0    width=75   height=73   xoffset=0    yoffset=24   xadvance=71   page=1    chnl=0 
char id=84      x=233  y=0    width=62   height=73   xoffset=2    yoffset=24   xadvance=65   page=1    chnl=0 
char id=88      x=295  y=0    width=79   height=73   xoffset=-1   yoffset=24   xadvance=77   page=1    chnl=0 
char id=89      x=374  y=0    width=78   height=73   xoffset=-1   yoffset=24   xadvance=77   page=1    chnl=0 
char id=90      x=0    y=73   width=64   height=73   xoffset=0    yoffset=24   xadvance=65   page=1    chnl=0 
char id=94      x=0    y=198  width=50   height=41   xoffset=0    yoffset=22   xadvance=50   page=1    chnl=0 
char id=97      x=415  y=73   width=47   height=53   xoffset=2    yoffset=45   xadvance=47   page=1    chnl=0 
char id=99      x=244  y=73   width=43   height=54   xoffset=2    yoffset=45   xadvance=47   page=1    chnl=0 
char id=101     x=287  y=73   width=44   height=54   xoffset=2    yoffset=45   xadvance=47   page=1    chnl=0 
char id=109     x=0    y=146  width=85   height=52   xoffset=-1   yoffset=45   xadvance=83   page=1    chnl=0 
char id=110     x=85   y=146  width=56   height=52   xoffset=-1   yoffset=45   xadvance=54   page=1    chnl=0 
char id=111     x=331  y=73   width=49   height=54   xoffset=2    yoffset=45   xadvance=54   page=1    chnl=0 
char id=114     x=462  y=73   width=39   height=52   xoffset=-1   yoffset=45   xadvance=36   page=1    chnl=0 
char id=115     x=380  y=73   width=35   height=54   xoffset=4    yoffset=45   xadvance=42   page=1    chnl=0 
char id=116     x=452  y=0    width=31   height=67   xoffset=0    yoffset=31   xadvance=30   page=1    chnl=0 
char id=117     x=141  y=146  width=56   height=52   xoffset=-1   yoffset=47   xadvance=54   page=1    chnl=0 
char id=118     x=197  y=146  width=55   height=52   xoffset=-1   yoffset=47   xadvance=54   page=1    chnl=0 
char id=119     x=252  y=146  width=79   height=52   xoffset=-1   yoffset=47   xadvance=77   page=1    chnl=0 
char id=120     x=331  y=146  width=54   height=50   xoffset=0    yoffset=47   xadvance=54   page=1    chnl=0 
char id=122     x=385  y=146  width=46   height=50   xoffset=1    yoffset=47   xadvance=47   page=1    chnl=0 
