info face="TimesNewRomanPSMT" size=103 bold=0 italic=0 charset="" unicode=0 stretchH=100 smooth=1 aa=1 padding=1,1,1,1 spacing=-2,-2
common lineHeight=119 base=92 scaleW=512 scaleH=512 pages=2 packed=0
page id=0 file="w_cert_1031.png"
page id=1 file="w_cert_1032.png"
chars count=96
char id=10      x=0    y=0    width=0    height=0    xoffset=-1   yoffset=0    xadvance=0    page=0    chnl=0 
char id=32      x=0    y=0    width=0    height=0    xoffset=-1   yoffset=0    xadvance=26   page=0    chnl=0 
char id=33      x=356  y=173  width=14   height=74   xoffset=10   yoffset=21   xadvance=34   page=0    chnl=0 
char id=34      x=88   y=465  width=32   height=32   xoffset=5    yoffset=21   xadvance=42   page=0    chnl=0 
char id=35      x=410  y=173  width=51   height=74   xoffset=0    yoffset=21   xadvance=52   page=0    chnl=0 
char id=36      x=379  y=0    width=44   height=84   xoffset=4    yoffset=17   xadvance=52   page=0    chnl=0 
char id=37      x=82   y=97   width=82   height=75   xoffset=2    yoffset=21   xadvance=86   page=0    chnl=0 
char id=38      x=0    y=247  width=76   height=74   xoffset=2    yoffset=21   xadvance=80   page=0    chnl=0 
char id=39      x=120  y=465  width=13   height=32   xoffset=3    yoffset=21   xadvance=19   page=0    chnl=0 
char id=40      x=38   y=0    width=30   height=97   xoffset=3    yoffset=19   xadvance=34   page=0    chnl=0 
char id=41      x=68   y=0    width=31   height=97   xoffset=1    yoffset=19   xadvance=34   page=0    chnl=0 
char id=42      x=0    y=465  width=40   height=45   xoffset=6    yoffset=19   xadvance=52   page=0    chnl=0 
char id=44      x=133  y=465  width=18   height=31   xoffset=4    yoffset=80   xadvance=26   page=0    chnl=0 
char id=45      x=299  y=465  width=29   height=10   xoffset=3    yoffset=64   xadvance=34   page=0    chnl=0 
char id=46      x=285  y=465  width=14   height=14   xoffset=6    yoffset=81   xadvance=26   page=0    chnl=0 
char id=47      x=474  y=0    width=31   height=76   xoffset=-1   yoffset=19   xadvance=29   page=0    chnl=0 
char id=48      x=309  y=173  width=47   height=74   xoffset=2    yoffset=21   xadvance=52   page=0    chnl=0 
char id=49      x=269  y=321  width=29   height=72   xoffset=11   yoffset=21   xadvance=52   page=0    chnl=0 
char id=50      x=298  y=321  width=48   height=72   xoffset=1    yoffset=21   xadvance=52   page=0    chnl=0 
char id=51      x=134  y=173  width=41   height=74   xoffset=3    yoffset=21   xadvance=52   page=0    chnl=0 
char id=52      x=346  y=321  width=49   height=72   xoffset=0    yoffset=21   xadvance=52   page=0    chnl=0 
char id=53      x=51   y=321  width=43   height=73   xoffset=3    yoffset=22   xadvance=52   page=0    chnl=0 
char id=54      x=175  y=173  width=46   height=74   xoffset=3    yoffset=21   xadvance=52   page=0    chnl=0 
char id=55      x=94   y=321  width=46   height=73   xoffset=2    yoffset=22   xadvance=52   page=0    chnl=0 
char id=56      x=221  y=173  width=42   height=74   xoffset=5    yoffset=21   xadvance=52   page=0    chnl=0 
char id=57      x=263  y=173  width=46   height=74   xoffset=3    yoffset=21   xadvance=52   page=0    chnl=0 
char id=58      x=492  y=394  width=15   height=52   xoffset=7    yoffset=43   xadvance=29   page=0    chnl=0 
char id=59      x=492  y=321  width=18   height=68   xoffset=6    yoffset=43   xadvance=29   page=0    chnl=0 
char id=61      x=151  y=465  width=58   height=24   xoffset=0    yoffset=46   xadvance=58   page=0    chnl=0 
char id=63      x=370  y=173  width=40   height=74   xoffset=3    yoffset=21   xadvance=46   page=0    chnl=0 
char id=64      x=168  y=0    width=91   height=97   xoffset=3    yoffset=19   xadvance=95   page=0    chnl=0 
char id=65      x=140  y=321  width=76   height=72   xoffset=-1   yoffset=21   xadvance=74   page=0    chnl=0 
char id=66      x=395  y=321  width=65   height=71   xoffset=0    yoffset=22   xadvance=69   page=0    chnl=0 
char id=67      x=164  y=97   width=65   height=74   xoffset=2    yoffset=21   xadvance=69   page=0    chnl=0 
char id=68      x=0    y=394  width=72   height=71   xoffset=0    yoffset=22   xadvance=74   page=0    chnl=0 
char id=69      x=72   y=394  width=61   height=71   xoffset=1    yoffset=22   xadvance=63   page=0    chnl=0 
char id=70      x=133  y=394  width=55   height=71   xoffset=0    yoffset=22   xadvance=57   page=0    chnl=0 
char id=71      x=229  y=97   width=72   height=74   xoffset=2    yoffset=21   xadvance=74   page=0    chnl=0 
char id=72      x=188  y=394  width=74   height=71   xoffset=0    yoffset=22   xadvance=74   page=0    chnl=0 
char id=73      x=460  y=321  width=32   height=71   xoffset=1    yoffset=22   xadvance=34   page=0    chnl=0 
char id=74      x=461  y=173  width=40   height=73   xoffset=1    yoffset=22   xadvance=40   page=0    chnl=0 
char id=75      x=262  y=394  width=78   height=71   xoffset=0    yoffset=22   xadvance=74   page=0    chnl=0 
char id=76      x=340  y=394  width=61   height=71   xoffset=1    yoffset=22   xadvance=63   page=0    chnl=0 
char id=77      x=401  y=394  width=91   height=71   xoffset=0    yoffset=22   xadvance=92   page=0    chnl=0 
char id=78      x=76   y=247  width=78   height=73   xoffset=-3   yoffset=22   xadvance=74   page=0    chnl=0 
char id=79      x=301  y=97   width=70   height=74   xoffset=2    yoffset=21   xadvance=74   page=0    chnl=0 
char id=81      x=259  y=0    width=70   height=93   xoffset=2    yoffset=21   xadvance=74   page=0    chnl=0 
char id=83      x=371  y=97   width=48   height=74   xoffset=5    yoffset=21   xadvance=57   page=0    chnl=0 
char id=85      x=154  y=247  width=76   height=73   xoffset=-1   yoffset=22   xadvance=74   page=0    chnl=0 
char id=86      x=230  y=247  width=76   height=73   xoffset=-1   yoffset=22   xadvance=74   page=0    chnl=0 
char id=87      x=306  y=247  width=98   height=73   xoffset=0    yoffset=22   xadvance=97   page=0    chnl=0 
char id=91      x=329  y=0    width=25   height=93   xoffset=7    yoffset=21   xadvance=34   page=0    chnl=0 
char id=92      x=51   y=97   width=31   height=76   xoffset=-1   yoffset=19   xadvance=29   page=0    chnl=0 
char id=93      x=354  y=0    width=25   height=93   xoffset=2    yoffset=21   xadvance=34   page=0    chnl=0 
char id=94      x=40   y=465  width=48   height=39   xoffset=0    yoffset=21   xadvance=48   page=0    chnl=0 
char id=95      x=328  y=465  width=56   height=7    xoffset=-2   yoffset=109  xadvance=52   page=0    chnl=0 
char id=96      x=209  y=465  width=20   height=20   xoffset=4    yoffset=21   xadvance=34   page=0    chnl=0 
char id=98      x=423  y=0    width=51   height=76   xoffset=-2   yoffset=19   xadvance=52   page=0    chnl=0 
char id=100     x=0    y=97   width=51   height=76   xoffset=2    yoffset=19   xadvance=52   page=0    chnl=0 
char id=102     x=419  y=97   width=54   height=74   xoffset=2    yoffset=19   xadvance=34   page=0    chnl=0 
char id=103     x=404  y=247  width=49   height=73   xoffset=2    yoffset=43   xadvance=52   page=0    chnl=0 
char id=104     x=0    y=173  width=53   height=74   xoffset=-1   yoffset=19   xadvance=52   page=0    chnl=0 
char id=105     x=473  y=97   width=26   height=74   xoffset=2    yoffset=19   xadvance=29   page=0    chnl=0 
char id=106     x=0    y=0    width=38   height=97   xoffset=-9   yoffset=19   xadvance=29   page=0    chnl=0 
char id=107     x=53   y=173  width=55   height=74   xoffset=-1   yoffset=19   xadvance=52   page=0    chnl=0 
char id=108     x=108  y=173  width=26   height=74   xoffset=2    yoffset=19   xadvance=29   page=0    chnl=0 
char id=112     x=453  y=247  width=51   height=73   xoffset=-2   yoffset=43   xadvance=52   page=0    chnl=0 
char id=113     x=0    y=321  width=51   height=73   xoffset=2    yoffset=43   xadvance=52   page=0    chnl=0 
char id=121     x=216  y=321  width=53   height=72   xoffset=-1   yoffset=44   xadvance=52   page=0    chnl=0 
char id=123     x=99   y=0    width=31   height=97   xoffset=13   yoffset=19   xadvance=49   page=0    chnl=0 
char id=124     x=161  y=0    width=7    height=97   xoffset=7    yoffset=19   xadvance=21   page=0    chnl=0 
char id=125     x=130  y=0    width=31   height=97   xoffset=7    yoffset=19   xadvance=49   page=0    chnl=0 
char id=126     x=229  y=465  width=56   height=17   xoffset=0    yoffset=56   xadvance=56   page=0    chnl=0 
char id=43      x=429  y=0    width=58   height=57   xoffset=0    yoffset=29   xadvance=58   page=1    chnl=0 
char id=60      x=165  y=71   width=57   height=52   xoffset=0    yoffset=32   xadvance=58   page=1    chnl=0 
char id=62      x=222  y=71   width=57   height=52   xoffset=0    yoffset=32   xadvance=58   page=1    chnl=0 
char id=80      x=0    y=0    width=55   height=71   xoffset=0    yoffset=22   xadvance=57   page=1    chnl=0 
char id=82      x=55   y=0    width=71   height=71   xoffset=0    yoffset=22   xadvance=69   page=1    chnl=0 
char id=84      x=126  y=0    width=60   height=71   xoffset=2    yoffset=22   xadvance=63   page=1    chnl=0 
char id=88      x=186  y=0    width=76   height=71   xoffset=-1   yoffset=22   xadvance=74   page=1    chnl=0 
char id=89      x=262  y=0    width=75   height=71   xoffset=-1   yoffset=22   xadvance=74   page=1    chnl=0 
char id=90      x=337  y=0    width=62   height=71   xoffset=0    yoffset=22   xadvance=63   page=1    chnl=0 
char id=97      x=279  y=71   width=45   height=51   xoffset=2    yoffset=43   xadvance=46   page=1    chnl=0 
char id=99      x=0    y=71   width=42   height=52   xoffset=2    yoffset=43   xadvance=46   page=1    chnl=0 
char id=101     x=42   y=71   width=42   height=52   xoffset=2    yoffset=43   xadvance=46   page=1    chnl=0 
char id=109     x=0    y=123  width=82   height=50   xoffset=-1   yoffset=43   xadvance=80   page=1    chnl=0 
char id=110     x=82   y=123  width=54   height=50   xoffset=-1   yoffset=43   xadvance=52   page=1    chnl=0 
char id=111     x=84   y=71   width=47   height=52   xoffset=2    yoffset=43   xadvance=52   page=1    chnl=0 
char id=114     x=136  y=123  width=37   height=50   xoffset=-1   yoffset=43   xadvance=34   page=1    chnl=0 
char id=115     x=131  y=71   width=34   height=52   xoffset=4    yoffset=43   xadvance=40   page=1    chnl=0 
char id=116     x=399  y=0    width=30   height=65   xoffset=0    yoffset=29   xadvance=29   page=1    chnl=0 
char id=117     x=324  y=71   width=54   height=51   xoffset=-1   yoffset=44   xadvance=52   page=1    chnl=0 
char id=118     x=378  y=71   width=53   height=51   xoffset=-1   yoffset=44   xadvance=52   page=1    chnl=0 
char id=119     x=431  y=71   width=76   height=51   xoffset=-1   yoffset=44   xadvance=74   page=1    chnl=0 
char id=120     x=173  y=123  width=52   height=49   xoffset=0    yoffset=44   xadvance=52   page=1    chnl=0 
char id=122     x=225  y=123  width=45   height=49   xoffset=1    yoffset=44   xadvance=46   page=1    chnl=0 
