info face="TimesNewRomanPSMT" size=66 bold=0 italic=0 charset="" unicode=0 stretchH=100 smooth=1 aa=1 padding=1,1,1,1 spacing=-2,-2
common lineHeight=77 base=59 scaleW=512 scaleH=512 pages=1 packed=0
page id=0 file="w_cert_66.png"
chars count=96
char id=10      x=0    y=0    width=0    height=0    xoffset=-1   yoffset=0    xadvance=0    page=0    chnl=0 
char id=32      x=0    y=0    width=0    height=0    xoffset=-1   yoffset=0    xadvance=17   page=0    chnl=0 
char id=33      x=486  y=63   width=10   height=48   xoffset=6    yoffset=13   xadvance=22   page=0    chnl=0 
char id=34      x=357  y=252  width=21   height=22   xoffset=3    yoffset=13   xadvance=27   page=0    chnl=0 
char id=35      x=89   y=111  width=33   height=48   xoffset=0    yoffset=13   xadvance=33   page=0    chnl=0 
char id=36      x=254  y=0    width=29   height=56   xoffset=2    yoffset=10   xadvance=33   page=0    chnl=0 
char id=37      x=393  y=0    width=53   height=49   xoffset=1    yoffset=13   xadvance=55   page=0    chnl=0 
char id=38      x=122  y=111  width=50   height=48   xoffset=1    yoffset=13   xadvance=51   page=0    chnl=0 
char id=39      x=497  y=206  width=10   height=22   xoffset=1    yoffset=13   xadvance=12   page=0    chnl=0 
char id=40      x=26   y=0    width=21   height=63   xoffset=1    yoffset=12   xadvance=22   page=0    chnl=0 
char id=41      x=47   y=0    width=21   height=63   xoffset=0    yoffset=12   xadvance=22   page=0    chnl=0 
char id=42      x=299  y=252  width=27   height=29   xoffset=3    yoffset=12   xadvance=33   page=0    chnl=0 
char id=43      x=246  y=206  width=37   height=38   xoffset=0    yoffset=18   xadvance=37   page=0    chnl=0 
char id=44      x=378  y=252  width=13   height=20   xoffset=2    yoffset=51   xadvance=17   page=0    chnl=0 
char id=45      x=490  y=252  width=20   height=8    xoffset=1    yoffset=40   xadvance=22   page=0    chnl=0 
char id=46      x=480  y=252  width=10   height=10   xoffset=3    yoffset=51   xadvance=17   page=0    chnl=0 
char id=47      x=351  y=0    width=21   height=49   xoffset=-1   yoffset=12   xadvance=18   page=0    chnl=0 
char id=48      x=31   y=111  width=31   height=48   xoffset=1    yoffset=13   xadvance=33   page=0    chnl=0 
char id=49      x=446  y=111  width=20   height=47   xoffset=6    yoffset=13   xadvance=33   page=0    chnl=0 
char id=50      x=466  y=111  width=32   height=47   xoffset=0    yoffset=13   xadvance=33   page=0    chnl=0 
char id=51      x=398  y=63   width=28   height=48   xoffset=1    yoffset=13   xadvance=33   page=0    chnl=0 
char id=52      x=0    y=159  width=32   height=47   xoffset=0    yoffset=13   xadvance=33   page=0    chnl=0 
char id=53      x=32   y=159  width=28   height=47   xoffset=2    yoffset=14   xadvance=33   page=0    chnl=0 
char id=54      x=426  y=63   width=31   height=48   xoffset=1    yoffset=13   xadvance=33   page=0    chnl=0 
char id=55      x=60   y=159  width=31   height=47   xoffset=1    yoffset=14   xadvance=33   page=0    chnl=0 
char id=56      x=457  y=63   width=29   height=48   xoffset=2    yoffset=13   xadvance=33   page=0    chnl=0 
char id=57      x=0    y=111  width=31   height=48   xoffset=1    yoffset=13   xadvance=33   page=0    chnl=0 
char id=58      x=498  y=111  width=10   height=34   xoffset=4    yoffset=27   xadvance=18   page=0    chnl=0 
char id=59      x=496  y=63   width=13   height=44   xoffset=3    yoffset=27   xadvance=18   page=0    chnl=0 
char id=60      x=423  y=206  width=37   height=34   xoffset=0    yoffset=20   xadvance=37   page=0    chnl=0 
char id=61      x=391  y=252  width=37   height=16   xoffset=0    yoffset=29   xadvance=37   page=0    chnl=0 
char id=62      x=460  y=206  width=37   height=34   xoffset=0    yoffset=20   xadvance=37   page=0    chnl=0 
char id=63      x=62   y=111  width=27   height=48   xoffset=1    yoffset=13   xadvance=29   page=0    chnl=0 
char id=64      x=115  y=0    width=59   height=63   xoffset=2    yoffset=12   xadvance=61   page=0    chnl=0 
char id=65      x=172  y=111  width=49   height=47   xoffset=-1   yoffset=13   xadvance=48   page=0    chnl=0 
char id=66      x=91   y=159  width=42   height=46   xoffset=0    yoffset=14   xadvance=44   page=0    chnl=0 
char id=67      x=446  y=0    width=42   height=48   xoffset=1    yoffset=13   xadvance=44   page=0    chnl=0 
char id=68      x=133  y=159  width=47   height=46   xoffset=0    yoffset=14   xadvance=48   page=0    chnl=0 
char id=69      x=180  y=159  width=40   height=46   xoffset=0    yoffset=14   xadvance=40   page=0    chnl=0 
char id=70      x=220  y=159  width=35   height=46   xoffset=0    yoffset=14   xadvance=37   page=0    chnl=0 
char id=71      x=0    y=63   width=47   height=48   xoffset=1    yoffset=13   xadvance=48   page=0    chnl=0 
char id=72      x=255  y=159  width=48   height=46   xoffset=0    yoffset=14   xadvance=48   page=0    chnl=0 
char id=73      x=303  y=159  width=22   height=46   xoffset=0    yoffset=14   xadvance=22   page=0    chnl=0 
char id=74      x=221  y=111  width=27   height=47   xoffset=0    yoffset=14   xadvance=26   page=0    chnl=0 
char id=75      x=325  y=159  width=50   height=46   xoffset=0    yoffset=14   xadvance=48   page=0    chnl=0 
char id=76      x=375  y=159  width=40   height=46   xoffset=0    yoffset=14   xadvance=40   page=0    chnl=0 
char id=77      x=415  y=159  width=59   height=46   xoffset=0    yoffset=14   xadvance=59   page=0    chnl=0 
char id=78      x=248  y=111  width=50   height=47   xoffset=-2   yoffset=14   xadvance=48   page=0    chnl=0 
char id=79      x=47   y=63   width=46   height=48   xoffset=1    yoffset=13   xadvance=48   page=0    chnl=0 
char id=80      x=474  y=159  width=36   height=46   xoffset=0    yoffset=14   xadvance=37   page=0    chnl=0 
char id=81      x=208  y=0    width=46   height=60   xoffset=1    yoffset=13   xadvance=48   page=0    chnl=0 
char id=82      x=0    y=206  width=46   height=46   xoffset=0    yoffset=14   xadvance=44   page=0    chnl=0 
char id=83      x=93   y=63   width=32   height=48   xoffset=3    yoffset=13   xadvance=37   page=0    chnl=0 
char id=84      x=46   y=206  width=40   height=46   xoffset=0    yoffset=14   xadvance=40   page=0    chnl=0 
char id=85      x=125  y=63   width=49   height=48   xoffset=-1   yoffset=14   xadvance=48   page=0    chnl=0 
char id=86      x=298  y=111  width=49   height=47   xoffset=-1   yoffset=14   xadvance=48   page=0    chnl=0 
char id=87      x=347  y=111  width=64   height=47   xoffset=-1   yoffset=14   xadvance=62   page=0    chnl=0 
char id=88      x=86   y=206  width=49   height=46   xoffset=-1   yoffset=14   xadvance=48   page=0    chnl=0 
char id=89      x=135  y=206  width=49   height=46   xoffset=-1   yoffset=14   xadvance=48   page=0    chnl=0 
char id=90      x=184  y=206  width=41   height=46   xoffset=-1   yoffset=14   xadvance=40   page=0    chnl=0 
char id=91      x=174  y=0    width=17   height=61   xoffset=4    yoffset=13   xadvance=22   page=0    chnl=0 
char id=92      x=372  y=0    width=21   height=49   xoffset=-1   yoffset=12   xadvance=18   page=0    chnl=0 
char id=93      x=191  y=0    width=17   height=61   xoffset=1    yoffset=13   xadvance=22   page=0    chnl=0 
char id=94      x=326  y=252  width=31   height=26   xoffset=0    yoffset=13   xadvance=31   page=0    chnl=0 
char id=95      x=0    y=285  width=37   height=6    xoffset=-2   yoffset=69   xadvance=33   page=0    chnl=0 
char id=96      x=428  y=252  width=14   height=14   xoffset=2    yoffset=13   xadvance=22   page=0    chnl=0 
char id=97      x=283  y=206  width=30   height=34   xoffset=1    yoffset=27   xadvance=29   page=0    chnl=0 
char id=98      x=283  y=0    width=34   height=49   xoffset=-2   yoffset=12   xadvance=33   page=0    chnl=0 
char id=99      x=313  y=206  width=28   height=34   xoffset=1    yoffset=27   xadvance=29   page=0    chnl=0 
char id=100     x=317  y=0    width=34   height=49   xoffset=1    yoffset=12   xadvance=33   page=0    chnl=0 
char id=101     x=341  y=206  width=28   height=34   xoffset=1    yoffset=27   xadvance=29   page=0    chnl=0 
char id=102     x=174  y=63   width=35   height=48   xoffset=1    yoffset=12   xadvance=22   page=0    chnl=0 
char id=103     x=209  y=63   width=33   height=48   xoffset=0    yoffset=27   xadvance=33   page=0    chnl=0 
char id=104     x=242  y=63   width=35   height=48   xoffset=-1   yoffset=12   xadvance=33   page=0    chnl=0 
char id=105     x=488  y=0    width=18   height=48   xoffset=0    yoffset=12   xadvance=18   page=0    chnl=0 
char id=106     x=0    y=0    width=26   height=63   xoffset=-7   yoffset=12   xadvance=18   page=0    chnl=0 
char id=107     x=277  y=63   width=36   height=48   xoffset=-1   yoffset=12   xadvance=33   page=0    chnl=0 
char id=108     x=313  y=63   width=18   height=48   xoffset=0    yoffset=12   xadvance=18   page=0    chnl=0 
char id=109     x=0    y=252  width=54   height=33   xoffset=-1   yoffset=27   xadvance=51   page=0    chnl=0 
char id=110     x=54   y=252  width=35   height=33   xoffset=-1   yoffset=27   xadvance=33   page=0    chnl=0 
char id=111     x=369  y=206  width=31   height=34   xoffset=1    yoffset=27   xadvance=33   page=0    chnl=0 
char id=112     x=331  y=63   width=34   height=48   xoffset=-2   yoffset=27   xadvance=33   page=0    chnl=0 
char id=113     x=365  y=63   width=33   height=48   xoffset=1    yoffset=27   xadvance=33   page=0    chnl=0 
char id=114     x=89   y=252  width=25   height=33   xoffset=-1   yoffset=27   xadvance=22   page=0    chnl=0 
char id=115     x=400  y=206  width=23   height=34   xoffset=2    yoffset=27   xadvance=26   page=0    chnl=0 
char id=116     x=225  y=206  width=21   height=43   xoffset=-1   yoffset=18   xadvance=18   page=0    chnl=0 
char id=117     x=114  y=252  width=35   height=33   xoffset=-1   yoffset=28   xadvance=33   page=0    chnl=0 
char id=118     x=149  y=252  width=35   height=33   xoffset=-1   yoffset=28   xadvance=33   page=0    chnl=0 
char id=119     x=184  y=252  width=50   height=33   xoffset=-1   yoffset=28   xadvance=48   page=0    chnl=0 
char id=120     x=234  y=252  width=35   height=32   xoffset=-1   yoffset=28   xadvance=33   page=0    chnl=0 
char id=121     x=411  y=111  width=35   height=47   xoffset=-1   yoffset=28   xadvance=33   page=0    chnl=0 
char id=122     x=269  y=252  width=30   height=32   xoffset=0    yoffset=28   xadvance=29   page=0    chnl=0 
char id=123     x=68   y=0    width=21   height=63   xoffset=8    yoffset=12   xadvance=32   page=0    chnl=0 
char id=124     x=110  y=0    width=5    height=63   xoffset=4    yoffset=12   xadvance=13   page=0    chnl=0 
char id=125     x=89   y=0    width=21   height=63   xoffset=4    yoffset=12   xadvance=32   page=0    chnl=0 
char id=126     x=442  y=252  width=38   height=12   xoffset=-1   yoffset=36   xadvance=36   page=0    chnl=0 
