info face="TimesNewRomanPSMT" size=50 bold=0 italic=0 charset="" unicode=0 stretchH=100 smooth=1 aa=1 padding=1,1,1,1 spacing=-2,-2
common lineHeight=58 base=45 scaleW=512 scaleH=512 pages=1 packed=0
page id=0 file="w_cert_50.png"
chars count=96
char id=10      x=0    y=0    width=0    height=0    xoffset=-1   yoffset=0    xadvance=0    page=0    chnl=0 
char id=32      x=0    y=0    width=0    height=0    xoffset=-1   yoffset=0    xadvance=13   page=0    chnl=0 
char id=33      x=487  y=48   width=9    height=37   xoffset=4    yoffset=10   xadvance=17   page=0    chnl=0 
char id=34      x=234  y=158  width=17   height=17   xoffset=2    yoffset=10   xadvance=20   page=0    chnl=0 
char id=35      x=46   y=85   width=27   height=37   xoffset=-1   yoffset=10   xadvance=25   page=0    chnl=0 
char id=36      x=197  y=0    width=23   height=42   xoffset=1    yoffset=8    xadvance=25   page=0    chnl=0 
char id=37      x=307  y=0    width=41   height=38   xoffset=0    yoffset=10   xadvance=42   page=0    chnl=0 
char id=38      x=73   y=85   width=39   height=37   xoffset=0    yoffset=10   xadvance=39   page=0    chnl=0 
char id=39      x=495  y=122  width=8    height=17   xoffset=0    yoffset=10   xadvance=9    page=0    chnl=0 
char id=40      x=19   y=0    width=16   height=48   xoffset=1    yoffset=9    xadvance=17   page=0    chnl=0 
char id=41      x=35   y=0    width=16   height=48   xoffset=0    yoffset=9    xadvance=17   page=0    chnl=0 
char id=42      x=188  y=158  width=21   height=23   xoffset=2    yoffset=9    xadvance=25   page=0    chnl=0 
char id=43      x=253  y=122  width=30   height=29   xoffset=-1   yoffset=14   xadvance=28   page=0    chnl=0 
char id=44      x=251  y=158  width=10   height=16   xoffset=1    yoffset=39   xadvance=13   page=0    chnl=0 
char id=45      x=331  y=158  width=15   height=7    xoffset=1    yoffset=30   xadvance=17   page=0    chnl=0 
char id=46      x=503  y=122  width=8    height=8    xoffset=2    yoffset=39   xadvance=13   page=0    chnl=0 
char id=47      x=274  y=0    width=17   height=38   xoffset=-1   yoffset=9    xadvance=14   page=0    chnl=0 
char id=48      x=0    y=85   width=25   height=37   xoffset=0    yoffset=10   xadvance=25   page=0    chnl=0 
char id=49      x=171  y=122  width=16   height=36   xoffset=4    yoffset=10   xadvance=25   page=0    chnl=0 
char id=50      x=187  y=122  width=24   height=36   xoffset=0    yoffset=10   xadvance=25   page=0    chnl=0 
char id=51      x=350  y=48   width=21   height=37   xoffset=1    yoffset=10   xadvance=25   page=0    chnl=0 
char id=52      x=211  y=122  width=26   height=36   xoffset=-1   yoffset=10   xadvance=25   page=0    chnl=0 
char id=53      x=371  y=48   width=22   height=37   xoffset=1    yoffset=10   xadvance=25   page=0    chnl=0 
char id=54      x=393  y=48   width=24   height=37   xoffset=1    yoffset=10   xadvance=25   page=0    chnl=0 
char id=55      x=417  y=48   width=24   height=37   xoffset=0    yoffset=10   xadvance=25   page=0    chnl=0 
char id=56      x=441  y=48   width=22   height=37   xoffset=2    yoffset=10   xadvance=25   page=0    chnl=0 
char id=57      x=463  y=48   width=24   height=37   xoffset=0    yoffset=10   xadvance=25   page=0    chnl=0 
char id=58      x=503  y=0    width=8    height=27   xoffset=3    yoffset=20   xadvance=14   page=0    chnl=0 
char id=59      x=496  y=48   width=10   height=35   xoffset=2    yoffset=20   xadvance=14   page=0    chnl=0 
char id=60      x=394  y=122  width=30   height=27   xoffset=-1   yoffset=15   xadvance=28   page=0    chnl=0 
char id=61      x=261  y=158  width=30   height=13   xoffset=-1   yoffset=22   xadvance=28   page=0    chnl=0 
char id=62      x=424  y=122  width=30   height=27   xoffset=-1   yoffset=15   xadvance=28   page=0    chnl=0 
char id=63      x=25   y=85   width=21   height=37   xoffset=1    yoffset=10   xadvance=22   page=0    chnl=0 
char id=64      x=89   y=0    width=45   height=48   xoffset=1    yoffset=9    xadvance=46   page=0    chnl=0 
char id=65      x=112  y=85   width=38   height=36   xoffset=-1   yoffset=10   xadvance=36   page=0    chnl=0 
char id=66      x=150  y=85   width=33   height=36   xoffset=-1   yoffset=10   xadvance=33   page=0    chnl=0 
char id=67      x=348  y=0    width=33   height=37   xoffset=0    yoffset=10   xadvance=33   page=0    chnl=0 
char id=68      x=183  y=85   width=37   height=36   xoffset=-1   yoffset=10   xadvance=36   page=0    chnl=0 
char id=69      x=220  y=85   width=31   height=36   xoffset=0    yoffset=10   xadvance=31   page=0    chnl=0 
char id=70      x=251  y=85   width=28   height=36   xoffset=-1   yoffset=10   xadvance=28   page=0    chnl=0 
char id=71      x=381  y=0    width=37   height=37   xoffset=0    yoffset=10   xadvance=36   page=0    chnl=0 
char id=72      x=279  y=85   width=38   height=36   xoffset=-1   yoffset=10   xadvance=36   page=0    chnl=0 
char id=73      x=317  y=85   width=17   height=36   xoffset=0    yoffset=10   xadvance=17   page=0    chnl=0 
char id=74      x=418  y=0    width=21   height=37   xoffset=0    yoffset=10   xadvance=19   page=0    chnl=0 
char id=75      x=334  y=85   width=39   height=36   xoffset=-1   yoffset=10   xadvance=36   page=0    chnl=0 
char id=76      x=373  y=85   width=31   height=36   xoffset=0    yoffset=10   xadvance=31   page=0    chnl=0 
char id=77      x=404  y=85   width=46   height=36   xoffset=-1   yoffset=10   xadvance=44   page=0    chnl=0 
char id=78      x=439  y=0    width=39   height=37   xoffset=-2   yoffset=10   xadvance=36   page=0    chnl=0 
char id=79      x=0    y=48   width=36   height=37   xoffset=0    yoffset=10   xadvance=36   page=0    chnl=0 
char id=80      x=450  y=85   width=29   height=36   xoffset=-1   yoffset=10   xadvance=28   page=0    chnl=0 
char id=81      x=134  y=0    width=36   height=46   xoffset=0    yoffset=10   xadvance=36   page=0    chnl=0 
char id=82      x=0    y=122  width=36   height=36   xoffset=-1   yoffset=10   xadvance=33   page=0    chnl=0 
char id=83      x=478  y=0    width=25   height=37   xoffset=2    yoffset=10   xadvance=28   page=0    chnl=0 
char id=84      x=479  y=85   width=31   height=36   xoffset=0    yoffset=10   xadvance=31   page=0    chnl=0 
char id=85      x=36   y=48   width=38   height=37   xoffset=-1   yoffset=10   xadvance=36   page=0    chnl=0 
char id=86      x=74   y=48   width=38   height=37   xoffset=-1   yoffset=10   xadvance=36   page=0    chnl=0 
char id=87      x=112  y=48   width=49   height=37   xoffset=-1   yoffset=10   xadvance=47   page=0    chnl=0 
char id=88      x=36   y=122  width=38   height=36   xoffset=-1   yoffset=10   xadvance=36   page=0    chnl=0 
char id=89      x=74   y=122  width=38   height=36   xoffset=-1   yoffset=10   xadvance=36   page=0    chnl=0 
char id=90      x=112  y=122  width=32   height=36   xoffset=-1   yoffset=10   xadvance=31   page=0    chnl=0 
char id=91      x=170  y=0    width=13   height=46   xoffset=3    yoffset=10   xadvance=17   page=0    chnl=0 
char id=92      x=291  y=0    width=16   height=38   xoffset=-1   yoffset=9    xadvance=14   page=0    chnl=0 
char id=93      x=183  y=0    width=14   height=46   xoffset=0    yoffset=10   xadvance=17   page=0    chnl=0 
char id=94      x=209  y=158  width=25   height=20   xoffset=-1   yoffset=10   xadvance=23   page=0    chnl=0 
char id=95      x=346  y=158  width=29   height=5    xoffset=-2   yoffset=52   xadvance=25   page=0    chnl=0 
char id=96      x=291  y=158  width=11   height=11   xoffset=1    yoffset=10   xadvance=17   page=0    chnl=0 
char id=97      x=283  y=122  width=24   height=27   xoffset=0    yoffset=20   xadvance=22   page=0    chnl=0 
char id=98      x=220  y=0    width=27   height=38   xoffset=-2   yoffset=9    xadvance=25   page=0    chnl=0 
char id=99      x=307  y=122  width=22   height=27   xoffset=0    yoffset=20   xadvance=22   page=0    chnl=0 
char id=100     x=247  y=0    width=27   height=38   xoffset=0    yoffset=9    xadvance=25   page=0    chnl=0 
char id=101     x=329  y=122  width=22   height=27   xoffset=0    yoffset=20   xadvance=22   page=0    chnl=0 
char id=102     x=161  y=48   width=27   height=37   xoffset=0    yoffset=9    xadvance=17   page=0    chnl=0 
char id=103     x=188  y=48   width=26   height=37   xoffset=0    yoffset=20   xadvance=25   page=0    chnl=0 
char id=104     x=214  y=48   width=27   height=37   xoffset=-1   yoffset=9    xadvance=25   page=0    chnl=0 
char id=105     x=241  y=48   width=14   height=37   xoffset=0    yoffset=9    xadvance=14   page=0    chnl=0 
char id=106     x=0    y=0    width=19   height=48   xoffset=-5   yoffset=9    xadvance=14   page=0    chnl=0 
char id=107     x=255  y=48   width=28   height=37   xoffset=-1   yoffset=9    xadvance=25   page=0    chnl=0 
char id=108     x=283  y=48   width=14   height=37   xoffset=0    yoffset=9    xadvance=14   page=0    chnl=0 
char id=109     x=454  y=122  width=41   height=26   xoffset=-1   yoffset=20   xadvance=39   page=0    chnl=0 
char id=110     x=0    y=158  width=27   height=26   xoffset=-1   yoffset=20   xadvance=25   page=0    chnl=0 
char id=111     x=351  y=122  width=25   height=27   xoffset=0    yoffset=20   xadvance=25   page=0    chnl=0 
char id=112     x=297  y=48   width=27   height=37   xoffset=-2   yoffset=20   xadvance=25   page=0    chnl=0 
char id=113     x=324  y=48   width=26   height=37   xoffset=0    yoffset=20   xadvance=25   page=0    chnl=0 
char id=114     x=27   y=158  width=19   height=26   xoffset=-1   yoffset=20   xadvance=17   page=0    chnl=0 
char id=115     x=376  y=122  width=18   height=27   xoffset=1    yoffset=20   xadvance=19   page=0    chnl=0 
char id=116     x=237  y=122  width=16   height=33   xoffset=-1   yoffset=14   xadvance=14   page=0    chnl=0 
char id=117     x=46   y=158  width=27   height=26   xoffset=-1   yoffset=21   xadvance=25   page=0    chnl=0 
char id=118     x=73   y=158  width=27   height=26   xoffset=-1   yoffset=21   xadvance=25   page=0    chnl=0 
char id=119     x=100  y=158  width=38   height=26   xoffset=-1   yoffset=21   xadvance=36   page=0    chnl=0 
char id=120     x=138  y=158  width=27   height=25   xoffset=-1   yoffset=21   xadvance=25   page=0    chnl=0 
char id=121     x=144  y=122  width=27   height=36   xoffset=-1   yoffset=21   xadvance=25   page=0    chnl=0 
char id=122     x=165  y=158  width=23   height=25   xoffset=0    yoffset=21   xadvance=22   page=0    chnl=0 
char id=123     x=51   y=0    width=17   height=48   xoffset=5    yoffset=9    xadvance=24   page=0    chnl=0 
char id=124     x=84   y=0    width=5    height=48   xoffset=2    yoffset=9    xadvance=10   page=0    chnl=0 
char id=125     x=68   y=0    width=16   height=48   xoffset=3    yoffset=9    xadvance=24   page=0    chnl=0 
char id=126     x=302  y=158  width=29   height=10   xoffset=-1   yoffset=27   xadvance=27   page=0    chnl=0 
