info face="TimesNewRomanPSMT" size=80 bold=0 italic=0 charset="" unicode=0 stretchH=100 smooth=1 aa=1 padding=1,1,1,1 spacing=-2,-2
common lineHeight=93 base=72 scaleW=512 scaleH=512 pages=1 packed=0
page id=0 file="w_cert_80.png"
chars count=96
char id=10      x=0    y=0    width=0    height=0    xoffset=-1   yoffset=0    xadvance=0    page=0    chnl=0 
char id=32      x=0    y=0    width=0    height=0    xoffset=-1   yoffset=0    xadvance=20   page=0    chnl=0 
char id=33      x=263  y=76   width=12   height=59   xoffset=7    yoffset=16   xadvance=27   page=0    chnl=0 
char id=34      x=427  y=361  width=25   height=26   xoffset=4    yoffset=16   xadvance=33   page=0    chnl=0 
char id=35      x=307  y=76   width=40   height=59   xoffset=0    yoffset=16   xadvance=40   page=0    chnl=0 
char id=36      x=302  y=0    width=34   height=67   xoffset=3    yoffset=13   xadvance=40   page=0    chnl=0 
char id=37      x=0    y=76   width=64   height=60   xoffset=1    yoffset=16   xadvance=67   page=0    chnl=0 
char id=38      x=347  y=76   width=60   height=59   xoffset=1    yoffset=16   xadvance=62   page=0    chnl=0 
char id=39      x=452  y=361  width=11   height=26   xoffset=2    yoffset=16   xadvance=14   page=0    chnl=0 
char id=40      x=31   y=0    width=24   height=76   xoffset=2    yoffset=15   xadvance=27   page=0    chnl=0 
char id=41      x=55   y=0    width=25   height=76   xoffset=0    yoffset=15   xadvance=27   page=0    chnl=0 
char id=42      x=357  y=361  width=32   height=35   xoffset=4    yoffset=15   xadvance=40   page=0    chnl=0 
char id=43      x=191  y=306  width=45   height=45   xoffset=0    yoffset=23   xadvance=45   page=0    chnl=0 
char id=44      x=463  y=361  width=14   height=24   xoffset=3    yoffset=63   xadvance=20   page=0    chnl=0 
char id=45      x=90   y=401  width=23   height=8    xoffset=2    yoffset=50   xadvance=27   page=0    chnl=0 
char id=46      x=493  y=361  width=12   height=12   xoffset=4    yoffset=63   xadvance=20   page=0    chnl=0 
char id=47      x=418  y=0    width=25   height=60   xoffset=-1   yoffset=15   xadvance=22   page=0    chnl=0 
char id=48      x=167  y=136  width=38   height=58   xoffset=1    yoffset=16   xadvance=40   page=0    chnl=0 
char id=49      x=120  y=194  width=24   height=57   xoffset=8    yoffset=16   xadvance=40   page=0    chnl=0 
char id=50      x=144  y=194  width=38   height=57   xoffset=0    yoffset=16   xadvance=40   page=0    chnl=0 
char id=51      x=64   y=136  width=33   height=58   xoffset=2    yoffset=16   xadvance=40   page=0    chnl=0 
char id=52      x=182  y=194  width=39   height=57   xoffset=0    yoffset=16   xadvance=40   page=0    chnl=0 
char id=53      x=362  y=194  width=34   height=56   xoffset=2    yoffset=18   xadvance=40   page=0    chnl=0 
char id=54      x=97   y=136  width=36   height=58   xoffset=2    yoffset=16   xadvance=40   page=0    chnl=0 
char id=55      x=221  y=194  width=37   height=57   xoffset=1    yoffset=18   xadvance=40   page=0    chnl=0 
char id=56      x=133  y=136  width=34   height=58   xoffset=3    yoffset=16   xadvance=40   page=0    chnl=0 
char id=57      x=227  y=76   width=36   height=59   xoffset=2    yoffset=16   xadvance=40   page=0    chnl=0 
char id=58      x=369  y=306  width=12   height=41   xoffset=5    yoffset=34   xadvance=22   page=0    chnl=0 
char id=59      x=490  y=136  width=15   height=53   xoffset=4    yoffset=34   xadvance=22   page=0    chnl=0 
char id=60      x=381  y=306  width=45   height=41   xoffset=0    yoffset=25   xadvance=45   page=0    chnl=0 
char id=61      x=0    y=401  width=45   height=19   xoffset=0    yoffset=36   xadvance=45   page=0    chnl=0 
char id=62      x=426  y=306  width=45   height=41   xoffset=0    yoffset=25   xadvance=45   page=0    chnl=0 
char id=63      x=275  y=76   width=32   height=59   xoffset=2    yoffset=16   xadvance=36   page=0    chnl=0 
char id=64      x=135  y=0    width=71   height=76   xoffset=2    yoffset=15   xadvance=74   page=0    chnl=0 
char id=65      x=205  y=136  width=59   height=57   xoffset=-1   yoffset=16   xadvance=58   page=0    chnl=0 
char id=66      x=396  y=194  width=50   height=55   xoffset=0    yoffset=18   xadvance=53   page=0    chnl=0 
char id=67      x=64   y=76   width=51   height=59   xoffset=1    yoffset=16   xadvance=53   page=0    chnl=0 
char id=68      x=446  y=194  width=56   height=55   xoffset=0    yoffset=18   xadvance=58   page=0    chnl=0 
char id=69      x=0    y=251  width=49   height=55   xoffset=0    yoffset=18   xadvance=49   page=0    chnl=0 
char id=70      x=49   y=251  width=43   height=55   xoffset=0    yoffset=18   xadvance=44   page=0    chnl=0 
char id=71      x=115  y=76   width=57   height=59   xoffset=1    yoffset=16   xadvance=58   page=0    chnl=0 
char id=72      x=92   y=251  width=58   height=55   xoffset=0    yoffset=18   xadvance=58   page=0    chnl=0 
char id=73      x=150  y=251  width=26   height=55   xoffset=0    yoffset=18   xadvance=27   page=0    chnl=0 
char id=74      x=264  y=136  width=32   height=57   xoffset=0    yoffset=18   xadvance=31   page=0    chnl=0 
char id=75      x=176  y=251  width=60   height=55   xoffset=0    yoffset=18   xadvance=58   page=0    chnl=0 
char id=76      x=236  y=251  width=49   height=55   xoffset=0    yoffset=18   xadvance=49   page=0    chnl=0 
char id=77      x=285  y=251  width=71   height=55   xoffset=0    yoffset=18   xadvance=71   page=0    chnl=0 
char id=78      x=258  y=194  width=62   height=56   xoffset=-3   yoffset=18   xadvance=58   page=0    chnl=0 
char id=79      x=172  y=76   width=55   height=59   xoffset=1    yoffset=16   xadvance=58   page=0    chnl=0 
char id=80      x=356  y=251  width=43   height=55   xoffset=0    yoffset=18   xadvance=44   page=0    chnl=0 
char id=81      x=206  y=0    width=55   height=73   xoffset=1    yoffset=16   xadvance=58   page=0    chnl=0 
char id=82      x=399  y=251  width=57   height=55   xoffset=0    yoffset=18   xadvance=53   page=0    chnl=0 
char id=83      x=468  y=0    width=38   height=59   xoffset=4    yoffset=16   xadvance=44   page=0    chnl=0 
char id=84      x=456  y=251  width=47   height=55   xoffset=1    yoffset=18   xadvance=49   page=0    chnl=0 
char id=85      x=296  y=136  width=59   height=57   xoffset=-1   yoffset=18   xadvance=58   page=0    chnl=0 
char id=86      x=355  y=136  width=59   height=57   xoffset=-1   yoffset=18   xadvance=58   page=0    chnl=0 
char id=87      x=414  y=136  width=76   height=57   xoffset=0    yoffset=18   xadvance=76   page=0    chnl=0 
char id=88      x=0    y=306  width=59   height=55   xoffset=-1   yoffset=18   xadvance=58   page=0    chnl=0 
char id=89      x=59   y=306  width=59   height=55   xoffset=-1   yoffset=18   xadvance=58   page=0    chnl=0 
char id=90      x=118  y=306  width=48   height=55   xoffset=0    yoffset=18   xadvance=49   page=0    chnl=0 
char id=91      x=261  y=0    width=20   height=73   xoffset=5    yoffset=16   xadvance=27   page=0    chnl=0 
char id=92      x=443  y=0    width=25   height=60   xoffset=-1   yoffset=15   xadvance=22   page=0    chnl=0 
char id=93      x=281  y=0    width=21   height=73   xoffset=1    yoffset=16   xadvance=27   page=0    chnl=0 
char id=94      x=389  y=361  width=38   height=31   xoffset=0    yoffset=16   xadvance=38   page=0    chnl=0 
char id=95      x=113  y=401  width=44   height=7    xoffset=-2   yoffset=84   xadvance=40   page=0    chnl=0 
char id=96      x=477  y=361  width=16   height=17   xoffset=3    yoffset=16   xadvance=27   page=0    chnl=0 
char id=97      x=471  y=306  width=36   height=40   xoffset=1    yoffset=34   xadvance=36   page=0    chnl=0 
char id=98      x=336  y=0    width=41   height=60   xoffset=-2   yoffset=15   xadvance=40   page=0    chnl=0 
char id=99      x=236  y=306  width=33   height=41   xoffset=1    yoffset=34   xadvance=36   page=0    chnl=0 
char id=100     x=377  y=0    width=41   height=60   xoffset=1    yoffset=15   xadvance=40   page=0    chnl=0 
char id=101     x=269  y=306  width=34   height=41   xoffset=1    yoffset=34   xadvance=36   page=0    chnl=0 
char id=102     x=407  y=76   width=41   height=58   xoffset=2    yoffset=15   xadvance=27   page=0    chnl=0 
char id=103     x=0    y=194  width=39   height=57   xoffset=1    yoffset=34   xadvance=40   page=0    chnl=0 
char id=104     x=448  y=76   width=42   height=58   xoffset=-1   yoffset=15   xadvance=40   page=0    chnl=0 
char id=105     x=490  y=76   width=21   height=58   xoffset=1    yoffset=15   xadvance=22   page=0    chnl=0 
char id=106     x=0    y=0    width=31   height=76   xoffset=-8   yoffset=15   xadvance=22   page=0    chnl=0 
char id=107     x=0    y=136  width=43   height=58   xoffset=-1   yoffset=15   xadvance=40   page=0    chnl=0 
char id=108     x=43   y=136  width=21   height=58   xoffset=1    yoffset=15   xadvance=22   page=0    chnl=0 
char id=109     x=144  y=361  width=64   height=39   xoffset=-1   yoffset=34   xadvance=62   page=0    chnl=0 
char id=110     x=208  y=361  width=42   height=39   xoffset=-1   yoffset=34   xadvance=40   page=0    chnl=0 
char id=111     x=303  y=306  width=38   height=41   xoffset=1    yoffset=34   xadvance=40   page=0    chnl=0 
char id=112     x=39   y=194  width=41   height=57   xoffset=-2   yoffset=34   xadvance=40   page=0    chnl=0 
char id=113     x=80   y=194  width=40   height=57   xoffset=1    yoffset=34   xadvance=40   page=0    chnl=0 
char id=114     x=250  y=361  width=30   height=39   xoffset=-1   yoffset=34   xadvance=27   page=0    chnl=0 
char id=115     x=341  y=306  width=28   height=41   xoffset=2    yoffset=34   xadvance=31   page=0    chnl=0 
char id=116     x=166  y=306  width=25   height=51   xoffset=-1   yoffset=23   xadvance=22   page=0    chnl=0 
char id=117     x=0    y=361  width=42   height=40   xoffset=-1   yoffset=35   xadvance=40   page=0    chnl=0 
char id=118     x=42   y=361  width=42   height=40   xoffset=-1   yoffset=35   xadvance=40   page=0    chnl=0 
char id=119     x=84   y=361  width=60   height=40   xoffset=-1   yoffset=35   xadvance=58   page=0    chnl=0 
char id=120     x=280  y=361  width=41   height=38   xoffset=0    yoffset=35   xadvance=40   page=0    chnl=0 
char id=121     x=320  y=194  width=42   height=56   xoffset=-1   yoffset=35   xadvance=40   page=0    chnl=0 
char id=122     x=321  y=361  width=36   height=38   xoffset=0    yoffset=35   xadvance=36   page=0    chnl=0 
char id=123     x=80   y=0    width=24   height=76   xoffset=10   yoffset=15   xadvance=38   page=0    chnl=0 
char id=124     x=129  y=0    width=6    height=76   xoffset=5    yoffset=15   xadvance=16   page=0    chnl=0 
char id=125     x=104  y=0    width=25   height=76   xoffset=5    yoffset=15   xadvance=38   page=0    chnl=0 
char id=126     x=45   y=401  width=45   height=14   xoffset=-1   yoffset=44   xadvance=43   page=0    chnl=0 
