info face="TimesNewRomanPSMT" size=96 bold=0 italic=0 charset="" unicode=0 stretchH=100 smooth=1 aa=1 padding=1,1,1,1 spacing=-2,-2
common lineHeight=111 base=86 scaleW=512 scaleH=512 pages=2 packed=0
page id=0 file="w_cert_961.png"
page id=1 file="w_cert_962.png"
chars count=96
char id=10      x=0    y=0    width=0    height=0    xoffset=-1   yoffset=0    xadvance=0    page=0    chnl=0 
char id=32      x=0    y=0    width=0    height=0    xoffset=-1   yoffset=0    xadvance=24   page=0    chnl=0 
char id=33      x=494  y=0    width=14   height=70   xoffset=9    yoffset=19   xadvance=32   page=0    chnl=0 
char id=35      x=408  y=90   width=48   height=70   xoffset=0    yoffset=19   xadvance=48   page=0    chnl=0 
char id=36      x=357  y=0    width=41   height=79   xoffset=4    yoffset=16   xadvance=48   page=0    chnl=0 
char id=37      x=58   y=90   width=76   height=71   xoffset=2    yoffset=19   xadvance=80   page=0    chnl=0 
char id=38      x=0    y=161  width=71   height=70   xoffset=2    yoffset=19   xadvance=75   page=0    chnl=0 
char id=40      x=36   y=0    width=29   height=90   xoffset=2    yoffset=18   xadvance=32   page=0    chnl=0 
char id=41      x=65   y=0    width=29   height=90   xoffset=1    yoffset=18   xadvance=32   page=0    chnl=0 
char id=43      x=206  y=433  width=54   height=54   xoffset=0    yoffset=27   xadvance=54   page=0    chnl=0 
char id=45      x=0    y=499  width=28   height=10   xoffset=2    yoffset=59   xadvance=32   page=0    chnl=0 
char id=47      x=0    y=90   width=29   height=71   xoffset=-1   yoffset=18   xadvance=27   page=0    chnl=0 
char id=48      x=388  y=161  width=44   height=69   xoffset=2    yoffset=20   xadvance=48   page=0    chnl=0 
char id=49      x=83   y=299  width=28   height=67   xoffset=10   yoffset=20   xadvance=48   page=0    chnl=0 
char id=50      x=111  y=299  width=45   height=67   xoffset=1    yoffset=20   xadvance=48   page=0    chnl=0 
char id=51      x=222  y=161  width=40   height=69   xoffset=2    yoffset=20   xadvance=48   page=0    chnl=0 
char id=52      x=156  y=299  width=46   height=67   xoffset=0    yoffset=20   xadvance=48   page=0    chnl=0 
char id=53      x=0    y=299  width=40   height=68   xoffset=3    yoffset=21   xadvance=48   page=0    chnl=0 
char id=54      x=262  y=161  width=43   height=69   xoffset=3    yoffset=20   xadvance=48   page=0    chnl=0 
char id=55      x=40   y=299  width=43   height=68   xoffset=2    yoffset=21   xadvance=48   page=0    chnl=0 
char id=56      x=305  y=161  width=40   height=69   xoffset=4    yoffset=20   xadvance=48   page=0    chnl=0 
char id=57      x=345  y=161  width=43   height=69   xoffset=2    yoffset=20   xadvance=48   page=0    chnl=0 
char id=58      x=486  y=231  width=13   height=49   xoffset=7    yoffset=40   xadvance=27   page=0    chnl=0 
char id=59      x=492  y=367  width=17   height=63   xoffset=5    yoffset=40   xadvance=27   page=0    chnl=0 
char id=60      x=414  y=433  width=54   height=49   xoffset=0    yoffset=30   xadvance=54   page=0    chnl=0 
char id=63      x=371  y=90   width=37   height=70   xoffset=3    yoffset=19   xadvance=43   page=0    chnl=0 
char id=64      x=159  y=0    width=85   height=90   xoffset=3    yoffset=18   xadvance=88   page=0    chnl=0 
char id=65      x=432  y=161  width=71   height=68   xoffset=-1   yoffset=19   xadvance=69   page=0    chnl=0 
char id=66      x=202  y=299  width=60   height=66   xoffset=0    yoffset=21   xadvance=64   page=0    chnl=0 
char id=67      x=134  y=90   width=60   height=70   xoffset=2    yoffset=19   xadvance=64   page=0    chnl=0 
char id=68      x=262  y=299  width=67   height=66   xoffset=0    yoffset=21   xadvance=69   page=0    chnl=0 
char id=69      x=329  y=299  width=58   height=66   xoffset=0    yoffset=21   xadvance=59   page=0    chnl=0 
char id=70      x=387  y=299  width=51   height=66   xoffset=0    yoffset=21   xadvance=53   page=0    chnl=0 
char id=71      x=194  y=90   width=67   height=70   xoffset=2    yoffset=19   xadvance=69   page=0    chnl=0 
char id=72      x=438  y=299  width=69   height=66   xoffset=0    yoffset=21   xadvance=69   page=0    chnl=0 
char id=73      x=0    y=367  width=30   height=66   xoffset=1    yoffset=21   xadvance=32   page=0    chnl=0 
char id=74      x=0    y=231  width=38   height=68   xoffset=0    yoffset=21   xadvance=37   page=0    chnl=0 
char id=75      x=30   y=367  width=73   height=66   xoffset=0    yoffset=21   xadvance=69   page=0    chnl=0 
char id=76      x=103  y=367  width=58   height=66   xoffset=0    yoffset=21   xadvance=59   page=0    chnl=0 
char id=77      x=161  y=367  width=85   height=66   xoffset=0    yoffset=21   xadvance=85   page=0    chnl=0 
char id=78      x=38   y=231  width=73   height=68   xoffset=-3   yoffset=21   xadvance=69   page=0    chnl=0 
char id=79      x=261  y=90   width=65   height=70   xoffset=2    yoffset=19   xadvance=69   page=0    chnl=0 
char id=80      x=246  y=367  width=52   height=66   xoffset=0    yoffset=21   xadvance=53   page=0    chnl=0 
char id=81      x=292  y=0    width=65   height=87   xoffset=2    yoffset=19   xadvance=69   page=0    chnl=0 
char id=82      x=298  y=367  width=66   height=66   xoffset=0    yoffset=21   xadvance=64   page=0    chnl=0 
char id=83      x=326  y=90   width=45   height=70   xoffset=5    yoffset=19   xadvance=53   page=0    chnl=0 
char id=84      x=364  y=367  width=57   height=66   xoffset=1    yoffset=21   xadvance=59   page=0    chnl=0 
char id=85      x=111  y=231  width=71   height=68   xoffset=-1   yoffset=21   xadvance=69   page=0    chnl=0 
char id=86      x=182  y=231  width=71   height=68   xoffset=-1   yoffset=21   xadvance=69   page=0    chnl=0 
char id=87      x=253  y=231  width=91   height=68   xoffset=0    yoffset=21   xadvance=91   page=0    chnl=0 
char id=88      x=421  y=367  width=71   height=66   xoffset=-1   yoffset=21   xadvance=69   page=0    chnl=0 
char id=89      x=0    y=433  width=70   height=66   xoffset=-1   yoffset=21   xadvance=69   page=0    chnl=0 
char id=90      x=70   y=433  width=57   height=66   xoffset=0    yoffset=21   xadvance=59   page=0    chnl=0 
char id=91      x=244  y=0    width=24   height=88   xoffset=6    yoffset=19   xadvance=32   page=0    chnl=0 
char id=92      x=29   y=90   width=29   height=71   xoffset=-1   yoffset=18   xadvance=27   page=0    chnl=0 
char id=93      x=268  y=0    width=24   height=88   xoffset=2    yoffset=19   xadvance=32   page=0    chnl=0 
char id=95      x=28   y=499  width=52   height=7    xoffset=-2   yoffset=101  xadvance=48   page=0    chnl=0 
char id=97      x=468  y=433  width=42   height=48   xoffset=2    yoffset=40   xadvance=43   page=0    chnl=0 
char id=98      x=398  y=0    width=48   height=71   xoffset=-2   yoffset=18   xadvance=48   page=0    chnl=0 
char id=99      x=260  y=433  width=39   height=49   xoffset=2    yoffset=40   xadvance=43   page=0    chnl=0 
char id=100     x=446  y=0    width=48   height=71   xoffset=2    yoffset=18   xadvance=48   page=0    chnl=0 
char id=101     x=299  y=433  width=39   height=49   xoffset=2    yoffset=40   xadvance=43   page=0    chnl=0 
char id=102     x=456  y=90   width=50   height=69   xoffset=2    yoffset=18   xadvance=32   page=0    chnl=0 
char id=103     x=344  y=231  width=47   height=68   xoffset=1    yoffset=40   xadvance=48   page=0    chnl=0 
char id=104     x=71   y=161  width=50   height=69   xoffset=-1   yoffset=18   xadvance=48   page=0    chnl=0 
char id=105     x=121  y=161  width=25   height=69   xoffset=1    yoffset=18   xadvance=27   page=0    chnl=0 
char id=106     x=0    y=0    width=36   height=90   xoffset=-9   yoffset=18   xadvance=27   page=0    chnl=0 
char id=107     x=146  y=161  width=51   height=69   xoffset=-1   yoffset=18   xadvance=48   page=0    chnl=0 
char id=108     x=197  y=161  width=25   height=69   xoffset=1    yoffset=18   xadvance=27   page=0    chnl=0 
char id=111     x=338  y=433  width=44   height=49   xoffset=2    yoffset=40   xadvance=48   page=0    chnl=0 
char id=112     x=391  y=231  width=48   height=68   xoffset=-2   yoffset=40   xadvance=48   page=0    chnl=0 
char id=113     x=439  y=231  width=47   height=68   xoffset=2    yoffset=40   xadvance=48   page=0    chnl=0 
char id=115     x=382  y=433  width=32   height=49   xoffset=3    yoffset=40   xadvance=37   page=0    chnl=0 
char id=116     x=177  y=433  width=29   height=61   xoffset=-1   yoffset=27   xadvance=27   page=0    chnl=0 
char id=121     x=127  y=433  width=50   height=66   xoffset=-1   yoffset=42   xadvance=48   page=0    chnl=0 
char id=123     x=94   y=0    width=29   height=90   xoffset=12   yoffset=18   xadvance=46   page=0    chnl=0 
char id=124     x=152  y=0    width=7    height=90   xoffset=6    yoffset=18   xadvance=19   page=0    chnl=0 
char id=125     x=123  y=0    width=29   height=90   xoffset=7    yoffset=18   xadvance=46   page=0    chnl=0 
char id=34      x=478  y=0    width=29   height=31   xoffset=5    yoffset=19   xadvance=39   page=1    chnl=0 
char id=39      x=83   y=49   width=13   height=31   xoffset=2    yoffset=19   xadvance=17   page=1    chnl=0 
char id=42      x=0    y=49   width=38   height=42   xoffset=5    yoffset=18   xadvance=48   page=1    chnl=0 
char id=44      x=96   y=49   width=17   height=28   xoffset=4    yoffset=75   xadvance=24   page=1    chnl=0 
char id=46      x=238  y=49   width=14   height=14   xoffset=5    yoffset=75   xadvance=24   page=1    chnl=0 
char id=61      x=113  y=49   width=54   height=22   xoffset=0    yoffset=43   xadvance=54   page=1    chnl=0 
char id=62      x=0    y=0    width=54   height=49   xoffset=0    yoffset=30   xadvance=54   page=1    chnl=0 
char id=94      x=38   y=49   width=45   height=36   xoffset=0    yoffset=20   xadvance=45   page=1    chnl=0 
char id=96      x=167  y=49   width=18   height=20   xoffset=4    yoffset=19   xadvance=32   page=1    chnl=0 
char id=109     x=54   y=0    width=77   height=47   xoffset=-1   yoffset=40   xadvance=75   page=1    chnl=0 
char id=110     x=131  y=0    width=50   height=47   xoffset=-1   yoffset=40   xadvance=48   page=1    chnl=0 
char id=114     x=181  y=0    width=35   height=47   xoffset=-1   yoffset=40   xadvance=32   page=1    chnl=0 
char id=117     x=216  y=0    width=50   height=47   xoffset=-1   yoffset=42   xadvance=48   page=1    chnl=0 
char id=118     x=266  y=0    width=50   height=47   xoffset=-1   yoffset=42   xadvance=48   page=1    chnl=0 
char id=119     x=316  y=0    width=71   height=47   xoffset=-1   yoffset=42   xadvance=69   page=1    chnl=0 
char id=120     x=387  y=0    width=48   height=45   xoffset=0    yoffset=42   xadvance=48   page=1    chnl=0 
char id=122     x=435  y=0    width=43   height=45   xoffset=0    yoffset=42   xadvance=43   page=1    chnl=0 
char id=126     x=185  y=49   width=53   height=16   xoffset=-1   yoffset=53   xadvance=52   page=1    chnl=0 
