info face="TimesNewRomanPSMT" size=127 bold=0 italic=0 charset="" unicode=0 stretchH=100 smooth=1 aa=1 padding=1,1,1,1 spacing=-2,-2
common lineHeight=147 base=114 scaleW=512 scaleH=512 pages=2 packed=0
page id=0 file="w_cert_1271.png"
page id=1 file="w_cert_1272.png"
chars count=96
char id=10      x=0    y=0    width=0    height=0    xoffset=-1   yoffset=0    xadvance=0    page=0    chnl=0 
char id=32      x=0    y=0    width=0    height=0    xoffset=-1   yoffset=0    xadvance=32   page=0    chnl=0 
char id=33      x=484  y=119  width=17   height=91   xoffset=13   yoffset=26   xadvance=42   page=0    chnl=0 
char id=35      x=0    y=314  width=62   height=91   xoffset=1    yoffset=26   xadvance=64   page=0    chnl=0 
char id=36      x=0    y=119  width=54   height=104  xoffset=5    yoffset=21   xadvance=64   page=0    chnl=0 
char id=37      x=217  y=119  width=100  height=93   xoffset=3    yoffset=26   xadvance=106  page=0    chnl=0 
char id=38      x=62   y=314  width=93   height=91   xoffset=3    yoffset=26   xadvance=99   page=0    chnl=0 
char id=40      x=46   y=0    width=37   height=119  xoffset=4    yoffset=24   xadvance=42   page=0    chnl=0 
char id=41      x=83   y=0    width=38   height=119  xoffset=1    yoffset=24   xadvance=42   page=0    chnl=0 
char id=45      x=17   y=494  width=35   height=13   xoffset=4    yoffset=79   xadvance=42   page=0    chnl=0 
char id=46      x=0    y=494  width=17   height=17   xoffset=7    yoffset=100  xadvance=32   page=0    chnl=0 
char id=47      x=461  y=0    width=38   height=93   xoffset=-1   yoffset=24   xadvance=35   page=0    chnl=0 
char id=48      x=319  y=314  width=57   height=90   xoffset=3    yoffset=27   xadvance=64   page=0    chnl=0 
char id=49      x=469  y=314  width=36   height=88   xoffset=13   yoffset=27   xadvance=64   page=0    chnl=0 
char id=51      x=455  y=223  width=50   height=90   xoffset=4    yoffset=27   xadvance=64   page=0    chnl=0 
char id=54      x=155  y=314  width=56   height=90   xoffset=4    yoffset=27   xadvance=64   page=0    chnl=0 
char id=56      x=211  y=314  width=52   height=90   xoffset=6    yoffset=27   xadvance=64   page=0    chnl=0 
char id=57      x=263  y=314  width=56   height=90   xoffset=4    yoffset=27   xadvance=64   page=0    chnl=0 
char id=63      x=406  y=223  width=49   height=91   xoffset=4    yoffset=26   xadvance=56   page=0    chnl=0 
char id=64      x=206  y=0    width=110  height=119  xoffset=5    yoffset=24   xadvance=117  page=0    chnl=0 
char id=65      x=376  y=314  width=93   height=89   xoffset=-1   yoffset=26   xadvance=92   page=0    chnl=0 
char id=67      x=317  y=119  width=79   height=91   xoffset=3    yoffset=26   xadvance=85   page=0    chnl=0 
char id=71      x=396  y=119  width=88   height=91   xoffset=3    yoffset=26   xadvance=92   page=0    chnl=0 
char id=74      x=0    y=405  width=49   height=89   xoffset=1    yoffset=28   xadvance=49   page=0    chnl=0 
char id=78      x=49   y=405  width=95   height=89   xoffset=-3   yoffset=28   xadvance=92   page=0    chnl=0 
char id=79      x=0    y=223  width=85   height=91   xoffset=3    yoffset=26   xadvance=92   page=0    chnl=0 
char id=81      x=376  y=0    width=85   height=114  xoffset=3    yoffset=26   xadvance=92   page=0    chnl=0 
char id=83      x=85   y=223  width=59   height=91   xoffset=6    yoffset=26   xadvance=71   page=0    chnl=0 
char id=85      x=144  y=405  width=93   height=89   xoffset=-1   yoffset=28   xadvance=92   page=0    chnl=0 
char id=86      x=237  y=405  width=92   height=89   xoffset=0    yoffset=28   xadvance=92   page=0    chnl=0 
char id=87      x=329  y=405  width=120  height=89   xoffset=0    yoffset=28   xadvance=120  page=0    chnl=0 
char id=91      x=316  y=0    width=30   height=115  xoffset=9    yoffset=26   xadvance=42   page=0    chnl=0 
char id=92      x=179  y=119  width=38   height=93   xoffset=-1   yoffset=24   xadvance=35   page=0    chnl=0 
char id=93      x=346  y=0    width=30   height=115  xoffset=3    yoffset=26   xadvance=42   page=0    chnl=0 
char id=95      x=52   y=494  width=70   height=8    xoffset=-3   yoffset=135  xadvance=64   page=0    chnl=0 
char id=98      x=54   y=119  width=63   height=93   xoffset=-2   yoffset=24   xadvance=64   page=0    chnl=0 
char id=100     x=117  y=119  width=62   height=93   xoffset=3    yoffset=24   xadvance=64   page=0    chnl=0 
char id=102     x=144  y=223  width=67   height=91   xoffset=3    yoffset=24   xadvance=42   page=0    chnl=0 
char id=103     x=449  y=405  width=61   height=89   xoffset=2    yoffset=54   xadvance=64   page=0    chnl=0 
char id=104     x=211  y=223  width=65   height=91   xoffset=-1   yoffset=24   xadvance=64   page=0    chnl=0 
char id=105     x=276  y=223  width=32   height=91   xoffset=2    yoffset=24   xadvance=35   page=0    chnl=0 
char id=106     x=0    y=0    width=46   height=119  xoffset=-11  yoffset=24   xadvance=35   page=0    chnl=0 
char id=107     x=308  y=223  width=66   height=91   xoffset=0    yoffset=24   xadvance=64   page=0    chnl=0 
char id=108     x=374  y=223  width=32   height=91   xoffset=2    yoffset=24   xadvance=35   page=0    chnl=0 
char id=123     x=121  y=0    width=38   height=119  xoffset=16   yoffset=24   xadvance=61   page=0    chnl=0 
char id=124     x=197  y=0    width=9    height=119  xoffset=8    yoffset=24   xadvance=25   page=0    chnl=0 
char id=125     x=159  y=0    width=38   height=119  xoffset=9    yoffset=24   xadvance=61   page=0    chnl=0 
char id=34      x=318  y=413  width=38   height=40   xoffset=7    yoffset=26   xadvance=52   page=1    chnl=0 
char id=39      x=492  y=350  width=15   height=40   xoffset=4    yoffset=26   xadvance=23   page=1    chnl=0 
char id=42      x=211  y=413  width=49   height=55   xoffset=7    yoffset=24   xadvance=64   page=1    chnl=0 
char id=43      x=156  y=263  width=70   height=70   xoffset=1    yoffset=37   xadvance=72   page=1    chnl=0 
char id=44      x=489  y=263  width=22   height=37   xoffset=5    yoffset=100  xadvance=32   page=1    chnl=0 
char id=50      x=233  y=0    width=59   height=88   xoffset=1    yoffset=27   xadvance=64   page=1    chnl=0 
char id=52      x=292  y=0    width=61   height=88   xoffset=0    yoffset=27   xadvance=64   page=1    chnl=0 
char id=53      x=125  y=0    width=52   height=89   xoffset=5    yoffset=28   xadvance=64   page=1    chnl=0 
char id=55      x=177  y=0    width=56   height=89   xoffset=3    yoffset=28   xadvance=64   page=1    chnl=0 
char id=58      x=472  y=263  width=17   height=63   xoffset=9    yoffset=54   xadvance=35   page=1    chnl=0 
char id=59      x=450  y=89   width=22   height=83   xoffset=7    yoffset=54   xadvance=35   page=1    chnl=0 
char id=60      x=226  y=263  width=70   height=64   xoffset=1    yoffset=40   xadvance=72   page=1    chnl=0 
char id=61      x=356  y=413  width=70   height=28   xoffset=1    yoffset=58   xadvance=72   page=1    chnl=0 
char id=62      x=296  y=263  width=70   height=64   xoffset=1    yoffset=40   xadvance=72   page=1    chnl=0 
char id=66      x=353  y=0    width=78   height=87   xoffset=1    yoffset=28   xadvance=85   page=1    chnl=0 
char id=68      x=0    y=89   width=87   height=87   xoffset=1    yoffset=28   xadvance=92   page=1    chnl=0 
char id=69      x=431  y=0    width=75   height=87   xoffset=1    yoffset=28   xadvance=78   page=1    chnl=0 
char id=70      x=87   y=89   width=66   height=87   xoffset=1    yoffset=28   xadvance=71   page=1    chnl=0 
char id=72      x=153  y=89   width=90   height=87   xoffset=1    yoffset=28   xadvance=92   page=1    chnl=0 
char id=73      x=243  y=89   width=39   height=87   xoffset=2    yoffset=28   xadvance=42   page=1    chnl=0 
char id=75      x=282  y=89   width=93   height=87   xoffset=1    yoffset=28   xadvance=92   page=1    chnl=0 
char id=76      x=375  y=89   width=75   height=87   xoffset=1    yoffset=28   xadvance=78   page=1    chnl=0 
char id=77      x=0    y=176  width=111  height=87   xoffset=1    yoffset=28   xadvance=113  page=1    chnl=0 
char id=80      x=111  y=176  width=67   height=87   xoffset=1    yoffset=28   xadvance=71   page=1    chnl=0 
char id=82      x=178  y=176  width=86   height=87   xoffset=1    yoffset=28   xadvance=85   page=1    chnl=0 
char id=84      x=264  y=176  width=74   height=87   xoffset=2    yoffset=28   xadvance=78   page=1    chnl=0 
char id=88      x=338  y=176  width=93   height=87   xoffset=-1   yoffset=28   xadvance=92   page=1    chnl=0 
char id=89      x=0    y=263  width=91   height=87   xoffset=0    yoffset=28   xadvance=92   page=1    chnl=0 
char id=90      x=431  y=176  width=76   height=87   xoffset=0    yoffset=28   xadvance=78   page=1    chnl=0 
char id=94      x=260  y=413  width=58   height=47   xoffset=1    yoffset=27   xadvance=60   page=1    chnl=0 
char id=96      x=426  y=413  width=23   height=25   xoffset=6    yoffset=26   xadvance=42   page=1    chnl=0 
char id=97      x=366  y=263  width=55   height=63   xoffset=3    yoffset=54   xadvance=56   page=1    chnl=0 
char id=99      x=421  y=263  width=51   height=63   xoffset=3    yoffset=54   xadvance=56   page=1    chnl=0 
char id=101     x=0    y=350  width=51   height=63   xoffset=3    yoffset=54   xadvance=56   page=1    chnl=0 
char id=109     x=150  y=350  width=100  height=61   xoffset=0    yoffset=54   xadvance=99   page=1    chnl=0 
char id=110     x=250  y=350  width=65   height=61   xoffset=-1   yoffset=54   xadvance=64   page=1    chnl=0 
char id=111     x=51   y=350  width=58   height=63   xoffset=3    yoffset=54   xadvance=64   page=1    chnl=0 
char id=112     x=0    y=0    width=63   height=89   xoffset=-2   yoffset=54   xadvance=64   page=1    chnl=0 
char id=113     x=63   y=0    width=62   height=89   xoffset=3    yoffset=54   xadvance=64   page=1    chnl=0 
char id=114     x=315  y=350  width=47   height=61   xoffset=-1   yoffset=54   xadvance=42   page=1    chnl=0 
char id=115     x=109  y=350  width=41   height=63   xoffset=5    yoffset=54   xadvance=49   page=1    chnl=0 
char id=116     x=472  y=89   width=37   height=79   xoffset=0    yoffset=37   xadvance=35   page=1    chnl=0 
char id=117     x=362  y=350  width=66   height=61   xoffset=-1   yoffset=56   xadvance=64   page=1    chnl=0 
char id=118     x=428  y=350  width=64   height=61   xoffset=0    yoffset=56   xadvance=64   page=1    chnl=0 
char id=119     x=0    y=413  width=93   height=61   xoffset=-1   yoffset=56   xadvance=92   page=1    chnl=0 
char id=120     x=93   y=413  width=63   height=59   xoffset=0    yoffset=56   xadvance=64   page=1    chnl=0 
char id=121     x=91   y=263  width=65   height=87   xoffset=-1   yoffset=56   xadvance=64   page=1    chnl=0 
char id=122     x=156  y=413  width=55   height=59   xoffset=1    yoffset=56   xadvance=56   page=1    chnl=0 
char id=126     x=0    y=474  width=69   height=21   xoffset=0    yoffset=70   xadvance=69   page=1    chnl=0 
