info face="TimesNewRomanPSMT" size=39 bold=0 italic=0 charset="" unicode=0 stretchH=100 smooth=1 aa=1 padding=1,1,1,1 spacing=-2,-2
common lineHeight=46 base=35 scaleW=512 scaleH=512 pages=1 packed=0
page id=0 file="w_cert_39.png"
chars count=96
char id=10      x=0    y=0    width=0    height=0    xoffset=-1   yoffset=0    xadvance=0    page=0    chnl=0 
char id=32      x=0    y=0    width=0    height=0    xoffset=-1   yoffset=0    xadvance=10   page=0    chnl=0 
char id=33      x=57   y=39   width=7    height=30   xoffset=3    yoffset=7    xadvance=13   page=0    chnl=0 
char id=34      x=283  y=97   width=14   height=14   xoffset=1    yoffset=7    xadvance=16   page=0    chnl=0 
char id=35      x=81   y=39   width=21   height=30   xoffset=-1   yoffset=7    xadvance=20   page=0    chnl=0 
char id=36      x=160  y=0    width=18   height=33   xoffset=1    yoffset=6    xadvance=20   page=0    chnl=0 
char id=37      x=247  y=0    width=33   height=31   xoffset=0    yoffset=7    xadvance=32   page=0    chnl=0 
char id=38      x=102  y=39   width=31   height=30   xoffset=0    yoffset=7    xadvance=30   page=0    chnl=0 
char id=39      x=297  y=97   width=7    height=14   xoffset=0    yoffset=7    xadvance=7    page=0    chnl=0 
char id=40      x=15   y=0    width=14   height=39   xoffset=0    yoffset=6    xadvance=13   page=0    chnl=0 
char id=41      x=29   y=0    width=14   height=39   xoffset=-1   yoffset=6    xadvance=13   page=0    chnl=0 
char id=42      x=246  y=97   width=17   height=19   xoffset=1    yoffset=6    xadvance=20   page=0    chnl=0 
char id=43      x=398  y=69   width=24   height=24   xoffset=-1   yoffset=10   xadvance=22   page=0    chnl=0 
char id=44      x=304  y=97   width=8    height=13   xoffset=1    yoffset=30   xadvance=10   page=0    chnl=0 
char id=45      x=375  y=97   width=13   height=6    xoffset=0    yoffset=23   xadvance=13   page=0    chnl=0 
char id=46      x=368  y=97   width=7    height=7    xoffset=1    yoffset=30   xadvance=10   page=0    chnl=0 
char id=47      x=221  y=0    width=13   height=31   xoffset=-1   yoffset=6    xadvance=11   page=0    chnl=0 
char id=48      x=37   y=39   width=20   height=30   xoffset=0    yoffset=7    xadvance=20   page=0    chnl=0 
char id=49      x=395  y=39   width=13   height=29   xoffset=3    yoffset=7    xadvance=20   page=0    chnl=0 
char id=50      x=408  y=39   width=20   height=29   xoffset=-1   yoffset=7    xadvance=20   page=0    chnl=0 
char id=51      x=471  y=0    width=18   height=30   xoffset=0    yoffset=7    xadvance=20   page=0    chnl=0 
char id=52      x=428  y=39   width=21   height=29   xoffset=-1   yoffset=7    xadvance=20   page=0    chnl=0 
char id=53      x=449  y=39   width=18   height=29   xoffset=0    yoffset=8    xadvance=20   page=0    chnl=0 
char id=54      x=489  y=0    width=19   height=30   xoffset=0    yoffset=7    xadvance=20   page=0    chnl=0 
char id=55      x=467  y=39   width=19   height=29   xoffset=0    yoffset=8    xadvance=20   page=0    chnl=0 
char id=56      x=0    y=39   width=18   height=30   xoffset=1    yoffset=7    xadvance=20   page=0    chnl=0 
char id=57      x=18   y=39   width=19   height=30   xoffset=0    yoffset=7    xadvance=20   page=0    chnl=0 
char id=58      x=127  y=97   width=7    height=21   xoffset=2    yoffset=16   xadvance=11   page=0    chnl=0 
char id=59      x=389  y=69   width=9    height=27   xoffset=1    yoffset=16   xadvance=11   page=0    chnl=0 
char id=60      x=422  y=69   width=24   height=22   xoffset=-1   yoffset=11   xadvance=22   page=0    chnl=0 
char id=61      x=321  y=97   width=24   height=10   xoffset=-1   yoffset=17   xadvance=22   page=0    chnl=0 
char id=62      x=446  y=69   width=24   height=22   xoffset=-1   yoffset=11   xadvance=22   page=0    chnl=0 
char id=63      x=64   y=39   width=17   height=30   xoffset=0    yoffset=7    xadvance=17   page=0    chnl=0 
char id=64      x=74   y=0    width=36   height=39   xoffset=0    yoffset=6    xadvance=36   page=0    chnl=0 
char id=65      x=133  y=39   width=30   height=29   xoffset=-1   yoffset=7    xadvance=28   page=0    chnl=0 
char id=66      x=0    y=69   width=26   height=28   xoffset=-1   yoffset=8    xadvance=26   page=0    chnl=0 
char id=67      x=280  y=0    width=26   height=30   xoffset=0    yoffset=7    xadvance=26   page=0    chnl=0 
char id=68      x=26   y=69   width=29   height=28   xoffset=-1   yoffset=8    xadvance=28   page=0    chnl=0 
char id=69      x=486  y=39   width=25   height=28   xoffset=-1   yoffset=8    xadvance=24   page=0    chnl=0 
char id=70      x=55   y=69   width=23   height=28   xoffset=-1   yoffset=8    xadvance=22   page=0    chnl=0 
char id=71      x=306  y=0    width=29   height=30   xoffset=0    yoffset=7    xadvance=28   page=0    chnl=0 
char id=72      x=78   y=69   width=30   height=28   xoffset=-1   yoffset=8    xadvance=28   page=0    chnl=0 
char id=73      x=108  y=69   width=15   height=28   xoffset=-1   yoffset=8    xadvance=13   page=0    chnl=0 
char id=74      x=163  y=39   width=17   height=29   xoffset=-1   yoffset=8    xadvance=15   page=0    chnl=0 
char id=75      x=123  y=69   width=31   height=28   xoffset=-1   yoffset=8    xadvance=28   page=0    chnl=0 
char id=76      x=154  y=69   width=25   height=28   xoffset=-1   yoffset=8    xadvance=24   page=0    chnl=0 
char id=77      x=179  y=69   width=36   height=28   xoffset=-1   yoffset=8    xadvance=35   page=0    chnl=0 
char id=78      x=180  y=39   width=31   height=29   xoffset=-2   yoffset=8    xadvance=28   page=0    chnl=0 
char id=79      x=335  y=0    width=28   height=30   xoffset=0    yoffset=7    xadvance=28   page=0    chnl=0 
char id=80      x=215  y=69   width=23   height=28   xoffset=-1   yoffset=8    xadvance=22   page=0    chnl=0 
char id=81      x=110  y=0    width=28   height=37   xoffset=0    yoffset=7    xadvance=28   page=0    chnl=0 
char id=82      x=238  y=69   width=29   height=28   xoffset=-1   yoffset=8    xadvance=26   page=0    chnl=0 
char id=83      x=363  y=0    width=20   height=30   xoffset=1    yoffset=7    xadvance=22   page=0    chnl=0 
char id=84      x=267  y=69   width=24   height=28   xoffset=0    yoffset=8    xadvance=24   page=0    chnl=0 
char id=85      x=211  y=39   width=30   height=29   xoffset=-1   yoffset=8    xadvance=28   page=0    chnl=0 
char id=86      x=241  y=39   width=30   height=29   xoffset=-1   yoffset=8    xadvance=28   page=0    chnl=0 
char id=87      x=271  y=39   width=39   height=29   xoffset=-1   yoffset=8    xadvance=37   page=0    chnl=0 
char id=88      x=291  y=69   width=30   height=28   xoffset=-1   yoffset=8    xadvance=28   page=0    chnl=0 
char id=89      x=321  y=69   width=30   height=28   xoffset=-1   yoffset=8    xadvance=28   page=0    chnl=0 
char id=90      x=351  y=69   width=25   height=28   xoffset=-1   yoffset=8    xadvance=24   page=0    chnl=0 
char id=91      x=138  y=0    width=11   height=37   xoffset=2    yoffset=7    xadvance=13   page=0    chnl=0 
char id=92      x=234  y=0    width=13   height=31   xoffset=-1   yoffset=6    xadvance=11   page=0    chnl=0 
char id=93      x=149  y=0    width=11   height=37   xoffset=0    yoffset=7    xadvance=13   page=0    chnl=0 
char id=94      x=263  y=97   width=20   height=17   xoffset=-1   yoffset=7    xadvance=18   page=0    chnl=0 
char id=95      x=388  y=97   width=23   height=5    xoffset=-2   yoffset=40   xadvance=20   page=0    chnl=0 
char id=96      x=312  y=97   width=9    height=10   xoffset=1    yoffset=7    xadvance=13   page=0    chnl=0 
char id=97      x=470  y=69   width=19   height=21   xoffset=0    yoffset=16   xadvance=17   page=0    chnl=0 
char id=98      x=178  y=0    width=22   height=31   xoffset=-2   yoffset=6    xadvance=20   page=0    chnl=0 
char id=99      x=489  y=69   width=18   height=21   xoffset=0    yoffset=16   xadvance=17   page=0    chnl=0 
char id=100     x=200  y=0    width=21   height=31   xoffset=0    yoffset=6    xadvance=20   page=0    chnl=0 
char id=101     x=0    y=97   width=18   height=21   xoffset=0    yoffset=16   xadvance=17   page=0    chnl=0 
char id=102     x=383  y=0    width=21   height=30   xoffset=0    yoffset=6    xadvance=13   page=0    chnl=0 
char id=103     x=310  y=39   width=20   height=29   xoffset=0    yoffset=16   xadvance=20   page=0    chnl=0 
char id=104     x=404  y=0    width=22   height=30   xoffset=-1   yoffset=6    xadvance=20   page=0    chnl=0 
char id=105     x=426  y=0    width=11   height=30   xoffset=0    yoffset=6    xadvance=11   page=0    chnl=0 
char id=106     x=0    y=0    width=15   height=39   xoffset=-4   yoffset=6    xadvance=11   page=0    chnl=0 
char id=107     x=437  y=0    width=22   height=30   xoffset=-1   yoffset=6    xadvance=20   page=0    chnl=0 
char id=108     x=459  y=0    width=12   height=30   xoffset=0    yoffset=6    xadvance=11   page=0    chnl=0 
char id=109     x=134  y=97   width=33   height=20   xoffset=-1   yoffset=16   xadvance=30   page=0    chnl=0 
char id=110     x=167  y=97   width=22   height=20   xoffset=-1   yoffset=16   xadvance=20   page=0    chnl=0 
char id=111     x=18   y=97   width=20   height=21   xoffset=0    yoffset=16   xadvance=20   page=0    chnl=0 
char id=112     x=330  y=39   width=22   height=29   xoffset=-2   yoffset=16   xadvance=20   page=0    chnl=0 
char id=113     x=352  y=39   width=21   height=29   xoffset=0    yoffset=16   xadvance=20   page=0    chnl=0 
char id=114     x=189  y=97   width=16   height=20   xoffset=-1   yoffset=16   xadvance=13   page=0    chnl=0 
char id=115     x=38   y=97   width=15   height=21   xoffset=0    yoffset=16   xadvance=15   page=0    chnl=0 
char id=116     x=376  y=69   width=13   height=27   xoffset=-1   yoffset=10   xadvance=11   page=0    chnl=0 
char id=117     x=53   y=97   width=22   height=21   xoffset=-1   yoffset=16   xadvance=20   page=0    chnl=0 
char id=118     x=75   y=97   width=22   height=21   xoffset=-1   yoffset=16   xadvance=20   page=0    chnl=0 
char id=119     x=97   y=97   width=30   height=21   xoffset=-1   yoffset=16   xadvance=28   page=0    chnl=0 
char id=120     x=205  y=97   width=22   height=20   xoffset=-1   yoffset=16   xadvance=20   page=0    chnl=0 
char id=121     x=373  y=39   width=22   height=29   xoffset=-1   yoffset=16   xadvance=20   page=0    chnl=0 
char id=122     x=227  y=97   width=19   height=20   xoffset=-1   yoffset=16   xadvance=17   page=0    chnl=0 
char id=123     x=43   y=0    width=14   height=39   xoffset=4    yoffset=6    xadvance=19   page=0    chnl=0 
char id=124     x=70   y=0    width=4    height=39   xoffset=2    yoffset=6    xadvance=8    page=0    chnl=0 
char id=125     x=57   y=0    width=13   height=39   xoffset=2    yoffset=6    xadvance=19   page=0    chnl=0 
char id=126     x=345  y=97   width=23   height=8    xoffset=-1   yoffset=21   xadvance=21   page=0    chnl=0 
