info face="TimesNewRomanPSMT" size=72 bold=0 italic=0 charset="" unicode=0 stretchH=100 smooth=1 aa=1 padding=1,1,1,1 spacing=-2,-2
common lineHeight=84 base=65 scaleW=512 scaleH=512 pages=1 packed=0
page id=0 file="w_cert_72.png"
chars count=96
char id=10      x=0    y=0    width=0    height=0    xoffset=-1   yoffset=0    xadvance=0    page=0    chnl=0 
char id=32      x=0    y=0    width=0    height=0    xoffset=-1   yoffset=0    xadvance=18   page=0    chnl=0 
char id=33      x=497  y=69   width=10   height=52   xoffset=7    yoffset=15   xadvance=24   page=0    chnl=0 
char id=34      x=94   y=313  width=23   height=23   xoffset=3    yoffset=15   xadvance=29   page=0    chnl=0 
char id=35      x=375  y=122  width=36   height=52   xoffset=0    yoffset=15   xadvance=36   page=0    chnl=0 
char id=36      x=277  y=0    width=32   height=60   xoffset=2    yoffset=12   xadvance=36   page=0    chnl=0 
char id=37      x=120  y=69   width=58   height=53   xoffset=1    yoffset=15   xadvance=60   page=0    chnl=0 
char id=38      x=178  y=69   width=54   height=53   xoffset=1    yoffset=15   xadvance=56   page=0    chnl=0 
char id=39      x=117  y=313  width=10   height=23   xoffset=1    yoffset=15   xadvance=13   page=0    chnl=0 
char id=40      x=28   y=0    width=23   height=68   xoffset=1    yoffset=14   xadvance=24   page=0    chnl=0 
char id=41      x=51   y=0    width=23   height=68   xoffset=0    yoffset=14   xadvance=24   page=0    chnl=0 
char id=42      x=32   y=313  width=28   height=32   xoffset=4    yoffset=14   xadvance=36   page=0    chnl=0 
char id=43      x=438  y=225  width=41   height=41   xoffset=0    yoffset=21   xadvance=41   page=0    chnl=0 
char id=44      x=127  y=313  width=14   height=22   xoffset=2    yoffset=56   xadvance=18   page=0    chnl=0 
char id=45      x=247  y=313  width=22   height=8    xoffset=1    yoffset=45   xadvance=24   page=0    chnl=0 
char id=46      x=237  y=313  width=10   height=10   xoffset=4    yoffset=57   xadvance=18   page=0    chnl=0 
char id=47      x=74   y=69   width=23   height=53   xoffset=-1   yoffset=14   xadvance=20   page=0    chnl=0 
char id=48      x=312  y=122  width=34   height=52   xoffset=1    yoffset=15   xadvance=36   page=0    chnl=0 
char id=49      x=54   y=174  width=22   height=51   xoffset=7    yoffset=15   xadvance=36   page=0    chnl=0 
char id=50      x=76   y=174  width=35   height=51   xoffset=0    yoffset=15   xadvance=36   page=0    chnl=0 
char id=51      x=185  y=122  width=31   height=52   xoffset=1    yoffset=15   xadvance=36   page=0    chnl=0 
char id=52      x=111  y=174  width=35   height=51   xoffset=0    yoffset=15   xadvance=36   page=0    chnl=0 
char id=53      x=146  y=174  width=31   height=51   xoffset=2    yoffset=16   xadvance=36   page=0    chnl=0 
char id=54      x=216  y=122  width=33   height=52   xoffset=2    yoffset=15   xadvance=36   page=0    chnl=0 
char id=55      x=177  y=174  width=33   height=51   xoffset=1    yoffset=16   xadvance=36   page=0    chnl=0 
char id=56      x=249  y=122  width=30   height=52   xoffset=3    yoffset=15   xadvance=36   page=0    chnl=0 
char id=57      x=279  y=122  width=33   height=52   xoffset=1    yoffset=15   xadvance=36   page=0    chnl=0 
char id=58      x=201  y=275  width=11   height=37   xoffset=5    yoffset=30   xadvance=20   page=0    chnl=0 
char id=59      x=401  y=225  width=14   height=48   xoffset=3    yoffset=30   xadvance=20   page=0    chnl=0 
char id=60      x=0    y=275  width=41   height=38   xoffset=0    yoffset=22   xadvance=41   page=0    chnl=0 
char id=61      x=141  y=313  width=41   height=18   xoffset=0    yoffset=32   xadvance=41   page=0    chnl=0 
char id=62      x=41   y=275  width=41   height=38   xoffset=0    yoffset=22   xadvance=41   page=0    chnl=0 
char id=63      x=346  y=122  width=29   height=52   xoffset=2    yoffset=15   xadvance=32   page=0    chnl=0 
char id=64      x=125  y=0    width=64   height=68   xoffset=2    yoffset=14   xadvance=66   page=0    chnl=0 
char id=65      x=411  y=122  width=54   height=51   xoffset=-1   yoffset=15   xadvance=52   page=0    chnl=0 
char id=66      x=210  y=174  width=46   height=50   xoffset=0    yoffset=16   xadvance=48   page=0    chnl=0 
char id=67      x=309  y=0    width=46   height=53   xoffset=1    yoffset=15   xadvance=48   page=0    chnl=0 
char id=68      x=256  y=174  width=51   height=50   xoffset=0    yoffset=16   xadvance=52   page=0    chnl=0 
char id=69      x=307  y=174  width=44   height=50   xoffset=0    yoffset=16   xadvance=44   page=0    chnl=0 
char id=70      x=351  y=174  width=39   height=50   xoffset=0    yoffset=16   xadvance=40   page=0    chnl=0 
char id=71      x=355  y=0    width=51   height=53   xoffset=1    yoffset=15   xadvance=52   page=0    chnl=0 
char id=72      x=390  y=174  width=52   height=50   xoffset=0    yoffset=16   xadvance=52   page=0    chnl=0 
char id=73      x=442  y=174  width=24   height=50   xoffset=0    yoffset=16   xadvance=24   page=0    chnl=0 
char id=74      x=232  y=69   width=29   height=52   xoffset=0    yoffset=16   xadvance=28   page=0    chnl=0 
char id=75      x=0    y=225  width=54   height=50   xoffset=0    yoffset=16   xadvance=52   page=0    chnl=0 
char id=76      x=466  y=174  width=44   height=50   xoffset=0    yoffset=16   xadvance=44   page=0    chnl=0 
char id=77      x=54   y=225  width=64   height=50   xoffset=0    yoffset=16   xadvance=64   page=0    chnl=0 
char id=78      x=0    y=174  width=54   height=51   xoffset=-2   yoffset=16   xadvance=52   page=0    chnl=0 
char id=79      x=406  y=0    width=50   height=53   xoffset=1    yoffset=15   xadvance=52   page=0    chnl=0 
char id=80      x=118  y=225  width=39   height=50   xoffset=0    yoffset=16   xadvance=40   page=0    chnl=0 
char id=81      x=189  y=0    width=50   height=66   xoffset=1    yoffset=15   xadvance=52   page=0    chnl=0 
char id=82      x=157  y=225  width=50   height=50   xoffset=0    yoffset=16   xadvance=48   page=0    chnl=0 
char id=83      x=456  y=0    width=35   height=53   xoffset=3    yoffset=15   xadvance=40   page=0    chnl=0 
char id=84      x=207  y=225  width=43   height=50   xoffset=1    yoffset=16   xadvance=44   page=0    chnl=0 
char id=85      x=261  y=69   width=54   height=52   xoffset=-1   yoffset=16   xadvance=52   page=0    chnl=0 
char id=86      x=315  y=69   width=54   height=52   xoffset=-1   yoffset=16   xadvance=52   page=0    chnl=0 
char id=87      x=369  y=69   width=70   height=52   xoffset=-1   yoffset=16   xadvance=68   page=0    chnl=0 
char id=88      x=250  y=225  width=54   height=50   xoffset=-1   yoffset=16   xadvance=52   page=0    chnl=0 
char id=89      x=304  y=225  width=53   height=50   xoffset=-1   yoffset=16   xadvance=52   page=0    chnl=0 
char id=90      x=357  y=225  width=44   height=50   xoffset=-1   yoffset=16   xadvance=44   page=0    chnl=0 
char id=91      x=239  y=0    width=19   height=66   xoffset=4    yoffset=15   xadvance=24   page=0    chnl=0 
char id=92      x=97   y=69   width=23   height=53   xoffset=-1   yoffset=14   xadvance=20   page=0    chnl=0 
char id=93      x=258  y=0    width=19   height=66   xoffset=1    yoffset=15   xadvance=24   page=0    chnl=0 
char id=94      x=60   y=313  width=34   height=28   xoffset=0    yoffset=15   xadvance=34   page=0    chnl=0 
char id=95      x=269  y=313  width=40   height=6    xoffset=-2   yoffset=76   xadvance=36   page=0    chnl=0 
char id=96      x=182  y=313  width=14   height=15   xoffset=3    yoffset=15   xadvance=24   page=0    chnl=0 
char id=97      x=479  y=225  width=32   height=37   xoffset=1    yoffset=30   xadvance=32   page=0    chnl=0 
char id=98      x=0    y=69   width=37   height=53   xoffset=-2   yoffset=14   xadvance=36   page=0    chnl=0 
char id=99      x=82   y=275  width=30   height=37   xoffset=1    yoffset=30   xadvance=32   page=0    chnl=0 
char id=100     x=37   y=69   width=37   height=53   xoffset=1    yoffset=14   xadvance=36   page=0    chnl=0 
char id=101     x=112  y=275  width=30   height=37   xoffset=1    yoffset=30   xadvance=32   page=0    chnl=0 
char id=102     x=439  y=69   width=39   height=52   xoffset=1    yoffset=14   xadvance=24   page=0    chnl=0 
char id=103     x=0    y=122  width=35   height=52   xoffset=1    yoffset=30   xadvance=36   page=0    chnl=0 
char id=104     x=35   y=122  width=38   height=52   xoffset=-1   yoffset=14   xadvance=36   page=0    chnl=0 
char id=105     x=478  y=69   width=19   height=52   xoffset=1    yoffset=14   xadvance=20   page=0    chnl=0 
char id=106     x=0    y=0    width=28   height=69   xoffset=-7   yoffset=13   xadvance=20   page=0    chnl=0 
char id=107     x=73   y=122  width=39   height=52   xoffset=-1   yoffset=14   xadvance=36   page=0    chnl=0 
char id=108     x=491  y=0    width=19   height=52   xoffset=1    yoffset=14   xadvance=20   page=0    chnl=0 
char id=109     x=212  y=275  width=58   height=36   xoffset=-1   yoffset=30   xadvance=56   page=0    chnl=0 
char id=110     x=270  y=275  width=38   height=36   xoffset=-1   yoffset=30   xadvance=36   page=0    chnl=0 
char id=111     x=142  y=275  width=34   height=37   xoffset=1    yoffset=30   xadvance=36   page=0    chnl=0 
char id=112     x=112  y=122  width=37   height=52   xoffset=-2   yoffset=30   xadvance=36   page=0    chnl=0 
char id=113     x=149  y=122  width=36   height=52   xoffset=1    yoffset=30   xadvance=36   page=0    chnl=0 
char id=114     x=308  y=275  width=27   height=36   xoffset=-1   yoffset=30   xadvance=24   page=0    chnl=0 
char id=115     x=176  y=275  width=25   height=37   xoffset=2    yoffset=30   xadvance=28   page=0    chnl=0 
char id=116     x=415  y=225  width=23   height=46   xoffset=-1   yoffset=21   xadvance=20   page=0    chnl=0 
char id=117     x=335  y=275  width=38   height=36   xoffset=-1   yoffset=31   xadvance=36   page=0    chnl=0 
char id=118     x=373  y=275  width=38   height=36   xoffset=-1   yoffset=31   xadvance=36   page=0    chnl=0 
char id=119     x=411  y=275  width=54   height=36   xoffset=-1   yoffset=31   xadvance=52   page=0    chnl=0 
char id=120     x=465  y=275  width=38   height=35   xoffset=-1   yoffset=31   xadvance=36   page=0    chnl=0 
char id=121     x=465  y=122  width=38   height=51   xoffset=-1   yoffset=31   xadvance=36   page=0    chnl=0 
char id=122     x=0    y=313  width=32   height=35   xoffset=0    yoffset=31   xadvance=32   page=0    chnl=0 
char id=123     x=74   y=0    width=23   height=68   xoffset=8    yoffset=14   xadvance=35   page=0    chnl=0 
char id=124     x=119  y=0    width=6    height=68   xoffset=4    yoffset=14   xadvance=14   page=0    chnl=0 
char id=125     x=97   y=0    width=22   height=68   xoffset=5    yoffset=14   xadvance=35   page=0    chnl=0 
char id=126     x=196  y=313  width=41   height=13   xoffset=-1   yoffset=40   xadvance=39   page=0    chnl=0 
